{
	"format_version": "1.12.0",
	"minecraft:geometry": [
		{
			"description": {
				"identifier": "geometry.slowbro",
				"texture_width": 64,
				"texture_height": 64,
				"visible_bounds_width": 4,
				"visible_bounds_height": 2.5,
				"visible_bounds_offset": [0, 0.75, 0]
			},
			"bones": [
				{
					"name": "slowbro",
					"pivot": [0, 0, -1]
				},
				{
					"name": "body",
					"parent": "slowbro",
					"pivot": [0, 7.17045, -0.32188],
					"cubes": [
						{"origin": [-4, 2.25, -4], "size": [8, 10, 7], "pivot": [-0.5, 9.25, 0.5], "rotation": [5, 0, 0], "uv": [0, 0]}
					]
				},
				{
					"name": "head",
					"parent": "body",
					"pivot": [0, 11.84638, -0.74434],
					"cubes": [
						{"origin": [-3.5, 11.84638, -4.24434], "size": [7, 7, 7], "uv": [0, 17]},
						{"origin": [-3, 12.34638, -6.24434], "size": [6, 3, 2], "uv": [31, 38]}
					]
				},
				{
					"name": "eyes",
					"parent": "head",
					"pivot": [0, 16.84638, -4.29434],
					"cubes": [
						{"origin": [2, 16.34638, -4.29434], "size": [1, 1, 0], "inflate": 0.02, "uv": [62, 0], "mirror": true},
						{"origin": [-3, 16.34638, -4.29434], "size": [1, 1, 0], "inflate": 0.02, "uv": [62, 0]}
					]
				},
				{
					"name": "leftear",
					"parent": "head",
					"pivot": [3, 18.34638, -1.24434],
					"cubes": [
						{"origin": [2.5, 17.34638, -1.24434], "size": [3, 3, 0], "inflate": 0.02, "uv": [0, 0]}
					]
				},
				{
					"name": "rightear",
					"parent": "head",
					"pivot": [-3, 18.34638, -1.24434],
					"cubes": [
						{"origin": [-5.5, 17.34638, -1.24434], "size": [3, 3, 0], "inflate": 0.02, "uv": [0, 3]}
					]
				},
				{
					"name": "tail",
					"parent": "body",
					"pivot": [0, 5.25, 2.5],
					"cubes": [
						{"origin": [-2, 3.25, 2], "size": [4, 4, 6], "uv": [24, 11]}
					]
				},
				{
					"name": "tail2",
					"parent": "tail",
					"pivot": [0, 4.75, 8],
					"cubes": [
						{"origin": [-1.5, 3.25, 8], "size": [3, 3, 5], "uv": [0, 31]},
						{"origin": [0, 3.25, 13], "size": [0, 3, 4], "uv": [21, 17]}
					]
				},
				{
					"name": "fesh",
					"parent": "tail2",
					"pivot": [0, 4.75, 10],
					"cubes": [
						{"origin": [-3, 2.5, 16], "size": [6, 5, 3], "uv": [46, 56]},
						{"origin": [-5.5, 6, 13.25], "size": [2, 0, 2], "inflate": 0.02, "uv": [0, 43]},
						{"origin": [0.5, 8, 13], "size": [0, 2, 2], "inflate": 0.02, "uv": [0, 44]},
						{"origin": [-1.5, 7.5, 16.5], "size": [0, 2, 2], "inflate": 0.02, "uv": [0, 44]},
						{"origin": [0.5, 6.5, 20.5], "size": [0, 2, 2], "inflate": 0.02, "uv": [0, 44]},
						{"origin": [-4, 5.75, 20.25], "size": [2, 0, 2], "inflate": 0.02, "uv": [0, 43]},
						{"origin": [-2, 3.5, 19], "size": [4, 3, 4], "uv": [30, 57]},
						{"origin": [-5, 3.75, 16.5], "size": [2, 0, 2], "inflate": 0.02, "uv": [0, 43]},
						{"origin": [2, 4.5, 19.75], "size": [2, 0, 2], "inflate": 0.02, "uv": [9, 46]},
						{"origin": [3, 6, 16.5], "size": [2, 0, 2], "inflate": 0.02, "uv": [9, 46]},
						{"origin": [3.5, 4.25, 13.25], "size": [2, 0, 2], "inflate": 0.02, "uv": [9, 46]},
						{"origin": [-3.5, 8.025, 10.5], "size": [3, 0, 2], "pivot": [-1.75, 8, 11], "rotation": [0, 5, 0], "uv": [56, 43]},
						{"origin": [0.5, 8.025, 10.5], "size": [3, 0, 2], "inflate": 0.02, "pivot": [1.75, 8, 11], "rotation": [0, -5, 0], "uv": [56, 43], "mirror": true},
						{"origin": [0.75, 8.05, 10.5], "size": [1, 0, 1], "pivot": [1.75, 8, 11], "rotation": [0, -5, 0], "uv": [60, 27], "mirror": true},
						{"origin": [-1.75, 8.05, 10.5], "size": [1, 0, 1], "inflate": 0.02, "pivot": [-1.75, 8, 11], "rotation": [0, 5, 0], "uv": [60, 27]},
						{"origin": [-3.5, 2, 10], "size": [7, 6, 6], "uv": [0, 52]}
					]
				},
				{
					"name": "leftarm",
					"parent": "body",
					"pivot": [4, 10.25, -1.75],
					"cubes": [
						{"origin": [4, 8.75, -3.25], "size": [6, 3, 3], "uv": [36, 21]}
					]
				},
				{
					"name": "rightarm",
					"parent": "body",
					"pivot": [-4, 10.25, -1.75],
					"cubes": [
						{"origin": [-10, 8.75, -3.25], "size": [6, 3, 3], "uv": [13, 37]}
					]
				},
				{
					"name": "leftleg",
					"parent": "body",
					"pivot": [-3.25, 6, -0.25],
					"cubes": [
						{"origin": [-5.25, 1, -2.75], "size": [4, 6, 5], "uv": [23, 26]}
					]
				},
				{
					"name": "leftfoot",
					"parent": "leftleg",
					"pivot": [-3.25, 1, 0],
					"cubes": [
						{"origin": [-4.75, 0, -3.5], "size": [3, 1, 5], "uv": [36, 32]},
						{"origin": [-4.03972, 0, -5.59667], "size": [0, 1, 2], "inflate": 0.02, "pivot": [-3.03782, 8, -1.14025], "rotation": [0, 5, 0], "uv": [0, 15]},
						{"origin": [-2.46028, 0, -5.59667], "size": [0, 1, 2], "inflate": 0.02, "pivot": [-3.46218, 8, -1.14025], "rotation": [0, -5, 0], "uv": [0, 4]}
					]
				},
				{
					"name": "rightleg",
					"parent": "body",
					"pivot": [3.25, 6, -0.25],
					"cubes": [
						{"origin": [1.25, 1, -2.75], "size": [4, 6, 5], "uv": [30, 0]}
					]
				},
				{
					"name": "rightfoot",
					"parent": "rightleg",
					"pivot": [3.25, 1, 0],
					"cubes": [
						{"origin": [1.75, 0, -3.5], "size": [3, 1, 5], "uv": [38, 11]},
						{"origin": [4.03972, 0, -5.59667], "size": [0, 1, 2], "inflate": 0.02, "pivot": [3.03782, 8, -1.14025], "rotation": [0, -5, 0], "uv": [0, 16]},
						{"origin": [2.46028, 0, -5.59667], "size": [0, 1, 2], "inflate": 0.02, "pivot": [3.46218, 8, -1.14025], "rotation": [0, 5, 0], "uv": [0, 17]}
					]
				}
			]
		}
	]
}