{
	"format_version": "1.12.0",
	"minecraft:geometry": [
		{
			"description": {
				"identifier": "geometry.igglybuff",
				"texture_width": 32,
				"texture_height": 32,
				"visible_bounds_width": 2,
				"visible_bounds_height": 2.5,
				"visible_bounds_offset": [0, 0.75, 0]
			},
			"bones": [
				{
					"name": "igglybuff",
					"pivot": [0, 0, 0]
				},
				{
					"name": "body",
					"parent": "igglybuff",
					"pivot": [0, 4.5, 0],
					"cubes": [
						{"origin": [-3.5, 1, -3.5], "size": [7, 7, 7], "uv": [0, 0]}
					]
				},
				{
					"name": "eyes",
					"parent": "body",
					"pivot": [0, 5, -3.525],
					"cubes": [
						{"origin": [1, 4, -3.525], "size": [2, 2, 0], "inflate": 0.02, "uv": [28, 30]},
						{"origin": [-0.5, 2.75, -3.525], "size": [1, 1, 0], "inflate": 0.02, "uv": [30, 28]},
						{"origin": [-3, 4, -3.525], "size": [2, 2, 0], "inflate": 0.02, "uv": [28, 30], "mirror": true}
					]
				},
				{
					"name": "hair",
					"parent": "body",
					"pivot": [0, 8, 0],
					"cubes": [
						{"origin": [-2.5, 8, 0], "size": [5, 3, 0], "inflate": 0.02, "uv": [17, 14]}
					]
				},
				{
					"name": "lefthand",
					"parent": "body",
					"pivot": [3.5, 3.75, -2.25],
					"cubes": [
						{"origin": [2.5, 3.25, -2.25], "size": [3, 1, 0], "inflate": 0.02, "uv": [0, 0]}
					]
				},
				{
					"name": "righthand",
					"parent": "body",
					"pivot": [-3.5, 3.75, -2.25],
					"cubes": [
						{"origin": [-5.5, 3.25, -2.25], "size": [3, 1, 0], "inflate": 0.02, "uv": [0, 1]}
					]
				},
				{
					"name": "leftfoot",
					"parent": "body",
					"pivot": [1.75, 1, 0.25],
					"cubes": [
						{"origin": [0.75, 0, -1.75], "size": [2, 1, 3], "uv": [0, 14]}
					]
				},
				{
					"name": "rightfoot",
					"parent": "body",
					"pivot": [-1.75, 1, 0.25],
					"cubes": [
						{"origin": [-2.75, 0, -1.75], "size": [2, 1, 3], "uv": [10, 14]}
					]
				}
			]
		}
	]
}