{
  "capture_succeeded": {
    "subtitle": "pokemoncobbled.subtitle.capture_succeeded",
    "sounds": [ "pokemoncobbled:pokeball/capture_succeeded" ]
  },
  "shake": {
    "sounds": [ "pokemoncobbled:pokeball/shake" ]
  },
  "capture_started": {
    "sounds": [ "pokemoncobbled:pokeball/capture_started" ]
  },
  "recall": {
    "sounds": [ "pokemoncobbled:pokeball/recall" ]
  },
  "send_out": {
    "sounds": [ "pokemoncobbled:pokeball/send_out" ]
  },
  "hit": {
    "sounds": [ "pokemoncobbled:pokeball/hit" ]
  }
}