{
    "name": "drednaw",
    "nationalPokedexNumber": 834,
    "primaryType": "water",
    "secondaryType": "rock",
    "abilities": [
        "strongjaw",
        "shellarmor",
        "h:swiftswim"
    ],
    "baseStats": {
        "hp": 90,
        "attack": 115,
        "defence": 90,
        "special_attack": 48,
        "special_defence": 68,
        "speed": 74
    },
    "catchRate": 75,
    "maleRatio": 0.5,
    "shoulderMountable": false,
    "forms": [
        {
            "name": "gmax",
            "aspects": [
                "gmax"
            ]
        }
    ],
    "baseExperienceYield": 170,
    "experienceGroup": "mediumfast",
    "eggCycles": 20,
    "eggGroups": [
        "monster",
        "water1"
    ],
    "moves": [
        "0:rocktomb",
        "1:tackle",
        "1:bite",
        "1:watergun",
        "1:protect",
        "1:crunch",
        "1:rockpolish",
        "1:razorshell",
        "21:headbutt",
        "30:counter",
        "39:jawlock",
        "48:liquidation",
        "57:bodyslam",
        "66:headsmash",
        "tm:assurance",
        "tm:attract",
        "tm:blizzard",
        "tm:bodypress",
        "tm:bulldoze",
        "tm:dig",
        "tm:dive",
        "tm:earthpower",
        "tm:earthquake",
        "tm:endure",
        "tm:facade",
        "tm:falseswipe",
        "tm:gigaimpact",
        "tm:highhorsepower",
        "tm:hydropump",
        "tm:hyperbeam",
        "tm:icebeam",
        "tm:icefang",
        "tm:irondefense",
        "tm:irontail",
        "tm:megahorn",
        "tm:muddywater",
        "tm:mudshot",
        "tm:payback",
        "tm:poisonjab",
        "tm:raindance",
        "tm:rest",
        "tm:revenge",
        "tm:rockblast",
        "tm:rockslide",
        "tm:round",
        "tm:sandstorm",
        "tm:sandtomb",
        "tm:scald",
        "tm:scaryface",
        "tm:sleeptalk",
        "tm:smartstrike",
        "tm:snore",
        "tm:stealthrock",
        "tm:stompingtantrum",
        "tm:stoneedge",
        "tm:substitute",
        "tm:superpower",
        "tm:surf",
        "tm:swordsdance",
        "tm:throatchop",
        "tm:waterfall",
        "tm:whirlpool",
        "tutor:meteorbeam",
        "tutor:scaleshot",
        "tutor:skittersmack"
    ],
    "labels": [
        "gen8"
    ],
    "pokedex": [
        "pokemoncobbled.species.drednaw.desc1",
        "pokemoncobbled.species.drednaw.desc2"
    ],
    "preEvolution": "chewtle",
    "evolutions": [],
    "baseScale": 1.0,
    "hitbox": {
        "width": 1.0,
        "height": 1.0,
        "fixed": false
    }
}