{
    "name": "duraludon",
    "nationalPokedexNumber": 884,
    "primaryType": "steel",
    "secondaryType": "dragon",
    "abilities": [
        "lightmetal",
        "heavymetal",
        "h:stalwart"
    ],
    "baseStats": {
        "hp": 70,
        "attack": 95,
        "defence": 115,
        "special_attack": 120,
        "special_defence": 50,
        "speed": 85
    },
    "catchRate": 45,
    "maleRatio": 0.5,
    "shoulderMountable": false,
    "forms": [
        {
            "name": "gmax",
            "aspects": [
                "gmax"
            ]
        }
    ],
    "baseExperienceYield": 187,
    "experienceGroup": "mediumfast",
    "eggCycles": 30,
    "eggGroups": [
        "mineral",
        "dragon"
    ],
    "moves": [
        "1:leer",
        "1:metalclaw",
        "6:rocksmash",
        "12:honeclaws",
        "18:metalsound",
        "24:breakingswipe",
        "30:dragontail",
        "36:irondefense",
        "42:laserfocus",
        "48:dragonclaw",
        "54:flashcannon",
        "60:metalburst",
        "66:hyperbeam",
        "egg:mirrorcoat",
        "egg:nightslash",
        "egg:slash",
        "tm:attract",
        "tm:bodypress",
        "tm:bodyslam",
        "tm:brickbreak",
        "tm:darkpulse",
        "tm:dragonpulse",
        "tm:endure",
        "tm:facade",
        "tm:foulplay",
        "tm:gigaimpact",
        "tm:gyroball",
        "tm:heavyslam",
        "tm:ironhead",
        "tm:lightscreen",
        "tm:outrage",
        "tm:protect",
        "tm:reflect",
        "tm:rest",
        "tm:rockslide",
        "tm:rocktomb",
        "tm:round",
        "tm:scaryface",
        "tm:screech",
        "tm:sleeptalk",
        "tm:snarl",
        "tm:snore",
        "tm:solarbeam",
        "tm:stealthrock",
        "tm:stompingtantrum",
        "tm:stoneedge",
        "tm:substitute",
        "tm:swordsdance",
        "tm:thunder",
        "tm:thunderbolt",
        "tm:thunderwave",
        "tutor:dracometeor",
        "tutor:steelbeam",
        "tutor:steelroller"
    ],
    "labels": [
        "gen8"
    ],
    "pokedex": [
        "pokemoncobbled.species.duraludon.desc1",
        "pokemoncobbled.species.duraludon.desc2"
    ],
    "evolutions": [],
    "baseScale": 1.0,
    "hitbox": {
        "width": 1.0,
        "height": 1.0,
        "fixed": false
    }
}