{
    "name": "rolycoly",
    "nationalPokedexNumber": 837,
    "primaryType": "rock",
    "abilities": [
        "steamengine",
        "heatproof",
        "h:flashfire"
    ],
    "baseStats": {
        "hp": 30,
        "attack": 40,
        "defence": 50,
        "special_attack": 40,
        "special_defence": 50,
        "speed": 30
    },
    "catchRate": 255,
    "maleRatio": 0.5,
    "shoulderMountable": false,
    "forms": [],
    "baseExperienceYield": 48,
    "experienceGroup": "mediumslow",
    "eggCycles": 15,
    "eggGroups": [
        "mineral"
    ],
    "moves": [
        "1:tackle",
        "1:smokescreen",
        "5:rapidspin",
        "10:smackdown",
        "15:rockpolish",
        "20:ancientpower",
        "25:incinerate",
        "30:stealthrock",
        "35:heatcrash",
        "40:rockblast",
        "egg:block",
        "egg:explosion",
        "egg:mudslap",
        "tm:attract",
        "tm:dig",
        "tm:endure",
        "tm:facade",
        "tm:gyroball",
        "tm:irondefense",
        "tm:ironhead",
        "tm:protect",
        "tm:reflect",
        "tm:rest",
        "tm:rockslide",
        "tm:rocktomb",
        "tm:round",
        "tm:sandstorm",
        "tm:sandtomb",
        "tm:selfdestruct",
        "tm:sleeptalk",
        "tm:snore",
        "tm:spikes",
        "tm:stoneedge",
        "tm:substitute",
        "tm:willowisp",
        "tutor:meteorbeam"
    ],
    "labels": [
        "gen8"
    ],
    "pokedex": [
        "pokemoncobbled.species.rolycoly.desc1",
        "pokemoncobbled.species.rolycoly.desc2"
    ],
    "evolutions": [
        {
            "id": "rolycoly_carkol",
            "variant": "level_up",
            "result": "carkol",
            "consumeHeldItem": false,
            "learnableMoves": [],
            "requirements": [
                {
                    "variant": "level",
                    "minLevel": 18
                }
            ]
        }
    ],
    "baseScale": 1.0,
    "hitbox": {
        "width": 1.0,
        "height": 1.0,
        "fixed": false
    }
}