{
    "name": "toxtricityamped",
    "nationalPokedexNumber": 849,
    "primaryType": "electric",
    "secondaryType": "poison",
    "abilities": [
        "punkrock",
        "plus",
        "h:technician"
    ],
    "baseStats": {
        "hp": 75,
        "attack": 98,
        "defence": 70,
        "special_attack": 114,
        "special_defence": 70,
        "speed": 75
    },
    "catchRate": 45,
    "maleRatio": 0.5,
    "shoulderMountable": false,
    "forms": [
        {
            "name": "low-key",
            "abilities": [
                "punkrock",
                "minus",
                "h:technician"
            ],
            "aspects": [
                "low-key"
            ]
        },
        {
            "name": "amped-gmax",
            "aspects": [
                "amped-gmax"
            ]
        },
        {
            "name": "low-key-gmax",
            "abilities": [
                "punkrock",
                "minus",
                "h:technician"
            ],
            "aspects": [
                "low-key-gmax"
            ]
        }
    ],
    "baseExperienceYield": 176,
    "experienceGroup": "mediumslow",
    "eggCycles": 25,
    "eggGroups": [
        "humanshape"
    ],
    "moves": [
        "0:spark",
        "1:leer",
        "1:growl",
        "1:acid",
        "1:thundershock",
        "1:flail",
        "1:acidspray",
        "1:belch",
        "1:nobleroar",
        "1:eerieimpulse",
        "1:nuzzle",
        "1:tearfullook",
        "4:charge",
        "8:shockwave",
        "12:scaryface",
        "16:taunt",
        "20:venoshock",
        "24:screech",
        "28:swagger",
        "32:toxic",
        "36:discharge",
        "40:poisonjab",
        "44:overdrive",
        "48:boomburst",
        "52:shiftgear",
        "tm:attract",
        "tm:drainpunch",
        "tm:electroball",
        "tm:encore",
        "tm:endure",
        "tm:facade",
        "tm:firepunch",
        "tm:fling",
        "tm:gigaimpact",
        "tm:gunkshot",
        "tm:hex",
        "tm:hyperbeam",
        "tm:hypervoice",
        "tm:megakick",
        "tm:megapunch",
        "tm:payback",
        "tm:protect",
        "tm:rest",
        "tm:round",
        "tm:sleeptalk",
        "tm:sludgebomb",
        "tm:sludgewave",
        "tm:snarl",
        "tm:snore",
        "tm:storedpower",
        "tm:substitute",
        "tm:swift",
        "tm:throatchop",
        "tm:thunder",
        "tm:thunderbolt",
        "tm:thunderpunch",
        "tm:thunderwave",
        "tm:uproar",
        "tm:voltswitch",
        "tm:wildcharge",
        "tutor:risingvoltage"
    ],
    "labels": [
        "gen8"
    ],
    "pokedex": [
        "pokemoncobbled.species.toxtricityamped.desc1",
        "pokemoncobbled.species.toxtricityamped.desc2"
    ],
    "preEvolution": "toxel",
    "evolutions": [],
    "baseScale": 1.0,
    "hitbox": {
        "width": 1.0,
        "height": 1.0,
        "fixed": false
    }
}