{
    "name": "yamper",
    "nationalPokedexNumber": 835,
    "primaryType": "electric",
    "abilities": [
        "ballfetch",
        "h:rattled"
    ],
    "baseStats": {
        "hp": 59,
        "attack": 45,
        "defence": 50,
        "special_attack": 40,
        "special_defence": 50,
        "speed": 26
    },
    "catchRate": 255,
    "maleRatio": 0.5,
    "shoulderMountable": false,
    "forms": [],
    "baseExperienceYield": 54,
    "experienceGroup": "fast",
    "eggCycles": 20,
    "eggGroups": [
        "ground"
    ],
    "moves": [
        "1:tackle",
        "1:tailwhip",
        "5:nuzzle",
        "10:bite",
        "15:roar",
        "20:spark",
        "26:charm",
        "30:crunch",
        "35:charge",
        "40:wildcharge",
        "45:playrough",
        "egg:discharge",
        "egg:doubleedge",
        "egg:flamecharge",
        "egg:howl",
        "egg:sandattack",
        "tm:attract",
        "tm:dig",
        "tm:electroball",
        "tm:endure",
        "tm:facade",
        "tm:firefang",
        "tm:helpinghand",
        "tm:protect",
        "tm:rest",
        "tm:round",
        "tm:sleeptalk",
        "tm:snarl",
        "tm:snore",
        "tm:substitute",
        "tm:swift",
        "tm:thunder",
        "tm:thunderbolt",
        "tm:thunderfang",
        "tm:thunderwave",
        "tm:uproar",
        "tm:voltswitch",
        "tutor:risingvoltage"
    ],
    "labels": [
        "gen8"
    ],
    "pokedex": [
        "pokemoncobbled.species.yamper.desc1",
        "pokemoncobbled.species.yamper.desc2"
    ],
    "evolutions": [
        {
            "id": "yamper_boltund",
            "variant": "level_up",
            "result": "boltund",
            "consumeHeldItem": false,
            "learnableMoves": [],
            "requirements": [
                {
                    "variant": "level",
                    "minLevel": 25
                }
            ]
        }
    ],
    "baseScale": 1.0,
    "hitbox": {
        "width": 1.0,
        "height": 1.0,
        "fixed": false
    }
}