{
    "name": "zamazenta",
    "nationalPokedexNumber": 889,
    "primaryType": "fighting",
    "abilities": [
        "dauntlessshield"
    ],
    "baseStats": {
        "hp": 92,
        "attack": 130,
        "defence": 115,
        "special_attack": 80,
        "special_defence": 115,
        "speed": 138
    },
    "catchRate": 10,
    "maleRatio": 1.125,
    "shoulderMountable": false,
    "forms": [
        {
            "name": "crowned",
            "secondaryType": "steel",
            "baseStats": {
                "hp": 92,
                "attack": 130,
                "defence": 145,
                "special_attack": 80,
                "special_defence": 145,
                "speed": 128
            },
            "aspects": [
                "crowned"
            ]
        }
    ],
    "baseExperienceYield": 335,
    "experienceGroup": "slow",
    "eggCycles": 120,
    "eggGroups": [
        "no-eggs"
    ],
    "moves": [
        "1:bite",
        "1:quickattack",
        "1:metalclaw",
        "1:howl",
        "1:metalburst",
        "1:wideguard",
        "11:slash",
        "22:irondefense",
        "33:ironhead",
        "44:laserfocus",
        "55:crunch",
        "66:moonblast",
        "77:closecombat",
        "88:gigaimpact",
        "tm:agility",
        "tm:dazzlinggleam",
        "tm:dig",
        "tm:endure",
        "tm:facade",
        "tm:firefang",
        "tm:flashcannon",
        "tm:focusblast",
        "tm:focusenergy",
        "tm:guardswap",
        "tm:helpinghand",
        "tm:hyperbeam",
        "tm:hypervoice",
        "tm:icefang",
        "tm:imprison",
        "tm:irontail",
        "tm:lightscreen",
        "tm:payback",
        "tm:playrough",
        "tm:powerswap",
        "tm:protect",
        "tm:psychicfangs",
        "tm:reflect",
        "tm:rest",
        "tm:retaliate",
        "tm:revenge",
        "tm:reversal",
        "tm:round",
        "tm:safeguard",
        "tm:scaryface",
        "tm:sleeptalk",
        "tm:snarl",
        "tm:snore",
        "tm:solarbeam",
        "tm:substitute",
        "tm:swift",
        "tm:tailslap",
        "tm:thunderfang",
        "tm:wildcharge",
        "tm:workup",
        "tutor:coaching",
        "tutor:steelbeam"
    ],
    "labels": [
        "legendary",
        "gen8"
    ],
    "pokedex": [
        "pokemoncobbled.species.zamazenta.desc1",
        "pokemoncobbled.species.zamazenta.desc2"
    ],
    "evolutions": [],
    "baseScale": 1.0,
    "hitbox": {
        "width": 1.0,
        "height": 1.0,
        "fixed": false
    }
}