{
  "replace": false,
  "values": [
    "pokemoncobbled:apricorn_log",
    "pokemoncobbled:stripped_apricorn_log",
    "pokemoncobbled:apricorn_wood",
    "pokemoncobbled:stripped_apricorn_wood"
  ]
}