{
	"format_version": "1.12.0",
	"minecraft:geometry": [
		{
			"description": {
				"identifier": "geometry.scyther_male",
				"texture_width": 128,
				"texture_height": 128,
				"visible_bounds_width": 5,
				"visible_bounds_height": 3.5,
				"visible_bounds_offset": [0, 1.25, 0]
			},
			"bones": [
				{
					"name": "scyther",
					"pivot": [0, 0, 0]
				},
				{
					"name": "body",
					"parent": "scyther",
					"pivot": [0, 0, 0]
				},
				{
					"name": "abdomen",
					"parent": "body",
					"pivot": [0, 14.475, -1.5],
					"cubes": [
						{"origin": [-2.5, 9.725, -4.25], "size": [5, 2, 5], "uv": [32, 0]},
						{"origin": [-3, 11.725, -4.75], "size": [6, 6, 6], "uv": [20, 35]}
					]
				},
				{
					"name": "waist",
					"parent": "abdomen",
					"pivot": [0, 17.725, -1.75],
					"cubes": [
						{"origin": [-2.5, 16.725, -4.25], "size": [5, 4, 5], "uv": [11, 0]}
					]
				},
				{
					"name": "torso",
					"parent": "waist",
					"pivot": [0, 19.725, -2],
					"rotation": [5, 0, 0],
					"cubes": [
						{"origin": [-3.5, 19.725, -5], "size": [7, 6, 6], "uv": [0, 29]}
					]
				},
				{
					"name": "neck",
					"parent": "torso",
					"pivot": [0, 25.725, -1.5],
					"rotation": [10, 0, 0],
					"cubes": [
						{"origin": [-1.5, 24.725, -3], "size": [3, 4, 3], "uv": [56, 49]}
					]
				},
				{
					"name": "head",
					"parent": "neck",
					"pivot": [0, 27.725, -1.5],
					"cubes": [
						{"origin": [-3, 27.725, -5.5], "size": [6, 6, 7], "uv": [27, 22]},
						{"origin": [-2, 28.725, -8.5], "size": [4, 3, 3], "uv": [54, 9]},
						{"origin": [-4.9, 27.725, -1.25], "size": [2, 3, 0], "pivot": [-2.9, 29.225, -1.25], "rotation": [-15, 35, -10], "uv": [0, 0]},
						{"origin": [2.9, 27.725, -1.25], "size": [2, 3, 0], "pivot": [2.9, 29.225, -1.25], "rotation": [-15, -35, 10], "uv": [20, 12]},
						{"origin": [-7.25, 30.725, -1], "size": [5, 3, 0], "pivot": [-2.25, 32.225, -1], "rotation": [0, 35, 30], "uv": [44, 39]},
						{"origin": [-1.5, 33.725, -1], "size": [3, 4, 0], "pivot": [0, 33.725, -1], "rotation": [-30, 0, 0], "uv": [58, 15]},
						{"origin": [2.25, 30.725, -1], "size": [5, 3, 0], "pivot": [2.25, 32.225, -1], "rotation": [0, -35, -30], "uv": [54, 43]},
						{"origin": [-1.5, 31.725, 1.5], "size": [3, 0, 4], "pivot": [0, 31.725, 1.5], "rotation": [35, 0, 0], "uv": [16, 29]}
					]
				},
				{
					"name": "eye_right",
					"parent": "head",
					"pivot": [-2.5, 31.725, -3.5],
					"cubes": [
						{"origin": [-3, 30.725, -5.5], "size": [1, 2, 4], "inflate": 0.01, "uv": [0, 81], "mirror": true}
					]
				},
				{
					"name": "eyelid_right",
					"parent": "eye_right",
					"pivot": [-2.4, 31.725, -3.4],
					"cubes": [
						{"origin": [-2.9, 30.725, -5.4], "size": [1, 2, 4], "inflate": 0.02, "uv": [10, 81], "mirror": true}
					]
				},
				{
					"name": "eye_left",
					"parent": "head",
					"pivot": [2.5, 31.725, -3.5],
					"cubes": [
						{"origin": [2, 30.725, -5.5], "size": [1, 2, 4], "inflate": 0.01, "uv": [0, 81]}
					]
				},
				{
					"name": "eyelid_left",
					"parent": "eye_left",
					"pivot": [2.4, 31.725, -3.4],
					"cubes": [
						{"origin": [1.9, 30.725, -5.4], "size": [1, 2, 4], "inflate": 0.02, "uv": [10, 81]}
					]
				},
				{
					"name": "jaw",
					"parent": "head",
					"pivot": [0, 28.725, -5.5],
					"rotation": [-5, 0, 0],
					"cubes": [
						{"origin": [-1.5, 27.725, -8.25], "size": [3, 1, 3], "uv": [22, 13]}
					]
				},
				{
					"name": "wing_right",
					"parent": "torso",
					"pivot": [-2, 23.475, 1],
					"cubes": [
						{"origin": [-2, 20.475, 1], "size": [0, 6, 17], "uv": [0, 0]}
					]
				},
				{
					"name": "wing_right2",
					"parent": "wing_right",
					"pivot": [-2, 23.475, 1],
					"rotation": [0, -2.5, 0],
					"cubes": [
						{"origin": [-2, 20.975, 1], "size": [0, 5, 10], "uv": [0, 2]}
					]
				},
				{
					"name": "wing_left",
					"parent": "torso",
					"pivot": [2, 23.475, 1],
					"cubes": [
						{"origin": [2, 20.475, 1], "size": [0, 6, 17], "uv": [0, 6]}
					]
				},
				{
					"name": "wing_left2",
					"parent": "wing_left",
					"pivot": [2, 23.475, 1],
					"rotation": [0, 2.5, 0],
					"cubes": [
						{"origin": [2, 20.975, 1], "size": [0, 5, 10], "uv": [0, 31]}
					]
				},
				{
					"name": "should_right",
					"parent": "torso",
					"pivot": [-3.5, 24.225, -2],
					"cubes": [
						{"origin": [-8, 21.725, -4.5], "size": [5, 5, 5], "uv": [0, 46]}
					]
				},
				{
					"name": "arm_right",
					"parent": "should_right",
					"pivot": [-8, 24.225, -2],
					"cubes": [
						{"origin": [-12, 23.225, -3], "size": [5, 2, 2], "uv": [54, 39]}
					]
				},
				{
					"name": "arm_right2",
					"parent": "arm_right",
					"pivot": [-12, 24.225, -2],
					"cubes": [
						{"origin": [-27, 24.225, -6], "size": [15, 0, 6], "uv": [-6, 74]}
					]
				},
				{
					"name": "should_left",
					"parent": "torso",
					"pivot": [3.5, 24.225, -2],
					"cubes": [
						{"origin": [3, 21.725, -4.5], "size": [5, 5, 5], "uv": [39, 42]}
					]
				},
				{
					"name": "arm_left",
					"parent": "should_left",
					"pivot": [8, 24.225, -2],
					"cubes": [
						{"origin": [7, 23.225, -3], "size": [5, 2, 2], "uv": [46, 25]}
					]
				},
				{
					"name": "arm_left2",
					"parent": "arm_left",
					"pivot": [12, 24.225, -2],
					"cubes": [
						{"origin": [12, 24.225, -6], "size": [15, 0, 6], "uv": [-6, 68]}
					]
				},
				{
					"name": "leg_right",
					"parent": "body",
					"pivot": [-3, 14.475, -1.5],
					"cubes": [
						{"origin": [-7, 12.475, -3.5], "size": [4, 4, 4], "uv": [49, 31]},
						{"origin": [-7.26565, 15.98734, -3.19068], "size": [0, 4, 5], "pivot": [-7.26565, 17.98734, -0.69068], "rotation": [-10, 0, -10], "uv": [34, 11]},
						{"origin": [-7, 16.45221, -3.23953], "size": [4, 3, 0], "pivot": [-5, 17.95221, -3.23953], "rotation": [-10, 0, 0], "uv": [47, 0]}
					]
				},
				{
					"name": "leg_right2",
					"parent": "leg_right",
					"pivot": [-5, 12.475, -1.5],
					"rotation": [15, 0, 0],
					"cubes": [
						{"origin": [-6, 8.475, -2.5], "size": [2, 5, 2], "uv": [58, 59]}
					]
				},
				{
					"name": "foot_right",
					"parent": "leg_right2",
					"pivot": [-5, 9.475, -1.5],
					"rotation": [-15, 0, 0],
					"cubes": [
						{"origin": [-6.5, 4.475, -3.5], "size": [3, 5, 4], "uv": [32, 52]}
					]
				},
				{
					"name": "foot_right2",
					"parent": "foot_right",
					"pivot": [-5, 4.475, 0.5],
					"rotation": [-25, 0, 0],
					"cubes": [
						{"origin": [-7, -0.525, -3.5], "size": [4, 5, 4], "uv": [46, 16]}
					]
				},
				{
					"name": "foot_right3",
					"parent": "foot_right2",
					"pivot": [-5, -0.525, 0.5],
					"rotation": [-65, 0, 0],
					"cubes": [
						{"origin": [-7, -4.525, -2.5], "size": [4, 4, 3], "inflate": 0.01, "uv": [0, 56]}
					]
				},
				{
					"name": "toes_right",
					"parent": "foot_right3",
					"pivot": [-5, -4.525, -1.5],
					"cubes": [
						{"origin": [-5, -8.525, -2.5], "size": [0, 4, 3], "uv": [0, 26]},
						{"origin": [-6.6853, -8.04996, -2.5], "size": [0, 4, 3], "pivot": [-6.5, -6.525, -1], "rotation": [0, 0, 10], "uv": [0, 4]},
						{"origin": [-3.3147, -8.04996, -2.5], "size": [0, 4, 3], "pivot": [-3.5, -6.525, -1], "rotation": [0, 0, -10], "uv": [0, 0]}
					]
				},
				{
					"name": "leg_left",
					"parent": "body",
					"pivot": [3, 14.475, -1.5],
					"cubes": [
						{"origin": [3, 12.475, -3.5], "size": [4, 4, 4], "uv": [52, 0]},
						{"origin": [7.26565, 15.98734, -3.19068], "size": [0, 4, 5], "pivot": [7.26565, 17.98734, -0.69068], "rotation": [-10, 0, 10], "uv": [38, 30]},
						{"origin": [3, 16.45221, -3.23953], "size": [4, 3, 0], "pivot": [5, 17.95221, -3.23953], "rotation": [-10, 0, 0], "uv": [42, 52]}
					]
				},
				{
					"name": "leg_left2",
					"parent": "leg_left",
					"pivot": [5, 12.475, -1.5],
					"rotation": [15, 0, 0],
					"cubes": [
						{"origin": [4, 8.475, -2.5], "size": [2, 5, 2], "uv": [26, 61]}
					]
				},
				{
					"name": "foot_left1",
					"parent": "leg_left2",
					"pivot": [5, 9.475, -1.5],
					"rotation": [-15, 0, 0],
					"cubes": [
						{"origin": [3.5, 4.475, -3.5], "size": [3, 5, 4], "uv": [46, 52]}
					]
				},
				{
					"name": "foot_left2",
					"parent": "foot_left1",
					"pivot": [5, 4.475, 0.5],
					"rotation": [-25, 0, 0],
					"cubes": [
						{"origin": [3, -0.525, -3.5], "size": [4, 5, 4], "uv": [20, 47]}
					]
				},
				{
					"name": "foot_left3",
					"parent": "foot_left2",
					"pivot": [5, -0.525, 0.5],
					"rotation": [-65, 0, 0],
					"cubes": [
						{"origin": [3, -4.525, -2.5], "size": [4, 4, 3], "inflate": 0.01, "uv": [14, 56]}
					]
				},
				{
					"name": "toes_left",
					"parent": "foot_left3",
					"pivot": [5, -4.525, -1.5],
					"cubes": [
						{"origin": [5, -8.525, -2.5], "size": [0, 4, 3], "uv": [32, 44]},
						{"origin": [6.6853, -8.04996, -2.5], "size": [0, 4, 3], "pivot": [6.5, -6.525, -1], "rotation": [0, 0, -10], "uv": [44, 13]},
						{"origin": [3.3147, -8.04996, -2.5], "size": [0, 4, 3], "pivot": [3.5, -6.525, -1], "rotation": [0, 0, 10], "uv": [15, 44]}
					]
				}
			]
		}
	]
}