{
    "name": "armaldo",
    "nationalPokedexNumber": 348,
    "primaryType": "rock",
    "secondaryType": "bug",
    "abilities": [
        "battlearmor",
        "h:swiftswim"
    ],
    "baseStats": {
        "hp": 75,
        "attack": 125,
        "defence": 100,
        "special_attack": 70,
        "special_defence": 80,
        "speed": 45
    },
    "catchRate": 45,
    "maleRatio": 0.875,
    "shoulderMountable": false,
    "forms": [],
    "baseExperienceYield": 173,
    "experienceGroup": "slowthenveryfast",
    "eggCycles": 30,
    "eggGroups": [
        "water3"
    ],
    "moves": [
        "1:watergun",
        "1:harden",
        "1:furycutter",
        "1:smackdown",
        "12:metalclaw",
        "16:ancientpower",
        "20:bugbite",
        "24:brine",
        "28:slash",
        "32:crushclaw",
        "36:rockblast",
        "43:protect",
        "48:xscissor",
        "tm:attract",
        "tm:bodyslam",
        "tm:brickbreak",
        "tm:brutalswing",
        "tm:bulldoze",
        "tm:crosspoison",
        "tm:dig",
        "tm:earthpower",
        "tm:earthquake",
        "tm:endure",
        "tm:facade",
        "tm:falseswipe",
        "tm:flashcannon",
        "tm:gigaimpact",
        "tm:hyperbeam",
        "tm:irondefense",
        "tm:irontail",
        "tm:liquidation",
        "tm:lowkick",
        "tm:mudshot",
        "tm:rest",
        "tm:rockslide",
        "tm:rocktomb",
        "tm:round",
        "tm:sandstorm",
        "tm:screech",
        "tm:shadowclaw",
        "tm:sleeptalk",
        "tm:snore",
        "tm:stealthrock",
        "tm:stompingtantrum",
        "tm:stoneedge",
        "tm:substitute",
        "tm:sunnyday",
        "tm:superpower",
        "tm:swordsdance",
        "tutor:meteorbeam"
    ],
    "labels": [
        "gen3"
    ],
    "pokedex": [
        "pokemoncobbled.species.armaldo.desc1",
        "pokemoncobbled.species.armaldo.desc2"
    ],
    "preEvolution": "anorith",
    "evolutions": [],
    "baseScale": 1.0,
    "hitbox": {
        "width": 1.0,
        "height": 1.0,
        "fixed": false
    }
}