{
    "name": "bagon",
    "nationalPokedexNumber": 371,
    "primaryType": "dragon",
    "abilities": [
        "rockhead",
        "h:sheerforce"
    ],
    "baseStats": {
        "hp": 45,
        "attack": 75,
        "defence": 60,
        "special_attack": 40,
        "special_defence": 30,
        "speed": 50
    },
    "catchRate": 45,
    "maleRatio": 0.5,
    "shoulderMountable": false,
    "forms": [],
    "baseExperienceYield": 60,
    "experienceGroup": "slow",
    "eggCycles": 40,
    "eggGroups": [
        "dragon"
    ],
    "moves": [
        "1:leer",
        "1:ember",
        "5:bite",
        "10:dragonbreath",
        "15:headbutt",
        "20:scaryface",
        "25:crunch",
        "31:dragonclaw",
        "35:zenheadbutt",
        "40:focusenergy",
        "45:flamethrower",
        "50:outrage",
        "55:doubleedge",
        "egg:defensecurl",
        "egg:dragonrush",
        "egg:thrash",
        "egg:twister",
        "tm:attract",
        "tm:bodyslam",
        "tm:brickbreak",
        "tm:dragondance",
        "tm:dragonpulse",
        "tm:endure",
        "tm:facade",
        "tm:fireblast",
        "tm:firefang",
        "tm:hydropump",
        "tm:hypervoice",
        "tm:irondefense",
        "tm:protect",
        "tm:raindance",
        "tm:rest",
        "tm:rockslide",
        "tm:rocktomb",
        "tm:round",
        "tm:shadowclaw",
        "tm:sleeptalk",
        "tm:snore",
        "tm:substitute",
        "tm:sunnyday",
        "tutor:dracometeor"
    ],
    "labels": [
        "gen3"
    ],
    "pokedex": [
        "pokemoncobbled.species.bagon.desc1",
        "pokemoncobbled.species.bagon.desc2"
    ],
    "evolutions": [
        {
            "id": "bagon_shelgon",
            "variant": "level_up",
            "result": "shelgon",
            "consumeHeldItem": false,
            "learnableMoves": [],
            "requirements": [
                {
                    "variant": "level",
                    "minLevel": 30
                }
            ]
        }
    ],
    "baseScale": 1.0,
    "hitbox": {
        "width": 1.0,
        "height": 1.0,
        "fixed": false
    }
}