{
    "name": "baltoy",
    "nationalPokedexNumber": 343,
    "primaryType": "ground",
    "secondaryType": "psychic",
    "abilities": [
        "levitate"
    ],
    "baseStats": {
        "hp": 40,
        "attack": 40,
        "defence": 55,
        "special_attack": 40,
        "special_defence": 70,
        "speed": 55
    },
    "catchRate": 255,
    "maleRatio": 1.125,
    "shoulderMountable": false,
    "forms": [],
    "baseExperienceYield": 60,
    "experienceGroup": "mediumfast",
    "eggCycles": 20,
    "eggGroups": [
        "mineral"
    ],
    "moves": [
        "1:harden",
        "1:mudslap",
        "3:rapidspin",
        "6:confusion",
        "9:rocktomb",
        "12:powertrick",
        "15:psybeam",
        "18:ancientpower",
        "21:imprison",
        "24:cosmicpower",
        "27:extrasensory",
        "30:earthpower",
        "33:selfdestruct",
        "36:guardsplit",
        "36:powersplit",
        "39:sandstorm",
        "42:explosion",
        "tm:allyswitch",
        "tm:bulldoze",
        "tm:calmmind",
        "tm:dazzlinggleam",
        "tm:dig",
        "tm:drillrun",
        "tm:earthquake",
        "tm:eerieimpulse",
        "tm:endure",
        "tm:facade",
        "tm:grassknot",
        "tm:guardswap",
        "tm:gyroball",
        "tm:hex",
        "tm:icebeam",
        "tm:lightscreen",
        "tm:powerswap",
        "tm:protect",
        "tm:psychic",
        "tm:psychicterrain",
        "tm:psyshock",
        "tm:raindance",
        "tm:reflect",
        "tm:rest",
        "tm:rockslide",
        "tm:round",
        "tm:safeguard",
        "tm:sandtomb",
        "tm:shadowball",
        "tm:skillswap",
        "tm:sleeptalk",
        "tm:snore",
        "tm:solarbeam",
        "tm:stealthrock",
        "tm:substitute",
        "tm:sunnyday",
        "tm:trick",
        "tm:trickroom",
        "tm:wonderroom",
        "tm:zenheadbutt",
        "tutor:expandingforce",
        "tutor:scorchingsands"
    ],
    "labels": [
        "gen3"
    ],
    "pokedex": [
        "pokemoncobbled.species.baltoy.desc1",
        "pokemoncobbled.species.baltoy.desc2"
    ],
    "evolutions": [
        {
            "id": "baltoy_claydol",
            "variant": "level_up",
            "result": "claydol",
            "consumeHeldItem": false,
            "learnableMoves": [],
            "requirements": [
                {
                    "variant": "level",
                    "minLevel": 36
                }
            ]
        }
    ],
    "baseScale": 1.0,
    "hitbox": {
        "width": 1.0,
        "height": 1.0,
        "fixed": false
    }
}