{
    "name": "cascoon",
    "nationalPokedexNumber": 268,
    "primaryType": "bug",
    "abilities": [
        "shedskin"
    ],
    "baseStats": {
        "hp": 50,
        "attack": 35,
        "defence": 55,
        "special_attack": 25,
        "special_defence": 25,
        "speed": 15
    },
    "catchRate": 120,
    "maleRatio": 0.5,
    "shoulderMountable": false,
    "forms": [],
    "baseExperienceYield": 72,
    "experienceGroup": "mediumfast",
    "eggCycles": 15,
    "eggGroups": [
        "bug"
    ],
    "moves": [
        "0:harden",
        "tutor:bugbite",
        "tutor:electroweb",
        "tutor:irondefense"
    ],
    "labels": [
        "gen3"
    ],
    "pokedex": [
        "pokemoncobbled.species.cascoon.desc1",
        "pokemoncobbled.species.cascoon.desc2"
    ],
    "preEvolution": "wurmple",
    "evolutions": [
        {
            "id": "cascoon_dustox",
            "variant": "level_up",
            "result": "dustox",
            "consumeHeldItem": false,
            "learnableMoves": [],
            "requirements": [
                {
                    "variant": "level",
                    "minLevel": 10
                }
            ]
        }
    ],
    "baseScale": 1.0,
    "hitbox": {
        "width": 1.0,
        "height": 1.0,
        "fixed": false
    }
}