{
    "name": "claydol",
    "nationalPokedexNumber": 344,
    "primaryType": "ground",
    "secondaryType": "psychic",
    "abilities": [
        "levitate"
    ],
    "baseStats": {
        "hp": 60,
        "attack": 70,
        "defence": 105,
        "special_attack": 70,
        "special_defence": 120,
        "speed": 75
    },
    "catchRate": 90,
    "maleRatio": 1.125,
    "shoulderMountable": false,
    "forms": [],
    "baseExperienceYield": 175,
    "experienceGroup": "mediumfast",
    "eggCycles": 20,
    "eggGroups": [
        "mineral"
    ],
    "moves": [
        "0:hyperbeam",
        "1:confusion",
        "1:teleport",
        "1:harden",
        "1:mudslap",
        "1:rapidspin",
        "9:rocktomb",
        "12:powertrick",
        "15:psybeam",
        "18:ancientpower",
        "21:imprison",
        "24:cosmicpower",
        "27:extrasensory",
        "30:earthpower",
        "33:selfdestruct",
        "38:guardsplit",
        "38:powersplit",
        "43:sandstorm",
        "48:explosion",
        "tm:allyswitch",
        "tm:bodypress",
        "tm:bulldoze",
        "tm:calmmind",
        "tm:dazzlinggleam",
        "tm:dig",
        "tm:drillrun",
        "tm:earthquake",
        "tm:eerieimpulse",
        "tm:endure",
        "tm:facade",
        "tm:futuresight",
        "tm:gigaimpact",
        "tm:grassknot",
        "tm:guardswap",
        "tm:gyroball",
        "tm:hex",
        "tm:icebeam",
        "tm:irondefense",
        "tm:lightscreen",
        "tm:nastyplot",
        "tm:powerswap",
        "tm:protect",
        "tm:psychic",
        "tm:psychicterrain",
        "tm:psyshock",
        "tm:raindance",
        "tm:reflect",
        "tm:rest",
        "tm:rockslide",
        "tm:round",
        "tm:safeguard",
        "tm:sandtomb",
        "tm:shadowball",
        "tm:skillswap",
        "tm:sleeptalk",
        "tm:snore",
        "tm:solarbeam",
        "tm:stealthrock",
        "tm:stoneedge",
        "tm:storedpower",
        "tm:substitute",
        "tm:sunnyday",
        "tm:trick",
        "tm:trickroom",
        "tm:wonderroom",
        "tm:zenheadbutt",
        "tutor:expandingforce",
        "tutor:scorchingsands"
    ],
    "labels": [
        "gen3"
    ],
    "pokedex": [
        "pokemoncobbled.species.claydol.desc1",
        "pokemoncobbled.species.claydol.desc2"
    ],
    "preEvolution": "baltoy",
    "evolutions": [],
    "baseScale": 1.0,
    "hitbox": {
        "width": 1.0,
        "height": 1.0,
        "fixed": false
    }
}