{
    "name": "crawdaunt",
    "nationalPokedexNumber": 342,
    "primaryType": "water",
    "secondaryType": "dark",
    "abilities": [
        "hypercutter",
        "shellarmor",
        "h:adaptability"
    ],
    "baseStats": {
        "hp": 63,
        "attack": 120,
        "defence": 85,
        "special_attack": 90,
        "special_defence": 55,
        "speed": 55
    },
    "catchRate": 155,
    "maleRatio": 0.5,
    "shoulderMountable": false,
    "forms": [],
    "baseExperienceYield": 164,
    "experienceGroup": "fastthenveryslow",
    "eggCycles": 15,
    "eggGroups": [
        "water1",
        "water3"
    ],
    "moves": [
        "0:swift",
        "1:leer",
        "1:watergun",
        "1:harden",
        "1:taunt",
        "12:bubblebeam",
        "16:knockoff",
        "20:doublehit",
        "24:protect",
        "28:nightslash",
        "34:razorshell",
        "40:swordsdance",
        "46:crunch",
        "52:crabhammer",
        "58:endeavor",
        "64:guillotine",
        "tm:attract",
        "tm:avalanche",
        "tm:blizzard",
        "tm:bodyslam",
        "tm:brickbreak",
        "tm:closecombat",
        "tm:darkpulse",
        "tm:dig",
        "tm:dive",
        "tm:dragondance",
        "tm:endure",
        "tm:facade",
        "tm:falseswipe",
        "tm:fling",
        "tm:gigaimpact",
        "tm:hail",
        "tm:hydropump",
        "tm:hyperbeam",
        "tm:icebeam",
        "tm:icywind",
        "tm:irondefense",
        "tm:liquidation",
        "tm:muddywater",
        "tm:mudshot",
        "tm:nastyplot",
        "tm:payback",
        "tm:raindance",
        "tm:rest",
        "tm:retaliate",
        "tm:revenge",
        "tm:rockslide",
        "tm:rocktomb",
        "tm:round",
        "tm:scald",
        "tm:sleeptalk",
        "tm:sludgebomb",
        "tm:sludgewave",
        "tm:snarl",
        "tm:snore",
        "tm:substitute",
        "tm:superpower",
        "tm:surf",
        "tm:waterfall",
        "tm:whirlpool",
        "tm:xscissor",
        "tutor:lashout"
    ],
    "labels": [
        "gen3"
    ],
    "pokedex": [
        "pokemoncobbled.species.crawdaunt.desc1",
        "pokemoncobbled.species.crawdaunt.desc2"
    ],
    "preEvolution": "corphish",
    "evolutions": [],
    "baseScale": 1.0,
    "hitbox": {
        "width": 1.0,
        "height": 1.0,
        "fixed": false
    }
}