{
    "name": "exploud",
    "nationalPokedexNumber": 295,
    "primaryType": "normal",
    "abilities": [
        "soundproof",
        "h:scrappy"
    ],
    "baseStats": {
        "hp": 104,
        "attack": 91,
        "defence": 63,
        "special_attack": 91,
        "special_defence": 73,
        "speed": 68
    },
    "catchRate": 45,
    "maleRatio": 0.5,
    "shoulderMountable": false,
    "forms": [],
    "baseExperienceYield": 245,
    "experienceGroup": "mediumslow",
    "eggCycles": 20,
    "eggGroups": [
        "monster",
        "ground"
    ],
    "moves": [
        "0:crunch",
        "1:pound",
        "1:bite",
        "1:astonish",
        "1:howl",
        "1:thunderfang",
        "1:icefang",
        "1:firefang",
        "1:echoedvoice",
        "15:rest",
        "15:sleeptalk",
        "23:stomp",
        "29:roar",
        "36:supersonic",
        "45:uproar",
        "54:screech",
        "63:hypervoice",
        "72:boomburst",
        "81:hyperbeam",
        "tm:attract",
        "tm:avalanche",
        "tm:blizzard",
        "tm:bodyslam",
        "tm:brickbreak",
        "tm:bulldoze",
        "tm:earthquake",
        "tm:endure",
        "tm:facade",
        "tm:faketears",
        "tm:fireblast",
        "tm:firepunch",
        "tm:flamethrower",
        "tm:fling",
        "tm:focusblast",
        "tm:gigaimpact",
        "tm:hydropump",
        "tm:icebeam",
        "tm:icepunch",
        "tm:icywind",
        "tm:lowkick",
        "tm:megakick",
        "tm:megapunch",
        "tm:outrage",
        "tm:overheat",
        "tm:protect",
        "tm:raindance",
        "tm:retaliate",
        "tm:rockslide",
        "tm:rocktomb",
        "tm:round",
        "tm:shadowball",
        "tm:snore",
        "tm:solarbeam",
        "tm:stompingtantrum",
        "tm:substitute",
        "tm:sunnyday",
        "tm:surf",
        "tm:taunt",
        "tm:thunderpunch",
        "tm:whirlpool",
        "tm:workup",
        "tm:zenheadbutt",
        "tutor:terrainpulse"
    ],
    "labels": [
        "gen3"
    ],
    "pokedex": [
        "pokemoncobbled.species.exploud.desc1",
        "pokemoncobbled.species.exploud.desc2"
    ],
    "preEvolution": "loudred",
    "evolutions": [],
    "baseScale": 1.0,
    "hitbox": {
        "width": 1.0,
        "height": 1.0,
        "fixed": false
    }
}