{
    "name": "gardevoir",
    "nationalPokedexNumber": 282,
    "primaryType": "psychic",
    "secondaryType": "fairy",
    "abilities": [
        "synchronize",
        "trace",
        "h:telepathy"
    ],
    "baseStats": {
        "hp": 68,
        "attack": 65,
        "defence": 65,
        "special_attack": 125,
        "special_defence": 115,
        "speed": 80
    },
    "catchRate": 45,
    "maleRatio": 0.5,
    "shoulderMountable": false,
    "forms": [
        {
            "name": "mega",
            "abilities": [
                "pixilate"
            ],
            "baseStats": {
                "hp": 68,
                "attack": 85,
                "defence": 65,
                "special_attack": 165,
                "special_defence": 135,
                "speed": 100
            },
            "aspects": [
                "mega"
            ]
        }
    ],
    "baseExperienceYield": 259,
    "experienceGroup": "slow",
    "eggCycles": 20,
    "eggGroups": [
        "humanshape",
        "indeterminate"
    ],
    "moves": [
        "0:dazzlinggleam",
        "1:growl",
        "1:confusion",
        "1:doubleteam",
        "1:charm",
        "1:healingwish",
        "1:disarmingvoice",
        "1:mistyterrain",
        "1:moonblast",
        "9:hypnosis",
        "12:drainingkiss",
        "15:teleport",
        "18:psybeam",
        "23:lifedew",
        "28:wish",
        "35:calmmind",
        "42:psychic",
        "49:healpulse",
        "56:dreameater",
        "63:futuresight",
        "tm:allyswitch",
        "tm:attract",
        "tm:bodyslam",
        "tm:encore",
        "tm:endure",
        "tm:energyball",
        "tm:facade",
        "tm:firepunch",
        "tm:fling",
        "tm:focusblast",
        "tm:gigaimpact",
        "tm:grassknot",
        "tm:guardswap",
        "tm:helpinghand",
        "tm:hyperbeam",
        "tm:hypervoice",
        "tm:icepunch",
        "tm:icywind",
        "tm:imprison",
        "tm:lightscreen",
        "tm:magicalleaf",
        "tm:magicroom",
        "tm:megakick",
        "tm:megapunch",
        "tm:mysticalfire",
        "tm:powerswap",
        "tm:protect",
        "tm:psychicterrain",
        "tm:psyshock",
        "tm:raindance",
        "tm:reflect",
        "tm:rest",
        "tm:round",
        "tm:safeguard",
        "tm:shadowball",
        "tm:skillswap",
        "tm:sleeptalk",
        "tm:snore",
        "tm:storedpower",
        "tm:substitute",
        "tm:sunnyday",
        "tm:swift",
        "tm:taunt",
        "tm:thief",
        "tm:thunderbolt",
        "tm:thunderpunch",
        "tm:thunderwave",
        "tm:trick",
        "tm:trickroom",
        "tm:willowisp",
        "tm:wonderroom",
        "tm:zenheadbutt",
        "tutor:expandingforce",
        "tutor:mistyexplosion",
        "tutor:tripleaxel"
    ],
    "labels": [
        "gen3"
    ],
    "pokedex": [
        "pokemoncobbled.species.gardevoir.desc1",
        "pokemoncobbled.species.gardevoir.desc2"
    ],
    "preEvolution": "kirlia",
    "evolutions": [],
    "baseScale": 1.0,
    "hitbox": {
        "width": 1.0,
        "height": 1.0,
        "fixed": false
    }
}