{
    "name": "illumise",
    "nationalPokedexNumber": 314,
    "primaryType": "bug",
    "abilities": [
        "oblivious",
        "tintedlens",
        "h:prankster"
    ],
    "baseStats": {
        "hp": 65,
        "attack": 47,
        "defence": 75,
        "special_attack": 73,
        "special_defence": 85,
        "speed": 85
    },
    "catchRate": 150,
    "maleRatio": 0.0,
    "shoulderMountable": false,
    "forms": [],
    "baseExperienceYield": 151,
    "experienceGroup": "fastthenveryslow",
    "eggCycles": 15,
    "eggGroups": [
        "bug",
        "humanshape"
    ],
    "moves": [
        "1:tackle",
        "1:playnice",
        "5:sweetscent",
        "9:charm",
        "12:quickattack",
        "15:strugglebug",
        "19:moonlight",
        "22:wish",
        "26:encore",
        "29:flatter",
        "33:zenheadbutt",
        "36:helpinghand",
        "40:bugbuzz",
        "43:playrough",
        "47:covet",
        "50:infestation",
        "egg:aromatherapy",
        "egg:batonpass",
        "egg:captivate",
        "egg:confuseray",
        "egg:faketears",
        "egg:growth",
        "egg:silverwind",
        "tm:acrobatics",
        "tm:aerialace",
        "tm:attract",
        "tm:brickbreak",
        "tm:chargebeam",
        "tm:confide",
        "tm:dazzlinggleam",
        "tm:doubleteam",
        "tm:facade",
        "tm:fling",
        "tm:frustration",
        "tm:hiddenpower",
        "tm:lightscreen",
        "tm:protect",
        "tm:psychup",
        "tm:raindance",
        "tm:rest",
        "tm:return",
        "tm:roost",
        "tm:round",
        "tm:shadowball",
        "tm:sleeptalk",
        "tm:solarbeam",
        "tm:substitute",
        "tm:sunnyday",
        "tm:swagger",
        "tm:thief",
        "tm:thunder",
        "tm:thunderbolt",
        "tm:thunderwave",
        "tm:toxic",
        "tm:uturn",
        "tutor:bugbite",
        "tutor:defog",
        "tutor:focuspunch",
        "tutor:gigadrain",
        "tutor:icepunch",
        "tutor:shockwave",
        "tutor:snore",
        "tutor:tailwind",
        "tutor:thunderpunch",
        "tutor:waterpulse"
    ],
    "labels": [
        "gen3"
    ],
    "pokedex": [
        "pokemoncobbled.species.illumise.desc1",
        "pokemoncobbled.species.illumise.desc2"
    ],
    "evolutions": [],
    "baseScale": 1.0,
    "hitbox": {
        "width": 1.0,
        "height": 1.0,
        "fixed": false
    }
}