{
    "name": "kecleon",
    "nationalPokedexNumber": 352,
    "primaryType": "normal",
    "abilities": [
        "colorchange",
        "h:protean"
    ],
    "baseStats": {
        "hp": 60,
        "attack": 90,
        "defence": 70,
        "special_attack": 60,
        "special_defence": 120,
        "speed": 40
    },
    "catchRate": 200,
    "maleRatio": 0.5,
    "shoulderMountable": false,
    "forms": [],
    "baseExperienceYield": 154,
    "experienceGroup": "mediumslow",
    "eggCycles": 20,
    "eggGroups": [
        "ground"
    ],
    "moves": [
        "1:scratch",
        "1:tailwhip",
        "1:lick",
        "1:thief",
        "1:astonish",
        "4:bind",
        "7:shadowsneak",
        "10:feint",
        "13:furyswipes",
        "16:feintattack",
        "18:psybeam",
        "21:ancientpower",
        "25:slash",
        "30:camouflage",
        "33:shadowclaw",
        "38:screech",
        "42:substitute",
        "46:suckerpunch",
        "50:synchronoise",
        "egg:disable",
        "egg:dizzypunch",
        "egg:fakeout",
        "egg:foulplay",
        "egg:magiccoat",
        "egg:nastyplot",
        "egg:poweruppunch",
        "egg:recover",
        "egg:skillswap",
        "egg:snatch",
        "egg:trick",
        "tm:aerialace",
        "tm:attract",
        "tm:blizzard",
        "tm:brickbreak",
        "tm:chargebeam",
        "tm:confide",
        "tm:doubleteam",
        "tm:facade",
        "tm:fireblast",
        "tm:flamethrower",
        "tm:fling",
        "tm:frustration",
        "tm:grassknot",
        "tm:hiddenpower",
        "tm:icebeam",
        "tm:protect",
        "tm:psychup",
        "tm:raindance",
        "tm:rest",
        "tm:return",
        "tm:rockslide",
        "tm:rocktomb",
        "tm:round",
        "tm:shadowball",
        "tm:sleeptalk",
        "tm:solarbeam",
        "tm:sunnyday",
        "tm:swagger",
        "tm:thunder",
        "tm:thunderbolt",
        "tm:thunderwave",
        "tm:toxic",
        "tm:trickroom",
        "tm:workup",
        "tutor:afteryou",
        "tutor:aquatail",
        "tutor:drainpunch",
        "tutor:firepunch",
        "tutor:focuspunch",
        "tutor:icepunch",
        "tutor:icywind",
        "tutor:irontail",
        "tutor:knockoff",
        "tutor:lastresort",
        "tutor:lowkick",
        "tutor:recycle",
        "tutor:roleplay",
        "tutor:shockwave",
        "tutor:snore",
        "tutor:stealthrock",
        "tutor:thunderpunch",
        "tutor:waterpulse",
        "tutor:wonderroom"
    ],
    "labels": [
        "gen3"
    ],
    "pokedex": [
        "pokemoncobbled.species.kecleon.desc1",
        "pokemoncobbled.species.kecleon.desc2"
    ],
    "evolutions": [],
    "baseScale": 1.0,
    "hitbox": {
        "width": 1.0,
        "height": 1.0,
        "fixed": false
    }
}