{
    "name": "kirlia",
    "nationalPokedexNumber": 281,
    "primaryType": "psychic",
    "secondaryType": "fairy",
    "abilities": [
        "synchronize",
        "trace",
        "h:telepathy"
    ],
    "baseStats": {
        "hp": 38,
        "attack": 35,
        "defence": 35,
        "special_attack": 65,
        "special_defence": 55,
        "speed": 50
    },
    "catchRate": 120,
    "maleRatio": 0.5,
    "shoulderMountable": false,
    "forms": [],
    "baseExperienceYield": 97,
    "experienceGroup": "slow",
    "eggCycles": 20,
    "eggGroups": [
        "humanshape",
        "indeterminate"
    ],
    "moves": [
        "1:growl",
        "1:confusion",
        "1:doubleteam",
        "1:disarmingvoice",
        "9:hypnosis",
        "12:drainingkiss",
        "15:teleport",
        "18:psybeam",
        "23:lifedew",
        "28:charm",
        "33:calmmind",
        "38:psychic",
        "43:healpulse",
        "48:dreameater",
        "53:futuresight",
        "tm:allyswitch",
        "tm:attract",
        "tm:bodyslam",
        "tm:dazzlinggleam",
        "tm:encore",
        "tm:endure",
        "tm:facade",
        "tm:firepunch",
        "tm:fling",
        "tm:grassknot",
        "tm:helpinghand",
        "tm:hypervoice",
        "tm:icepunch",
        "tm:icywind",
        "tm:imprison",
        "tm:lightscreen",
        "tm:magicalleaf",
        "tm:magicroom",
        "tm:megakick",
        "tm:megapunch",
        "tm:mistyterrain",
        "tm:protect",
        "tm:psyshock",
        "tm:raindance",
        "tm:reflect",
        "tm:rest",
        "tm:round",
        "tm:safeguard",
        "tm:shadowball",
        "tm:skillswap",
        "tm:sleeptalk",
        "tm:snore",
        "tm:storedpower",
        "tm:substitute",
        "tm:sunnyday",
        "tm:swift",
        "tm:taunt",
        "tm:thief",
        "tm:thunderbolt",
        "tm:thunderpunch",
        "tm:thunderwave",
        "tm:trick",
        "tm:trickroom",
        "tm:willowisp",
        "tm:wonderroom",
        "tm:zenheadbutt",
        "tutor:expandingforce",
        "tutor:tripleaxel"
    ],
    "labels": [
        "gen3"
    ],
    "pokedex": [
        "pokemoncobbled.species.kirlia.desc1",
        "pokemoncobbled.species.kirlia.desc2"
    ],
    "preEvolution": "ralts",
    "evolutions": [
        {
            "id": "kirlia_gardevoir",
            "variant": "level_up",
            "result": "gardevoir",
            "consumeHeldItem": false,
            "learnableMoves": [],
            "requirements": [
                {
                    "variant": "level",
                    "minLevel": 30
                }
            ]
        },
        {
            "id": "kirlia_gallade",
            "variant": "item_interact",
            "result": "gallade",
            "consumeHeldItem": true,
            "learnableMoves": [],
            "requirements": [
                {
                    "variant": "properties",
                    "target": "male"
                }
            ],
            "requiredContext": "dawn-stone"
        }
    ],
    "baseScale": 1.0,
    "hitbox": {
        "width": 1.0,
        "height": 1.0,
        "fixed": false
    }
}