{
    "name": "lotad",
    "nationalPokedexNumber": 270,
    "primaryType": "water",
    "secondaryType": "grass",
    "abilities": [
        "swiftswim",
        "raindish",
        "h:owntempo"
    ],
    "baseStats": {
        "hp": 40,
        "attack": 30,
        "defence": 30,
        "special_attack": 40,
        "special_defence": 50,
        "speed": 30
    },
    "catchRate": 255,
    "maleRatio": 0.5,
    "shoulderMountable": false,
    "forms": [],
    "baseExperienceYield": 44,
    "experienceGroup": "mediumslow",
    "eggCycles": 15,
    "eggGroups": [
        "water1",
        "plant"
    ],
    "moves": [
        "1:growl",
        "1:astonish",
        "3:absorb",
        "6:watergun",
        "9:mist",
        "12:megadrain",
        "16:flail",
        "20:bubblebeam",
        "24:naturepower",
        "28:gigadrain",
        "33:raindance",
        "38:zenheadbutt",
        "43:energyball",
        "egg:counter",
        "egg:leechseed",
        "egg:razorleaf",
        "egg:sweetscent",
        "egg:synthesis",
        "egg:teeterdance",
        "egg:tickle",
        "tm:attract",
        "tm:blizzard",
        "tm:bodyslam",
        "tm:bulletseed",
        "tm:endure",
        "tm:facade",
        "tm:grassknot",
        "tm:hail",
        "tm:icebeam",
        "tm:icywind",
        "tm:protect",
        "tm:rest",
        "tm:round",
        "tm:scald",
        "tm:seedbomb",
        "tm:sleeptalk",
        "tm:snore",
        "tm:solarbeam",
        "tm:substitute",
        "tm:sunnyday",
        "tm:surf",
        "tm:swordsdance",
        "tm:thief",
        "tm:uproar",
        "tm:whirlpool",
        "tutor:grassyglide"
    ],
    "labels": [
        "gen3"
    ],
    "pokedex": [
        "pokemoncobbled.species.lotad.desc1",
        "pokemoncobbled.species.lotad.desc2"
    ],
    "evolutions": [
        {
            "id": "lotad_lombre",
            "variant": "level_up",
            "result": "lombre",
            "consumeHeldItem": false,
            "learnableMoves": [],
            "requirements": [
                {
                    "variant": "level",
                    "minLevel": 14
                }
            ]
        }
    ],
    "baseScale": 1.0,
    "hitbox": {
        "width": 1.0,
        "height": 1.0,
        "fixed": false
    }
}