{
    "name": "milotic",
    "nationalPokedexNumber": 350,
    "primaryType": "water",
    "abilities": [
        "marvelscale",
        "competitive",
        "h:cutecharm"
    ],
    "baseStats": {
        "hp": 95,
        "attack": 60,
        "defence": 79,
        "special_attack": 100,
        "special_defence": 125,
        "speed": 81
    },
    "catchRate": 60,
    "maleRatio": 0.5,
    "shoulderMountable": false,
    "forms": [],
    "baseExperienceYield": 189,
    "experienceGroup": "slowthenveryfast",
    "eggCycles": 20,
    "eggGroups": [
        "water1",
        "dragon"
    ],
    "moves": [
        "0:waterpulse",
        "1:tackle",
        "1:wrap",
        "1:watergun",
        "1:splash",
        "1:flail",
        "4:disarmingvoice",
        "8:twister",
        "12:aquaring",
        "16:attract",
        "20:lifedew",
        "24:dragontail",
        "28:recover",
        "32:aquatail",
        "36:safeguard",
        "40:surf",
        "44:raindance",
        "48:coil",
        "52:hydropump",
        "tm:avalanche",
        "tm:blizzard",
        "tm:bodyslam",
        "tm:breakingswipe",
        "tm:brine",
        "tm:brutalswing",
        "tm:bulldoze",
        "tm:dive",
        "tm:dragondance",
        "tm:dragonpulse",
        "tm:endure",
        "tm:facade",
        "tm:gigaimpact",
        "tm:hail",
        "tm:helpinghand",
        "tm:hyperbeam",
        "tm:icebeam",
        "tm:icywind",
        "tm:imprison",
        "tm:ironhead",
        "tm:irontail",
        "tm:lightscreen",
        "tm:muddywater",
        "tm:mudshot",
        "tm:protect",
        "tm:rest",
        "tm:round",
        "tm:scald",
        "tm:sleeptalk",
        "tm:snore",
        "tm:substitute",
        "tm:swift",
        "tm:waterfall",
        "tm:weatherball",
        "tm:whirlpool",
        "tutor:flipturn",
        "tutor:scaleshot",
        "tutor:skittersmack",
        "tutor:tripleaxel"
    ],
    "labels": [
        "gen3"
    ],
    "pokedex": [
        "pokemoncobbled.species.milotic.desc1",
        "pokemoncobbled.species.milotic.desc2"
    ],
    "preEvolution": "feebas",
    "evolutions": [],
    "baseScale": 1.0,
    "hitbox": {
        "width": 1.0,
        "height": 1.0,
        "fixed": false
    }
}