{
    "name": "nuzleaf",
    "nationalPokedexNumber": 274,
    "primaryType": "grass",
    "secondaryType": "dark",
    "abilities": [
        "chlorophyll",
        "earlybird",
        "h:pickpocket"
    ],
    "baseStats": {
        "hp": 70,
        "attack": 70,
        "defence": 40,
        "special_attack": 60,
        "special_defence": 40,
        "speed": 60
    },
    "catchRate": 120,
    "maleRatio": 0.5,
    "shoulderMountable": false,
    "forms": [],
    "baseExperienceYield": 119,
    "experienceGroup": "mediumslow",
    "eggCycles": 15,
    "eggGroups": [
        "ground",
        "plant"
    ],
    "moves": [
        "0:razorleaf",
        "1:tackle",
        "1:absorb",
        "1:harden",
        "1:explosion",
        "1:swagger",
        "1:synthesis",
        "1:fakeout",
        "1:torment",
        "1:astonish",
        "1:aircutter",
        "9:growth",
        "12:rollout",
        "18:megadrain",
        "24:payback",
        "30:naturepower",
        "36:sunnyday",
        "43:extrasensory",
        "50:suckerpunch",
        "57:leafblade",
        "tm:amnesia",
        "tm:assurance",
        "tm:attract",
        "tm:beatup",
        "tm:bodyslam",
        "tm:brickbreak",
        "tm:bulletseed",
        "tm:darkpulse",
        "tm:dig",
        "tm:endure",
        "tm:energyball",
        "tm:facade",
        "tm:falseswipe",
        "tm:fling",
        "tm:foulplay",
        "tm:gigadrain",
        "tm:grassknot",
        "tm:grassyterrain",
        "tm:hyperbeam",
        "tm:lowkick",
        "tm:lowsweep",
        "tm:megakick",
        "tm:nastyplot",
        "tm:powerswap",
        "tm:protect",
        "tm:rest",
        "tm:retaliate",
        "tm:rockslide",
        "tm:rocktomb",
        "tm:round",
        "tm:seedbomb",
        "tm:selfdestruct",
        "tm:shadowball",
        "tm:sleeptalk",
        "tm:snarl",
        "tm:snore",
        "tm:solarbeam",
        "tm:solarblade",
        "tm:substitute",
        "tm:swift",
        "tm:swordsdance",
        "tm:thief",
        "tutor:grassyglide",
        "tutor:lashout"
    ],
    "labels": [
        "gen3"
    ],
    "pokedex": [
        "pokemoncobbled.species.nuzleaf.desc1",
        "pokemoncobbled.species.nuzleaf.desc2"
    ],
    "preEvolution": "seedot",
    "evolutions": [
        {
            "id": "nuzleaf_shiftry",
            "variant": "item_interact",
            "result": "shiftry",
            "consumeHeldItem": true,
            "learnableMoves": [],
            "requirements": [],
            "requiredContext": "leaf-stone"
        }
    ],
    "baseScale": 1.0,
    "hitbox": {
        "width": 1.0,
        "height": 1.0,
        "fixed": false
    }
}