{
    "name": "poochyena",
    "nationalPokedexNumber": 261,
    "primaryType": "dark",
    "abilities": [
        "runaway",
        "quickfeet",
        "h:rattled"
    ],
    "baseStats": {
        "hp": 35,
        "attack": 55,
        "defence": 35,
        "special_attack": 30,
        "special_defence": 30,
        "speed": 35
    },
    "catchRate": 255,
    "maleRatio": 0.5,
    "shoulderMountable": false,
    "forms": [],
    "baseExperienceYield": 56,
    "experienceGroup": "mediumfast",
    "eggCycles": 15,
    "eggGroups": [
        "ground"
    ],
    "moves": [
        "1:tackle",
        "4:howl",
        "7:sandattack",
        "10:bite",
        "13:odorsleuth",
        "16:roar",
        "19:swagger",
        "22:assurance",
        "25:scaryface",
        "28:embargo",
        "31:taunt",
        "34:crunch",
        "37:yawn",
        "40:takedown",
        "43:suckerpunch",
        "46:playrough",
        "egg:astonish",
        "egg:covet",
        "egg:firefang",
        "egg:icefang",
        "egg:leer",
        "egg:mefirst",
        "egg:poisonfang",
        "egg:sleeptalk",
        "egg:snatch",
        "egg:thunderfang",
        "tm:attract",
        "tm:confide",
        "tm:darkpulse",
        "tm:doubleteam",
        "tm:facade",
        "tm:frustration",
        "tm:hiddenpower",
        "tm:payback",
        "tm:protect",
        "tm:raindance",
        "tm:rest",
        "tm:return",
        "tm:round",
        "tm:shadowball",
        "tm:snarl",
        "tm:substitute",
        "tm:sunnyday",
        "tm:thief",
        "tm:torment",
        "tm:toxic",
        "tutor:foulplay",
        "tutor:hypervoice",
        "tutor:irontail",
        "tutor:snore",
        "tutor:spite",
        "tutor:superfang",
        "tutor:uproar"
    ],
    "labels": [
        "gen3"
    ],
    "pokedex": [
        "pokemoncobbled.species.poochyena.desc1",
        "pokemoncobbled.species.poochyena.desc2"
    ],
    "evolutions": [
        {
            "id": "poochyena_mightyena",
            "variant": "level_up",
            "result": "mightyena",
            "consumeHeldItem": false,
            "learnableMoves": [],
            "requirements": [
                {
                    "variant": "level",
                    "minLevel": 18
                }
            ]
        }
    ],
    "baseScale": 1.0,
    "hitbox": {
        "width": 1.0,
        "height": 1.0,
        "fixed": false
    }
}