{
    "name": "regice",
    "nationalPokedexNumber": 378,
    "primaryType": "ice",
    "abilities": [
        "clearbody",
        "h:icebody"
    ],
    "baseStats": {
        "hp": 80,
        "attack": 50,
        "defence": 100,
        "special_attack": 100,
        "special_defence": 200,
        "speed": 50
    },
    "catchRate": 3,
    "maleRatio": 1.125,
    "shoulderMountable": false,
    "forms": [],
    "baseExperienceYield": 290,
    "experienceGroup": "slow",
    "eggCycles": 80,
    "eggGroups": [
        "no-eggs"
    ],
    "moves": [
        "1:icywind",
        "1:chargebeam",
        "6:bulldoze",
        "12:ancientpower",
        "18:stomp",
        "24:icebeam",
        "30:curse",
        "36:amnesia",
        "42:hammerarm",
        "48:blizzard",
        "54:superpower",
        "60:lockon",
        "66:zapcannon",
        "72:hyperbeam",
        "78:explosion",
        "tm:avalanche",
        "tm:bodyslam",
        "tm:brickbreak",
        "tm:earthquake",
        "tm:endure",
        "tm:facade",
        "tm:flashcannon",
        "tm:fling",
        "tm:focusblast",
        "tm:gigaimpact",
        "tm:hail",
        "tm:heavyslam",
        "tm:icepunch",
        "tm:iciclespear",
        "tm:ironhead",
        "tm:megakick",
        "tm:megapunch",
        "tm:protect",
        "tm:raindance",
        "tm:rest",
        "tm:rockslide",
        "tm:rocktomb",
        "tm:round",
        "tm:safeguard",
        "tm:selfdestruct",
        "tm:sleeptalk",
        "tm:snore",
        "tm:stompingtantrum",
        "tm:substitute",
        "tm:thunder",
        "tm:thunderbolt",
        "tm:thunderpunch",
        "tm:thunderwave"
    ],
    "labels": [
        "legendary",
        "gen3"
    ],
    "pokedex": [
        "pokemoncobbled.species.regice.desc1",
        "pokemoncobbled.species.regice.desc2"
    ],
    "evolutions": [],
    "baseScale": 1.0,
    "hitbox": {
        "width": 1.0,
        "height": 1.0,
        "fixed": false
    }
}