{
    "name": "sceptile",
    "nationalPokedexNumber": 254,
    "primaryType": "grass",
    "abilities": [
        "overgrow",
        "h:unburden"
    ],
    "baseStats": {
        "hp": 70,
        "attack": 85,
        "defence": 65,
        "special_attack": 105,
        "special_defence": 85,
        "speed": 120
    },
    "catchRate": 45,
    "maleRatio": 0.875,
    "shoulderMountable": false,
    "forms": [
        {
            "name": "mega",
            "secondaryType": "dragon",
            "abilities": [
                "lightningrod"
            ],
            "baseStats": {
                "hp": 70,
                "attack": 110,
                "defence": 75,
                "special_attack": 145,
                "special_defence": 85,
                "speed": 145
            },
            "aspects": [
                "mega"
            ]
        }
    ],
    "baseExperienceYield": 265,
    "experienceGroup": "mediumslow",
    "eggCycles": 20,
    "eggGroups": [
        "monster",
        "dragon"
    ],
    "moves": [
        "0:dualchop",
        "1:pound",
        "1:leer",
        "1:quickattack",
        "1:falseswipe",
        "1:furycutter",
        "1:xscissor",
        "1:energyball",
        "1:leafage",
        "5:megadrain",
        "12:detect",
        "15:quickguard",
        "20:assurance",
        "25:gigadrain",
        "30:slam",
        "35:doubleteam",
        "42:leafblade",
        "49:screech",
        "56:endeavor",
        "63:leafstorm",
        "tm:acrobatics",
        "tm:agility",
        "tm:attract",
        "tm:bodyslam",
        "tm:breakingswipe",
        "tm:brickbreak",
        "tm:brutalswing",
        "tm:bulldoze",
        "tm:bulletseed",
        "tm:crosspoison",
        "tm:crunch",
        "tm:dig",
        "tm:dragonclaw",
        "tm:dragondance",
        "tm:dragonpulse",
        "tm:drainpunch",
        "tm:earthquake",
        "tm:endure",
        "tm:facade",
        "tm:fling",
        "tm:focusblast",
        "tm:gigaimpact",
        "tm:grassknot",
        "tm:grassyterrain",
        "tm:hyperbeam",
        "tm:irontail",
        "tm:lowkick",
        "tm:lowsweep",
        "tm:magicalleaf",
        "tm:megakick",
        "tm:megapunch",
        "tm:outrage",
        "tm:protect",
        "tm:rest",
        "tm:rockslide",
        "tm:rocktomb",
        "tm:round",
        "tm:safeguard",
        "tm:seedbomb",
        "tm:sleeptalk",
        "tm:snore",
        "tm:solarbeam",
        "tm:solarblade",
        "tm:substitute",
        "tm:sunnyday",
        "tm:swift",
        "tm:swordsdance",
        "tm:throatchop",
        "tm:thunderpunch",
        "tm:workup",
        "tutor:frenzyplant",
        "tutor:grasspledge",
        "tutor:grassyglide",
        "tutor:scaleshot"
    ],
    "labels": [
        "gen3"
    ],
    "pokedex": [
        "pokemoncobbled.species.sceptile.desc1",
        "pokemoncobbled.species.sceptile.desc2"
    ],
    "preEvolution": "grovyle",
    "evolutions": [],
    "baseScale": 1.0,
    "hitbox": {
        "width": 1.0,
        "height": 1.0,
        "fixed": false
    }
}