{
    "name": "seedot",
    "nationalPokedexNumber": 273,
    "primaryType": "grass",
    "abilities": [
        "chlorophyll",
        "earlybird",
        "h:pickpocket"
    ],
    "baseStats": {
        "hp": 40,
        "attack": 40,
        "defence": 50,
        "special_attack": 30,
        "special_defence": 30,
        "speed": 30
    },
    "catchRate": 255,
    "maleRatio": 0.5,
    "shoulderMountable": false,
    "forms": [],
    "baseExperienceYield": 44,
    "experienceGroup": "mediumslow",
    "eggCycles": 15,
    "eggGroups": [
        "ground",
        "plant"
    ],
    "moves": [
        "1:tackle",
        "1:harden",
        "3:absorb",
        "6:astonish",
        "9:growth",
        "12:rollout",
        "15:megadrain",
        "18:payback",
        "21:naturepower",
        "24:sunnyday",
        "27:synthesis",
        "30:suckerpunch",
        "33:explosion",
        "egg:defog",
        "egg:leechseed",
        "egg:nightslash",
        "egg:quickattack",
        "egg:takedown",
        "egg:worryseed",
        "tm:amnesia",
        "tm:attract",
        "tm:beatup",
        "tm:bodyslam",
        "tm:bulletseed",
        "tm:dig",
        "tm:endure",
        "tm:energyball",
        "tm:facade",
        "tm:falseswipe",
        "tm:foulplay",
        "tm:gigadrain",
        "tm:grassknot",
        "tm:grassyterrain",
        "tm:nastyplot",
        "tm:powerswap",
        "tm:protect",
        "tm:rest",
        "tm:retaliate",
        "tm:round",
        "tm:seedbomb",
        "tm:selfdestruct",
        "tm:shadowball",
        "tm:sleeptalk",
        "tm:snore",
        "tm:solarbeam",
        "tm:substitute",
        "tm:swordsdance",
        "tutor:grassyglide"
    ],
    "labels": [
        "gen3"
    ],
    "pokedex": [
        "pokemoncobbled.species.seedot.desc1",
        "pokemoncobbled.species.seedot.desc2"
    ],
    "evolutions": [
        {
            "id": "seedot_nuzleaf",
            "variant": "level_up",
            "result": "nuzleaf",
            "consumeHeldItem": false,
            "learnableMoves": [],
            "requirements": [
                {
                    "variant": "level",
                    "minLevel": 14
                }
            ]
        }
    ],
    "baseScale": 1.0,
    "hitbox": {
        "width": 1.0,
        "height": 1.0,
        "fixed": false
    }
}