{
    "name": "seviper",
    "nationalPokedexNumber": 336,
    "primaryType": "poison",
    "abilities": [
        "shedskin",
        "h:infiltrator"
    ],
    "baseStats": {
        "hp": 73,
        "attack": 100,
        "defence": 60,
        "special_attack": 100,
        "special_defence": 60,
        "speed": 65
    },
    "catchRate": 90,
    "maleRatio": 0.5,
    "shoulderMountable": false,
    "forms": [],
    "baseExperienceYield": 160,
    "experienceGroup": "fastthenveryslow",
    "eggCycles": 20,
    "eggGroups": [
        "ground",
        "dragon"
    ],
    "moves": [
        "1:wrap",
        "1:swagger",
        "4:bite",
        "6:lick",
        "9:poisontail",
        "11:feint",
        "14:screech",
        "16:venoshock",
        "19:glare",
        "21:poisonfang",
        "24:venomdrench",
        "26:nightslash",
        "29:gastroacid",
        "31:poisonjab",
        "34:haze",
        "36:swordsdance",
        "39:crunch",
        "41:belch",
        "44:coil",
        "46:wringout",
        "egg:assurance",
        "egg:bodyslam",
        "egg:finalgambit",
        "egg:irontail",
        "egg:punishment",
        "egg:scaryface",
        "egg:spitup",
        "egg:stockpile",
        "egg:swallow",
        "egg:switcheroo",
        "tm:attract",
        "tm:brutalswing",
        "tm:bulldoze",
        "tm:confide",
        "tm:darkpulse",
        "tm:doubleteam",
        "tm:dragontail",
        "tm:earthquake",
        "tm:facade",
        "tm:flamethrower",
        "tm:frustration",
        "tm:hiddenpower",
        "tm:infestation",
        "tm:payback",
        "tm:protect",
        "tm:raindance",
        "tm:rest",
        "tm:return",
        "tm:round",
        "tm:sleeptalk",
        "tm:sludgebomb",
        "tm:sludgewave",
        "tm:substitute",
        "tm:sunnyday",
        "tm:taunt",
        "tm:thief",
        "tm:toxic",
        "tm:xscissor",
        "tutor:aquatail",
        "tutor:bind",
        "tutor:gigadrain",
        "tutor:knockoff",
        "tutor:snatch",
        "tutor:snore",
        "tutor:throatchop"
    ],
    "labels": [
        "gen3"
    ],
    "pokedex": [
        "pokemoncobbled.species.seviper.desc1",
        "pokemoncobbled.species.seviper.desc2"
    ],
    "evolutions": [],
    "baseScale": 1.0,
    "hitbox": {
        "width": 1.0,
        "height": 1.0,
        "fixed": false
    }
}