{
    "name": "spoink",
    "nationalPokedexNumber": 325,
    "primaryType": "psychic",
    "abilities": [
        "thickfat",
        "owntempo",
        "h:gluttony"
    ],
    "baseStats": {
        "hp": 60,
        "attack": 25,
        "defence": 35,
        "special_attack": 70,
        "special_defence": 80,
        "speed": 60
    },
    "catchRate": 255,
    "maleRatio": 0.5,
    "shoulderMountable": false,
    "forms": [],
    "baseExperienceYield": 66,
    "experienceGroup": "fast",
    "eggCycles": 20,
    "eggGroups": [
        "ground"
    ],
    "moves": [
        "1:splash",
        "7:psywave",
        "10:odorsleuth",
        "14:psybeam",
        "15:psychup",
        "18:confuseray",
        "21:magiccoat",
        "26:zenheadbutt",
        "29:rest",
        "29:powergem",
        "33:snore",
        "38:psyshock",
        "40:payback",
        "44:psychic",
        "50:bounce",
        "egg:amnesia",
        "egg:endure",
        "egg:extrasensory",
        "egg:futuresight",
        "egg:luckychant",
        "egg:mirrorcoat",
        "egg:simplebeam",
        "egg:skillswap",
        "egg:trick",
        "egg:whirlwind",
        "tm:attract",
        "tm:calmmind",
        "tm:chargebeam",
        "tm:confide",
        "tm:doubleteam",
        "tm:dreameater",
        "tm:facade",
        "tm:frustration",
        "tm:grassknot",
        "tm:hiddenpower",
        "tm:lightscreen",
        "tm:protect",
        "tm:raindance",
        "tm:reflect",
        "tm:return",
        "tm:round",
        "tm:shadowball",
        "tm:sleeptalk",
        "tm:substitute",
        "tm:sunnyday",
        "tm:swagger",
        "tm:taunt",
        "tm:thief",
        "tm:thunderwave",
        "tm:torment",
        "tm:toxic",
        "tm:trickroom",
        "tutor:allyswitch",
        "tutor:covet",
        "tutor:healbell",
        "tutor:icywind",
        "tutor:irontail",
        "tutor:recycle",
        "tutor:roleplay",
        "tutor:shockwave",
        "tutor:signalbeam",
        "tutor:snatch",
        "tutor:telekinesis"
    ],
    "labels": [
        "gen3"
    ],
    "pokedex": [
        "pokemoncobbled.species.spoink.desc1",
        "pokemoncobbled.species.spoink.desc2"
    ],
    "evolutions": [
        {
            "id": "spoink_grumpig",
            "variant": "level_up",
            "result": "grumpig",
            "consumeHeldItem": false,
            "learnableMoves": [],
            "requirements": [
                {
                    "variant": "level",
                    "minLevel": 32
                }
            ]
        }
    ],
    "baseScale": 1.0,
    "hitbox": {
        "width": 1.0,
        "height": 1.0,
        "fixed": false
    }
}