{
    "name": "trapinch",
    "nationalPokedexNumber": 328,
    "primaryType": "ground",
    "abilities": [
        "hypercutter",
        "arenatrap",
        "h:sheerforce"
    ],
    "baseStats": {
        "hp": 45,
        "attack": 100,
        "defence": 45,
        "special_attack": 45,
        "special_defence": 45,
        "speed": 10
    },
    "catchRate": 255,
    "maleRatio": 0.5,
    "shoulderMountable": false,
    "forms": [],
    "baseExperienceYield": 58,
    "experienceGroup": "mediumslow",
    "eggCycles": 20,
    "eggGroups": [
        "bug",
        "dragon"
    ],
    "moves": [
        "1:sandattack",
        "1:astonish",
        "4:laserfocus",
        "8:bite",
        "12:mudslap",
        "16:sandtomb",
        "20:bulldoze",
        "24:dig",
        "28:crunch",
        "32:sandstorm",
        "36:earthpower",
        "40:earthquake",
        "44:superpower",
        "48:fissure",
        "egg:bugbite",
        "egg:feint",
        "egg:firstimpression",
        "egg:flail",
        "egg:furycutter",
        "egg:gust",
        "egg:quickattack",
        "tm:attract",
        "tm:bodyslam",
        "tm:endure",
        "tm:facade",
        "tm:focusenergy",
        "tm:gigadrain",
        "tm:hyperbeam",
        "tm:mudshot",
        "tm:protect",
        "tm:rest",
        "tm:rockslide",
        "tm:rocktomb",
        "tm:round",
        "tm:sleeptalk",
        "tm:snore",
        "tm:solarbeam",
        "tm:substitute",
        "tm:sunnyday",
        "tutor:scorchingsands"
    ],
    "labels": [
        "gen3"
    ],
    "pokedex": [
        "pokemoncobbled.species.trapinch.desc1",
        "pokemoncobbled.species.trapinch.desc2"
    ],
    "evolutions": [
        {
            "id": "trapinch_vibrava",
            "variant": "level_up",
            "result": "vibrava",
            "consumeHeldItem": false,
            "learnableMoves": [],
            "requirements": [
                {
                    "variant": "level",
                    "minLevel": 35
                }
            ]
        }
    ],
    "baseScale": 1.0,
    "hitbox": {
        "width": 1.0,
        "height": 1.0,
        "fixed": false
    }
}