{
    "name": "treecko",
    "nationalPokedexNumber": 252,
    "primaryType": "grass",
    "abilities": [
        "overgrow",
        "h:unburden"
    ],
    "baseStats": {
        "hp": 40,
        "attack": 45,
        "defence": 35,
        "special_attack": 65,
        "special_defence": 55,
        "speed": 70
    },
    "catchRate": 45,
    "maleRatio": 0.875,
    "shoulderMountable": false,
    "forms": [],
    "baseExperienceYield": 62,
    "experienceGroup": "mediumslow",
    "eggCycles": 20,
    "eggGroups": [
        "monster",
        "dragon"
    ],
    "moves": [
        "1:pound",
        "1:leer",
        "3:leafage",
        "6:quickattack",
        "9:megadrain",
        "12:detect",
        "15:quickguard",
        "18:assurance",
        "21:gigadrain",
        "24:slam",
        "27:doubleteam",
        "30:energyball",
        "33:screech",
        "36:endeavor",
        "39:leafstorm",
        "egg:absorb",
        "egg:doublekick",
        "egg:dragonbreath",
        "egg:leechseed",
        "egg:nightslash",
        "egg:slash",
        "egg:synthesis",
        "egg:worryseed",
        "tm:acrobatics",
        "tm:agility",
        "tm:attract",
        "tm:bodyslam",
        "tm:brickbreak",
        "tm:bulletseed",
        "tm:crunch",
        "tm:dig",
        "tm:drainpunch",
        "tm:endure",
        "tm:facade",
        "tm:fling",
        "tm:grassknot",
        "tm:grassyterrain",
        "tm:irontail",
        "tm:lowkick",
        "tm:magicalleaf",
        "tm:megakick",
        "tm:megapunch",
        "tm:protect",
        "tm:rest",
        "tm:rockslide",
        "tm:rocktomb",
        "tm:round",
        "tm:safeguard",
        "tm:seedbomb",
        "tm:sleeptalk",
        "tm:snore",
        "tm:solarbeam",
        "tm:substitute",
        "tm:sunnyday",
        "tm:swift",
        "tm:swordsdance",
        "tm:thunderpunch",
        "tm:workup",
        "tutor:grasspledge",
        "tutor:grassyglide"
    ],
    "labels": [
        "gen3"
    ],
    "pokedex": [
        "pokemoncobbled.species.treecko.desc1",
        "pokemoncobbled.species.treecko.desc2"
    ],
    "evolutions": [
        {
            "id": "treecko_grovyle",
            "variant": "level_up",
            "result": "grovyle",
            "consumeHeldItem": false,
            "learnableMoves": [],
            "requirements": [
                {
                    "variant": "level",
                    "minLevel": 16
                }
            ]
        }
    ],
    "baseScale": 1.0,
    "hitbox": {
        "width": 1.0,
        "height": 1.0,
        "fixed": false
    }
}