{
	"format_version": "1.12.0",
	"minecraft:geometry": [
		{
			"description": {
				"identifier": "geometry.mew",
				"texture_width": 64,
				"texture_height": 64,
				"visible_bounds_width": 6,
				"visible_bounds_height": 2.5,
				"visible_bounds_offset": [0, 0.75, 0]
			},
			"bones": [
				{
					"name": "mew",
					"pivot": [0, 0, 0]
				},
				{
					"name": "body",
					"parent": "mew",
					"pivot": [0, 8, 0],
					"cubes": [
						{"origin": [-3, 2, -2.5], "size": [6, 6, 5], "uv": [0, 11]},
						{"origin": [-2.5, 8, -2.5], "size": [5, 4, 5], "uv": [18, 17]}
					]
				},
				{
					"name": "leftarm",
					"parent": "body",
					"pivot": [2.5, 9.75, -0.75],
					"cubes": [
						{"origin": [1.5, 8.75, -1.25], "size": [5, 2, 1], "uv": [26, 26]}
					]
				},
				{
					"name": "rightarm",
					"parent": "body",
					"pivot": [-2.5, 9.75, -0.75],
					"cubes": [
						{"origin": [-6.5, 8.75, -1.25], "size": [5, 2, 1], "uv": [29, 12]}
					]
				},
				{
					"name": "tail",
					"parent": "body",
					"pivot": [0, 3.75, 2.5],
					"cubes": [
						{"origin": [0, 2.75, 1.5], "size": [0, 2, 6], "inflate": 0.02, "uv": [17, 6]}
					]
				},
				{
					"name": "tail2",
					"parent": "tail",
					"pivot": [0, 3.75, 7.5],
					"cubes": [
						{"origin": [0, 2.75, 7.5], "size": [0, 2, 5], "inflate": 0.02, "uv": [11, 23]}
					]
				},
				{
					"name": "tail3",
					"parent": "tail2",
					"pivot": [0, 3.75, 12.5],
					"cubes": [
						{"origin": [0, 2.75, 12.5], "size": [0, 2, 6], "inflate": 0.02, "uv": [17, 8]}
					]
				},
				{
					"name": "tail4",
					"parent": "tail3",
					"pivot": [0, 3.75, 18.5],
					"cubes": [
						{"origin": [0, 2.75, 18.5], "size": [0, 2, 5], "inflate": 0.02, "uv": [11, 21]}
					]
				},
				{
					"name": "tail5",
					"parent": "tail4",
					"pivot": [0, 3.75, 23.5],
					"cubes": [
						{"origin": [0, 1.75, 23.5], "size": [0, 3, 9], "inflate": 0.02, "uv": [0, 13]}
					]
				},
				{
					"name": "leftleg",
					"parent": "body",
					"pivot": [2.75, 5.25, -0.25],
					"cubes": [
						{"origin": [1.75, 1.25, -2.25], "size": [2, 5, 4], "inflate": 0.02, "uv": [18, 26]}
					]
				},
				{
					"name": "leftfoot",
					"parent": "leftleg",
					"pivot": [2.75, 1.25, -0.25],
					"rotation": [2.5, 0, 0],
					"cubes": [
						{"origin": [1.75, 0.25, -5.75], "size": [2, 1, 7], "uv": [19, 4]}
					]
				},
				{
					"name": "rightleg",
					"parent": "body",
					"pivot": [-2.75, 5.25, -0.25],
					"cubes": [
						{"origin": [-3.75, 1.25, -2.25], "size": [2, 5, 4], "inflate": 0.02, "uv": [30, 0]}
					]
				},
				{
					"name": "rightfoot",
					"parent": "rightleg",
					"pivot": [-2.75, 1.25, -0.25],
					"rotation": [2.5, 0, 0],
					"cubes": [
						{"origin": [-3.75, 0.25, -5.75], "size": [2, 1, 7], "uv": [0, 25]}
					]
				},
				{
					"name": "head",
					"parent": "body",
					"pivot": [0, 11.5, 0],
					"rotation": [7.5, 0, 0],
					"cubes": [
						{"origin": [-3.5, 11.5, -3.25], "size": [7, 5, 6], "uv": [0, 0]},
						{"origin": [-2, 11.275, -4.75], "size": [4, 2, 2], "pivot": [0, 12.275, -4], "rotation": [10, 0, 0], "uv": [20, 0]}
					]
				},
				{
					"name": "eyes",
					"parent": "head",
					"pivot": [0, 14.52498, -3.25],
					"cubes": [
						{"origin": [-3.25, 13.525, -3.25], "size": [2, 2, 0], "inflate": 0.02, "pivot": [-2.25, 14.5, -3.25], "rotation": [0, 0, 2.5], "uv": [60, 0], "mirror": true},
						{"origin": [1.25, 13.525, -3.25], "size": [2, 2, 0], "inflate": 0.02, "pivot": [2.25, 14.5, -3.25], "rotation": [0, 0, -2.5], "uv": [60, 0]}
					]
				},
				{
					"name": "leftear",
					"parent": "head",
					"pivot": [2.5, 15.75, 0.25],
					"rotation": [0, -30, 30],
					"cubes": [
						{"origin": [1, 15.75, 0.25], "size": [3, 2, 0], "inflate": 0.02, "uv": [0, 2]}
					]
				},
				{
					"name": "rightear",
					"parent": "head",
					"pivot": [-2.5, 15.75, 0.25],
					"rotation": [0, 30, -30],
					"cubes": [
						{"origin": [-4, 15.75, 0.25], "size": [3, 2, 0], "inflate": 0.02, "uv": [0, 0]}
					]
				}
			]
		}
	]
}