{
  "variants": {
    "facing=east": {
      "model": "pokemoncobbled:block/pc",
      "y": 270
    },
    "facing=north": {
      "model": "pokemoncobbled:block/pc",
      "y": 180
    },
    "facing=south": {
      "model": "pokemoncobbled:block/pc"
    },
    "facing=west": {
      "model": "pokemoncobbled:block/pc",
      "y": 90
    }
  }
}