{
	"format_version": "1.12.0",
	"minecraft:geometry": [
		{
			"description": {
				"identifier": "geometry.nidoran-m",
				"texture_width": 64,
				"texture_height": 64,
				"visible_bounds_width": 3,
				"visible_bounds_height": 2.5,
				"visible_bounds_offset": [0, 0.75, 0]
			},
			"bones": [
				{
					"name": "nidoran_m",
					"pivot": [0, 0, 0]
				},
				{
					"name": "body",
					"parent": "nidoran_m",
					"pivot": [0, 5, 0.5],
					"cubes": [
						{"origin": [-3.5, 2, -4.5], "size": [7, 6, 10], "uv": [0, 0]},
						{"origin": [0, 5, -3], "size": [0, 9, 11], "inflate": 0.02, "uv": [0, 5]},
						{"origin": [2, 8, -1.75], "size": [0, 3, 7], "inflate": 0.02, "pivot": [2, 8, 1.25], "rotation": [0, 0, 20], "uv": [0, 29]},
						{"origin": [-2, 8, -1.75], "size": [0, 3, 7], "inflate": 0.02, "pivot": [-2, 8, 1.25], "rotation": [0, 0, -20], "uv": [0, 32]}
					]
				},
				{
					"name": "head",
					"parent": "body",
					"pivot": [0, 6, -3.5],
					"rotation": [12.5, 0, 0],
					"cubes": [
						{"origin": [-3, 4, -10], "size": [6, 6, 7], "uv": [15, 18]},
						{"origin": [0, 8.67101, -12.71985], "size": [0, 2, 4], "inflate": 0.02, "pivot": [0, 9.67101, -10.71985], "rotation": [-20, 0, 0], "uv": [0, 0]},
						{"origin": [-1, 3.2576, -9.41318], "size": [2, 1, 0], "inflate": 0.02, "pivot": [0, 3.5076, -9.41318], "rotation": [10, 0, 0], "uv": [0, 0]}
					]
				},
				{
					"name": "eyes",
					"parent": "head",
					"pivot": [0, 6.73933, -7.98886],
					"rotation": [2.5, 0, 0],
					"cubes": [
						{"origin": [3, 5.75, -9.5], "size": [0, 2, 3], "inflate": 0.02, "pivot": [3.1, 7, -7.75], "rotation": [2.5, 0, 0], "uv": [0, 59]},
						{"origin": [-3, 5.75, -9.5], "size": [0, 2, 3], "inflate": 0.02, "pivot": [-3.1, 7, -7.75], "rotation": [2.5, 0, 0], "uv": [0, 59], "mirror": true}
					]
				},
				{
					"name": "eyelid_left",
					"parent": "head",
					"pivot": [2.4, 6.73933, -7.98886],
					"rotation": [2.5, 0, 0],
					"cubes": [
						{"origin": [1.9, 5.75, -9.5], "size": [1, 2, 3], "inflate": 0.04, "pivot": [3, 7, -7.75], "rotation": [2.5, 0, 0], "uv": [0, 43]}
					]
				},
				{
					"name": "eyelid_right",
					"parent": "head",
					"pivot": [-2.4, 6.73933, -7.98886],
					"rotation": [2.5, 0, 0],
					"cubes": [
						{"origin": [-2.9, 5.75, -9.5], "size": [1, 2, 3], "inflate": 0.04, "pivot": [-3, 7, -7.75], "rotation": [2.5, 0, 0], "uv": [0, 43], "mirror": true}
					]
				},
				{
					"name": "ear_left",
					"parent": "head",
					"pivot": [3, 8.75, -5.25],
					"rotation": [-15, 0, 20],
					"cubes": [
						{"origin": [3, 8.75, -8.25], "size": [0, 10, 5], "inflate": 0.02, "uv": [16, 26]}
					]
				},
				{
					"name": "ear_right",
					"parent": "head",
					"pivot": [-3, 8.75, -5.25],
					"rotation": [-15, 0, -20],
					"cubes": [
						{"origin": [-3, 8.75, -8.25], "size": [0, 10, 5], "inflate": 0.02, "uv": [26, 26]}
					]
				},
				{
					"name": "leg_front_left",
					"parent": "body",
					"pivot": [2.5, 5, -2.5],
					"cubes": [
						{"origin": [1, 0, -4], "size": [3, 6, 3], "uv": [34, 10]}
					]
				},
				{
					"name": "leg_front_right",
					"parent": "body",
					"pivot": [-2.5, 5, -2.5],
					"cubes": [
						{"origin": [-4, 0, -4], "size": [3, 6, 3], "uv": [36, 31]}
					]
				},
				{
					"name": "leg_back_left",
					"parent": "body",
					"pivot": [2.75, 5, 2.75],
					"cubes": [
						{"origin": [1.25, 1, 0.25], "size": [3, 5, 5], "uv": [0, 26]}
					]
				},
				{
					"name": "foot_back_left",
					"parent": "leg_back_left",
					"pivot": [2.75, 1, 4.25],
					"cubes": [
						{"origin": [1.25, 0, 1.25], "size": [3, 1, 4], "uv": [35, 0]}
					]
				},
				{
					"name": "leg_back_right",
					"parent": "body",
					"pivot": [-2.75, 5, 2.75],
					"cubes": [
						{"origin": [-4.25, 1, 0.25], "size": [3, 5, 5], "uv": [24, 0]}
					]
				},
				{
					"name": "foot_back_right",
					"parent": "leg_back_right",
					"pivot": [-2.75, 1, 4.25],
					"cubes": [
						{"origin": [-4.25, 0, 1.25], "size": [3, 1, 4], "uv": [34, 19]}
					]
				}
			]
		}
	]
}