{
	"format_version": "1.12.0",
	"minecraft:geometry": [
		{
			"description": {
				"identifier": "geometry.magikarp_female",
				"texture_width": 64,
				"texture_height": 64,
				"visible_bounds_width": 3,
				"visible_bounds_height": 2.5,
				"visible_bounds_offset": [0, 0.75, 0]
			},
			"bones": [
				{
					"name": "magikarp",
					"pivot": [0, 0, 0]
				},
				{
					"name": "body",
					"parent": "magikarp",
					"pivot": [0, 9.16667, -0.25],
					"cubes": [
						{"origin": [-2, 4, -6.5], "size": [4, 9, 11], "uv": [0, 0]},
						{"origin": [0, 13, -4.25], "size": [0, 8, 7], "inflate": 0.02, "uv": [19, 21]},
						{"origin": [0, 0, -1.5], "size": [0, 4, 5], "inflate": 0.02, "uv": [0, 0]}
					]
				},
				{
					"name": "eyes",
					"parent": "body",
					"pivot": [0, 10.25, -4],
					"cubes": [
						{"origin": [2.075, 8.75, -5.5], "size": [0, 3, 3], "inflate": 0.02, "uv": [49, 2]},
						{"origin": [-2.075, 8.75, -5.5], "size": [0, 3, 3], "inflate": 0.02, "uv": [49, 2], "mirror": true}
					]
				},
				{
					"name": "mustache_left",
					"parent": "body",
					"pivot": [2, 7.75, -5.5],
					"cubes": [
						{"origin": [1, 7.25, -5.5], "size": [6, 1, 0], "inflate": 0.02, "uv": [31, 48]}
					]
				},
				{
					"name": "mustache_left_tip",
					"parent": "mustache_left",
					"pivot": [7, 7.75, -5.5],
					"cubes": [
						{"origin": [7, 7.25, -5.5], "size": [6, 1, 0], "inflate": 0.02, "uv": [31, 46]}
					]
				},
				{
					"name": "mustache_right",
					"parent": "body",
					"pivot": [-2, 7.75, -5.5],
					"cubes": [
						{"origin": [-7, 7.25, -5.5], "size": [6, 1, 0], "inflate": 0.02, "uv": [31, 44]}
					]
				},
				{
					"name": "mustache_right_tip",
					"parent": "mustache_right",
					"pivot": [-7, 7.75, -5.5],
					"cubes": [
						{"origin": [-13, 7.25, -5.5], "size": [6, 1, 0], "inflate": 0.02, "uv": [31, 42]}
					]
				},
				{
					"name": "flipper_left",
					"parent": "body",
					"pivot": [2, 7.25, -3.75],
					"rotation": [0, 15, 0],
					"cubes": [
						{"origin": [2, 4.75, -3.75], "size": [0, 5, 7], "inflate": 0.02, "uv": [27, 14]}
					]
				},
				{
					"name": "flipper_right",
					"parent": "body",
					"pivot": [-2, 7.25, -3.75],
					"rotation": [0, -15, 0],
					"cubes": [
						{"origin": [-2, 4.75, -3.75], "size": [0, 5, 7], "inflate": 0.02, "uv": [27, 14]}
					]
				},
				{
					"name": "tail",
					"parent": "body",
					"pivot": [0, 8.5, 4.5],
					"cubes": [
						{"origin": [0, 1, 4.5], "size": [0, 15, 9], "inflate": 0.02, "uv": [0, 21]}
					]
				}
			]
		}
	]
}