{
	"format_version": "1.12.0",
	"minecraft:geometry": [
		{
			"description": {
				"identifier": "geometry.gyarados_female",
				"texture_width": 128,
				"texture_height": 128,
				"visible_bounds_width": 9,
				"visible_bounds_height": 5,
				"visible_bounds_offset": [0, 1.5, 0]
			},
			"bones": [
				{
					"name": "gyarados",
					"pivot": [0, 0, 0]
				},
				{
					"name": "neck",
					"parent": "gyarados",
					"pivot": [0, 3.5, -38],
					"cubes": [
						{"origin": [-3, 0, -38], "size": [6, 7, 4], "inflate": 0.02, "uv": [73, 42]}
					]
				},
				{
					"name": "spine_final",
					"parent": "neck",
					"pivot": [0, 3.5, -34],
					"cubes": [
						{"origin": [-3, 0, -34], "size": [6, 7, 6], "uv": [61, 9]},
						{"origin": [0, 7, -34], "size": [0, 7, 6], "inflate": 0.02, "uv": [0, 0]}
					]
				},
				{
					"name": "spine3",
					"parent": "spine_final",
					"pivot": [0, 3.5, -28],
					"cubes": [
						{"origin": [-3.5, 0, -28], "size": [7, 7, 6], "inflate": 0.02, "uv": [52, 50]}
					]
				},
				{
					"name": "spine2",
					"parent": "spine3",
					"pivot": [0, 3.5, -22],
					"cubes": [
						{"origin": [-3.5, 0, -22], "size": [7, 7, 7], "uv": [29, 41]}
					]
				},
				{
					"name": "spine",
					"parent": "spine2",
					"pivot": [0, 3.5, -15],
					"cubes": [
						{"origin": [-3.5, 0, -15], "size": [7, 7, 8], "inflate": 0.02, "uv": [25, 25]}
					]
				},
				{
					"name": "body",
					"parent": "spine",
					"pivot": [0, 3.5, -7],
					"cubes": [
						{"origin": [-3.5, 0, -7], "size": [7, 7, 9], "uv": [0, 16]}
					]
				},
				{
					"name": "tail",
					"parent": "body",
					"pivot": [0, 3.5, 2],
					"cubes": [
						{"origin": [-3.5, 0, 2], "size": [7, 7, 7], "inflate": 0.02, "uv": [38, 0]}
					]
				},
				{
					"name": "tail2",
					"parent": "tail",
					"pivot": [0, 3.5, 9],
					"cubes": [
						{"origin": [-3, 0, 9], "size": [6, 7, 7], "uv": [0, 51]},
						{"origin": [0, 7, 8], "size": [0, 8, 9], "inflate": 0.02, "uv": [0, 66]}
					]
				},
				{
					"name": "tail3",
					"parent": "tail2",
					"pivot": [0, 3, 16],
					"cubes": [
						{"origin": [-2.5, 0, 16], "size": [5, 6, 6], "uv": [19, 71]}
					]
				},
				{
					"name": "tail4",
					"parent": "tail3",
					"pivot": [0, 2.5, 22],
					"cubes": [
						{"origin": [-2, 0, 22], "size": [4, 5, 4], "uv": [75, 29]},
						{"origin": [0, 5, 21.5], "size": [0, 6, 5], "inflate": 0.02, "uv": [74, 72]}
					]
				},
				{
					"name": "tail5",
					"parent": "tail4",
					"pivot": [0, 2, 26],
					"cubes": [
						{"origin": [-2, 0, 26], "size": [4, 4, 4], "uv": [67, 0]}
					]
				},
				{
					"name": "tail6",
					"parent": "tail5",
					"pivot": [0, 1.5, 30],
					"cubes": [
						{"origin": [-1.5, 0, 30], "size": [3, 3, 4], "uv": [75, 60]}
					]
				},
				{
					"name": "tail_end",
					"parent": "tail6",
					"pivot": [0, 1.5, 34],
					"cubes": [
						{"origin": [-5.5, 1.5, 34], "size": [11, 0, 15], "inflate": 0.02, "uv": [0, 0]}
					]
				},
				{
					"name": "head",
					"parent": "gyarados",
					"pivot": [0, 3.25, -36],
					"cubes": [
						{"origin": [-4, -6.75, -44], "size": [8, 6, 5], "pivot": [-0.5, 3.75, -40.5], "rotation": [-20, 0, 0], "uv": [28, 94]},
						{"origin": [-3.5, -0.75, -43], "size": [7, 9, 7], "pivot": [-0.5, 3.75, -40.5], "rotation": [-20, 0, 0], "uv": [0, 34]},
						{"origin": [-3, -6.75, -39], "size": [6, 6, 6], "pivot": [-0.5, 3.75, -40.5], "rotation": [-20, 0, 0], "uv": [54, 64]},
						{"origin": [0, 3.49181, -49.54614], "size": [0, 7, 8], "inflate": 0.02, "pivot": [0, 6.74181, -45.79614], "rotation": [-30, 0, 0], "uv": [42, 71]},
						{"origin": [-5.5, -4.51737, -52.66185], "size": [11, 0, 8], "inflate": 0.02, "pivot": [0, -5.51737, -48.66185], "rotation": [-22.5, 0, 0], "uv": [24, 16]},
						{"origin": [3.5, -0.75, -39], "size": [3, 9, 0], "inflate": 0.02, "pivot": [-0.5, 3.75, -40.5], "rotation": [-20, 0, 0], "uv": [84, 4]},
						{"origin": [-6.5, -0.75, -39], "size": [3, 9, 0], "inflate": 0.02, "pivot": [0.5, 3.75, -40.5], "rotation": [-20, 0, 0], "uv": [0, 84]},
						{"origin": [-8, -3.16908, -43.86844], "size": [4, 0, 2], "inflate": 0.02, "pivot": [-6, -2.91908, -42.61844], "rotation": [-65, 0, 0], "uv": [27, 56]},
						{"origin": [3, -5.63562, -42.47739], "size": [3, 0, 5], "inflate": 0.02, "pivot": [4.5, -5.38562, -39.47739], "rotation": [-25, 0, 0], "uv": [72, 23]},
						{"origin": [4, -3.16908, -43.86844], "size": [4, 0, 2], "inflate": 0.02, "pivot": [6, -2.91908, -42.61844], "rotation": [-65, 0, 0], "uv": [63, 42]},
						{"origin": [-6, -5.63562, -42.47739], "size": [3, 0, 5], "inflate": 0.02, "pivot": [-4.5, -5.38562, -39.47739], "rotation": [-25, 0, 0], "uv": [51, 42]},
						{"origin": [-2.5, -8.94732, -45.3844], "size": [5, 3, 2], "pivot": [0, -7.69732, -44.1344], "rotation": [-30, 0, 0], "uv": [79, 54]},
						{"origin": [-2.5, -10.6508, -38.81747], "size": [5, 6, 2], "pivot": [0, -9.9008, -38.81747], "rotation": [-2.5, 0, 0], "uv": [10, 66]},
						{"origin": [2.5, -8.75, -40], "size": [0, 2, 6], "inflate": 0.02, "pivot": [-0.5, 3.75, -40.5], "rotation": [-20, 0, 0], "uv": [59, 77], "mirror": true},
						{"origin": [-2.5, -8.75, -40], "size": [0, 2, 6], "inflate": 0.02, "pivot": [0.5, 3.75, -40.5], "rotation": [-20, 0, 0], "uv": [59, 77]},
						{"origin": [-2.5, -8.94732, -43.3844], "size": [5, 0, 1], "inflate": 0.02, "pivot": [0, -7.69732, -44.1344], "rotation": [-30, 0, 0], "uv": [36, 73]},
						{"origin": [-2.5, -10.6508, -39.81747], "size": [5, 0, 1], "inflate": 0.02, "pivot": [0, -9.9008, -38.81747], "rotation": [-2.5, 0, 0], "uv": [36, 75]}
					]
				},
				{
					"name": "whisker_left",
					"parent": "head",
					"pivot": [3, -7.38718, -38.05073],
					"rotation": [5, 0, 0],
					"cubes": [
						{"origin": [3, -6.25, -35], "size": [5, 0, 1], "inflate": 0.02, "pivot": [-0.5, 3.25, -39.5], "rotation": [-20, 0, 0], "uv": [67, 121]}
					]
				},
				{
					"name": "whisker_left_middle",
					"parent": "whisker_left",
					"pivot": [8, -7.38718, -38.05073],
					"cubes": [
						{"origin": [8, -6.25, -35], "size": [5, 0, 1], "inflate": 0.02, "pivot": [-0.5, 3.25, -39.5], "rotation": [-20, 0, 0], "uv": [57, 95]}
					]
				},
				{
					"name": "whisker_left_tip",
					"parent": "whisker_left_middle",
					"pivot": [13, -7.42016, -37.99042],
					"cubes": [
						{"origin": [13, -6.25, -37], "size": [4, 0, 3], "inflate": 0.02, "pivot": [-0.5, 3.25, -39.5], "rotation": [-20, 0, 0], "uv": [67, 105]}
					]
				},
				{
					"name": "whisker_right",
					"parent": "head",
					"pivot": [-3, -7.38718, -38.05073],
					"rotation": [5, 0, 0],
					"cubes": [
						{"origin": [-8, -6.25, -35], "size": [5, 0, 1], "inflate": 0.02, "pivot": [0.5, 3.25, -39.5], "rotation": [-20, 0, 0], "uv": [38, 113]}
					]
				},
				{
					"name": "whisker_right_middle",
					"parent": "whisker_right",
					"pivot": [-8, -7.38718, -38.05073],
					"cubes": [
						{"origin": [-13, -6.25, -35], "size": [5, 0, 1], "inflate": 0.02, "pivot": [0.5, 3.25, -39.5], "rotation": [-20, 0, 0], "uv": [38, 117]}
					]
				},
				{
					"name": "whisker_right_tip",
					"parent": "whisker_right_middle",
					"pivot": [-13, -7.42016, -37.99042],
					"cubes": [
						{"origin": [-17, -6.25, -37], "size": [4, 0, 3], "inflate": 0.02, "pivot": [0.5, 3.25, -39.5], "rotation": [-20, 0, 0], "uv": [77, 98]}
					]
				},
				{
					"name": "fin_head_left_front",
					"parent": "head",
					"pivot": [3, -4.21101, -39.29987],
					"rotation": [-2.71994, -19.82169, -39.52468],
					"cubes": [
						{"origin": [3, -3.25, -40.25], "size": [8, 0, 7], "inflate": 0.02, "pivot": [-0.5, 3.5, -40.75], "rotation": [-20, 0, 0], "uv": [48, 25]}
					]
				},
				{
					"name": "fin_head_right_front",
					"parent": "head",
					"pivot": [-3, -4.21101, -39.29987],
					"rotation": [-2.71994, 19.82169, 39.52468],
					"cubes": [
						{"origin": [-11, -3.25, -40.25], "size": [8, 0, 7], "inflate": 0.02, "pivot": [0.5, 3.5, -40.75], "rotation": [-20, 0, 0], "uv": [51, 34]}
					]
				}
			]
		}
	]
}