{
    "name": "beartic",
    "nationalPokedexNumber": 614,
    "primaryType": "ice",
    "abilities": [
        "snowcloak",
        "slushrush",
        "h:swiftswim"
    ],
    "baseStats": {
        "hp": 95,
        "attack": 130,
        "defence": 80,
        "special_attack": 70,
        "special_defence": 80,
        "speed": 50
    },
    "catchRate": 60,
    "maleRatio": 0.5,
    "shoulderMountable": false,
    "forms": [],
    "baseExperienceYield": 177,
    "experienceGroup": "mediumfast",
    "eggCycles": 20,
    "eggGroups": [
        "ground"
    ],
    "moves": [
        "0:iciclecrash",
        "1:growl",
        "1:furyswipes",
        "1:powdersnow",
        "1:endure",
        "1:charm",
        "1:aquajet",
        "9:icywind",
        "12:playnice",
        "15:brine",
        "18:frostbreath",
        "21:slash",
        "24:flail",
        "27:swagger",
        "30:hail",
        "33:thrash",
        "36:rest",
        "41:blizzard",
        "46:sheercold",
        "51:superpower",
        "tm:assurance",
        "tm:attract",
        "tm:avalanche",
        "tm:bodypress",
        "tm:brickbreak",
        "tm:bulkup",
        "tm:bulldoze",
        "tm:dig",
        "tm:dive",
        "tm:encore",
        "tm:facade",
        "tm:fling",
        "tm:focusblast",
        "tm:gigaimpact",
        "tm:grassknot",
        "tm:heavyslam",
        "tm:hyperbeam",
        "tm:icebeam",
        "tm:icefang",
        "tm:icepunch",
        "tm:iciclespear",
        "tm:liquidation",
        "tm:lowkick",
        "tm:megakick",
        "tm:megapunch",
        "tm:playrough",
        "tm:protect",
        "tm:raindance",
        "tm:rockslide",
        "tm:rocktomb",
        "tm:round",
        "tm:scaryface",
        "tm:shadowclaw",
        "tm:sleeptalk",
        "tm:snore",
        "tm:stoneedge",
        "tm:substitute",
        "tm:surf",
        "tm:swordsdance",
        "tm:taunt",
        "tm:throatchop"
    ],
    "labels": [
        "gen5"
    ],
    "pokedex": [
        "pokemoncobbled.species.beartic.desc1",
        "pokemoncobbled.species.beartic.desc2"
    ],
    "preEvolution": "cubchoo",
    "evolutions": [],
    "baseScale": 1.0,
    "hitbox": {
        "width": 1.0,
        "height": 1.0,
        "fixed": false
    }
}