{
    "name": "cinccino",
    "nationalPokedexNumber": 573,
    "primaryType": "normal",
    "abilities": [
        "cutecharm",
        "technician",
        "h:skilllink"
    ],
    "baseStats": {
        "hp": 75,
        "attack": 95,
        "defence": 60,
        "special_attack": 65,
        "special_defence": 60,
        "speed": 115
    },
    "catchRate": 60,
    "maleRatio": 0.25,
    "shoulderMountable": false,
    "forms": [],
    "baseExperienceYield": 165,
    "experienceGroup": "fast",
    "eggCycles": 15,
    "eggGroups": [
        "ground"
    ],
    "moves": [
        "1:pound",
        "1:slam",
        "1:sing",
        "1:swift",
        "1:charm",
        "1:encore",
        "1:helpinghand",
        "1:hypervoice",
        "1:tickle",
        "1:bulletseed",
        "1:rockblast",
        "1:lastresort",
        "1:afteryou",
        "1:echoedvoice",
        "1:tailslap",
        "1:babydolleyes",
        "tm:attract",
        "tm:calmmind",
        "tm:dazzlinggleam",
        "tm:dig",
        "tm:endure",
        "tm:facade",
        "tm:faketears",
        "tm:fling",
        "tm:focusblast",
        "tm:gigaimpact",
        "tm:grassknot",
        "tm:gunkshot",
        "tm:hyperbeam",
        "tm:irontail",
        "tm:lightscreen",
        "tm:playrough",
        "tm:protect",
        "tm:raindance",
        "tm:rest",
        "tm:retaliate",
        "tm:round",
        "tm:safeguard",
        "tm:seedbomb",
        "tm:sleeptalk",
        "tm:snore",
        "tm:substitute",
        "tm:sunnyday",
        "tm:thief",
        "tm:thunder",
        "tm:thunderbolt",
        "tm:thunderwave",
        "tm:uproar",
        "tm:uturn",
        "tm:workup",
        "tutor:tripleaxel"
    ],
    "labels": [
        "gen5"
    ],
    "pokedex": [
        "pokemoncobbled.species.cinccino.desc1",
        "pokemoncobbled.species.cinccino.desc2"
    ],
    "preEvolution": "minccino",
    "evolutions": [],
    "baseScale": 1.0,
    "hitbox": {
        "width": 1.0,
        "height": 1.0,
        "fixed": false
    }
}