{
    "name": "cubchoo",
    "nationalPokedexNumber": 613,
    "primaryType": "ice",
    "abilities": [
        "snowcloak",
        "slushrush",
        "h:rattled"
    ],
    "baseStats": {
        "hp": 55,
        "attack": 70,
        "defence": 40,
        "special_attack": 60,
        "special_defence": 40,
        "speed": 40
    },
    "catchRate": 120,
    "maleRatio": 0.5,
    "shoulderMountable": false,
    "forms": [],
    "baseExperienceYield": 61,
    "experienceGroup": "mediumfast",
    "eggCycles": 20,
    "eggGroups": [
        "ground"
    ],
    "moves": [
        "1:growl",
        "1:powdersnow",
        "3:endure",
        "6:furyswipes",
        "9:icywind",
        "12:playnice",
        "15:brine",
        "18:frostbreath",
        "21:slash",
        "24:flail",
        "27:charm",
        "30:hail",
        "33:thrash",
        "36:rest",
        "39:blizzard",
        "42:sheercold",
        "egg:focuspunch",
        "egg:nightslash",
        "egg:yawn",
        "tm:assurance",
        "tm:attract",
        "tm:avalanche",
        "tm:dig",
        "tm:encore",
        "tm:facade",
        "tm:fling",
        "tm:grassknot",
        "tm:icebeam",
        "tm:icefang",
        "tm:icepunch",
        "tm:lowkick",
        "tm:megakick",
        "tm:megapunch",
        "tm:playrough",
        "tm:protect",
        "tm:raindance",
        "tm:rocktomb",
        "tm:round",
        "tm:shadowclaw",
        "tm:sleeptalk",
        "tm:snore",
        "tm:substitute",
        "tm:superpower",
        "tm:surf"
    ],
    "labels": [
        "gen5"
    ],
    "pokedex": [
        "pokemoncobbled.species.cubchoo.desc1",
        "pokemoncobbled.species.cubchoo.desc2"
    ],
    "evolutions": [
        {
            "id": "cubchoo_beartic",
            "variant": "level_up",
            "result": "beartic",
            "consumeHeldItem": false,
            "learnableMoves": [],
            "requirements": [
                {
                    "variant": "level",
                    "minLevel": 37
                }
            ]
        }
    ],
    "baseScale": 1.0,
    "hitbox": {
        "width": 1.0,
        "height": 1.0,
        "fixed": false
    }
}