{
    "name": "darumaka",
    "nationalPokedexNumber": 554,
    "primaryType": "fire",
    "abilities": [
        "hustle",
        "h:innerfocus"
    ],
    "baseStats": {
        "hp": 70,
        "attack": 90,
        "defence": 45,
        "special_attack": 15,
        "special_defence": 45,
        "speed": 50
    },
    "catchRate": 120,
    "maleRatio": 0.5,
    "shoulderMountable": false,
    "forms": [
        {
            "name": "galar",
            "primaryType": "ice",
            "aspects": [
                "galar"
            ]
        }
    ],
    "baseExperienceYield": 63,
    "experienceGroup": "mediumslow",
    "eggCycles": 20,
    "eggGroups": [
        "ground"
    ],
    "moves": [
        "1:tackle",
        "1:ember",
        "4:taunt",
        "8:bite",
        "12:incinerate",
        "16:workup",
        "20:firefang",
        "24:headbutt",
        "28:firepunch",
        "32:uproar",
        "36:bellydrum",
        "40:flareblitz",
        "44:thrash",
        "48:superpower",
        "egg:extrasensory",
        "egg:flamewheel",
        "egg:focuspunch",
        "egg:hammerarm",
        "egg:takedown",
        "egg:yawn",
        "tm:attract",
        "tm:brickbreak",
        "tm:dig",
        "tm:encore",
        "tm:endure",
        "tm:facade",
        "tm:fireblast",
        "tm:firespin",
        "tm:flamethrower",
        "tm:fling",
        "tm:focusenergy",
        "tm:grassknot",
        "tm:gyroball",
        "tm:heatwave",
        "tm:megakick",
        "tm:megapunch",
        "tm:overheat",
        "tm:protect",
        "tm:rest",
        "tm:rockslide",
        "tm:rocktomb",
        "tm:round",
        "tm:sleeptalk",
        "tm:snore",
        "tm:solarbeam",
        "tm:substitute",
        "tm:sunnyday",
        "tm:thief",
        "tm:uturn",
        "tm:willowisp",
        "tm:zenheadbutt"
    ],
    "labels": [
        "gen5"
    ],
    "pokedex": [
        "pokemoncobbled.species.darumaka.desc1",
        "pokemoncobbled.species.darumaka.desc2"
    ],
    "evolutions": [
        {
            "id": "darumaka_darmanitan",
            "variant": "level_up",
            "result": "darmanitan",
            "consumeHeldItem": false,
            "learnableMoves": [],
            "requirements": [
                {
                    "variant": "level",
                    "minLevel": 35
                }
            ]
        },
        {
            "id": "darumaka_darmanitan",
            "variant": "item_interact",
            "result": "darmanitan",
            "consumeHeldItem": true,
            "learnableMoves": [],
            "requirements": [],
            "requiredContext": "ice-stone"
        }
    ],
    "baseScale": 1.0,
    "hitbox": {
        "width": 1.0,
        "height": 1.0,
        "fixed": false
    }
}