{
    "name": "deino",
    "nationalPokedexNumber": 633,
    "primaryType": "dark",
    "secondaryType": "dragon",
    "abilities": [
        "hustle"
    ],
    "baseStats": {
        "hp": 52,
        "attack": 65,
        "defence": 50,
        "special_attack": 45,
        "special_defence": 50,
        "speed": 38
    },
    "catchRate": 45,
    "maleRatio": 0.5,
    "shoulderMountable": false,
    "forms": [],
    "baseExperienceYield": 60,
    "experienceGroup": "slow",
    "eggCycles": 40,
    "eggGroups": [
        "dragon"
    ],
    "moves": [
        "1:tackle",
        "1:focusenergy",
        "4:dragonbreath",
        "8:bite",
        "12:roar",
        "16:assurance",
        "20:headbutt",
        "24:workup",
        "28:slam",
        "32:crunch",
        "36:scaryface",
        "40:dragonpulse",
        "44:bodyslam",
        "48:hypervoice",
        "52:dragonrush",
        "56:nastyplot",
        "60:outrage",
        "egg:astonish",
        "egg:belch",
        "egg:doublehit",
        "egg:headsmash",
        "tm:attract",
        "tm:darkpulse",
        "tm:earthpower",
        "tm:endure",
        "tm:facade",
        "tm:firefang",
        "tm:icefang",
        "tm:protect",
        "tm:raindance",
        "tm:rest",
        "tm:round",
        "tm:screech",
        "tm:sleeptalk",
        "tm:snore",
        "tm:substitute",
        "tm:sunnyday",
        "tm:superpower",
        "tm:taunt",
        "tm:thief",
        "tm:thunderfang",
        "tm:thunderwave",
        "tm:uproar",
        "tm:zenheadbutt",
        "tutor:dracometeor"
    ],
    "labels": [
        "gen5"
    ],
    "pokedex": [
        "pokemoncobbled.species.deino.desc1",
        "pokemoncobbled.species.deino.desc2"
    ],
    "evolutions": [
        {
            "id": "deino_zweilous",
            "variant": "level_up",
            "result": "zweilous",
            "consumeHeldItem": false,
            "learnableMoves": [],
            "requirements": [
                {
                    "variant": "level",
                    "minLevel": 50
                }
            ]
        }
    ],
    "baseScale": 1.0,
    "hitbox": {
        "width": 1.0,
        "height": 1.0,
        "fixed": false
    }
}