{
    "name": "heatmor",
    "nationalPokedexNumber": 631,
    "primaryType": "fire",
    "abilities": [
        "gluttony",
        "flashfire",
        "h:whitesmoke"
    ],
    "baseStats": {
        "hp": 85,
        "attack": 97,
        "defence": 66,
        "special_attack": 105,
        "special_defence": 66,
        "speed": 65
    },
    "catchRate": 90,
    "maleRatio": 0.5,
    "shoulderMountable": false,
    "forms": [],
    "baseExperienceYield": 169,
    "experienceGroup": "mediumfast",
    "eggCycles": 20,
    "eggGroups": [
        "ground"
    ],
    "moves": [
        "1:tackle",
        "1:lick",
        "5:furyswipes",
        "10:incinerate",
        "15:bugbite",
        "20:stockpile",
        "20:spitup",
        "20:swallow",
        "25:slash",
        "30:bind",
        "35:firelash",
        "40:honeclaws",
        "45:amnesia",
        "50:firespin",
        "55:inferno",
        "60:flareblitz",
        "egg:belch",
        "egg:curse",
        "egg:nightslash",
        "egg:suckerpunch",
        "egg:tickle",
        "tm:attract",
        "tm:bodyslam",
        "tm:brutalswing",
        "tm:dig",
        "tm:drainpunch",
        "tm:endure",
        "tm:facade",
        "tm:fireblast",
        "tm:firepunch",
        "tm:flamethrower",
        "tm:fling",
        "tm:focusblast",
        "tm:gigadrain",
        "tm:gigaimpact",
        "tm:heatwave",
        "tm:lowkick",
        "tm:overheat",
        "tm:protect",
        "tm:raindance",
        "tm:rest",
        "tm:rocktomb",
        "tm:round",
        "tm:shadowclaw",
        "tm:sleeptalk",
        "tm:snore",
        "tm:solarbeam",
        "tm:stompingtantrum",
        "tm:substitute",
        "tm:sunnyday",
        "tm:superpower",
        "tm:taunt",
        "tm:thief",
        "tm:throatchop",
        "tm:thunderpunch",
        "tm:willowisp",
        "tutor:burningjealousy",
        "tutor:scorchingsands"
    ],
    "labels": [
        "gen5"
    ],
    "pokedex": [
        "pokemoncobbled.species.heatmor.desc1",
        "pokemoncobbled.species.heatmor.desc2"
    ],
    "evolutions": [],
    "baseScale": 1.0,
    "hitbox": {
        "width": 1.0,
        "height": 1.0,
        "fixed": false
    }
}