{
    "name": "klink",
    "nationalPokedexNumber": 599,
    "primaryType": "steel",
    "abilities": [
        "plus",
        "minus",
        "h:clearbody"
    ],
    "baseStats": {
        "hp": 40,
        "attack": 55,
        "defence": 70,
        "special_attack": 45,
        "special_defence": 60,
        "speed": 30
    },
    "catchRate": 130,
    "maleRatio": 1.125,
    "shoulderMountable": false,
    "forms": [],
    "baseExperienceYield": 60,
    "experienceGroup": "mediumslow",
    "eggCycles": 20,
    "eggGroups": [
        "mineral"
    ],
    "moves": [
        "1:visegrip",
        "1:thundershock",
        "4:bind",
        "8:charge",
        "12:chargebeam",
        "16:metalsound",
        "20:autotomize",
        "24:discharge",
        "28:screech",
        "32:geargrind",
        "36:lockon",
        "40:shiftgear",
        "44:zapcannon",
        "48:hyperbeam",
        "tm:assurance",
        "tm:endure",
        "tm:facade",
        "tm:flashcannon",
        "tm:irondefense",
        "tm:powergem",
        "tm:protect",
        "tm:rest",
        "tm:round",
        "tm:sandstorm",
        "tm:sleeptalk",
        "tm:snore",
        "tm:substitute",
        "tm:thunderbolt",
        "tm:thunderwave",
        "tm:uproar",
        "tm:voltswitch",
        "tm:wildcharge",
        "tutor:risingvoltage",
        "tutor:steelbeam",
        "tutor:steelroller"
    ],
    "labels": [
        "gen5"
    ],
    "pokedex": [
        "pokemoncobbled.species.klink.desc1",
        "pokemoncobbled.species.klink.desc2"
    ],
    "evolutions": [
        {
            "id": "klink_klang",
            "variant": "level_up",
            "result": "klang",
            "consumeHeldItem": false,
            "learnableMoves": [],
            "requirements": [
                {
                    "variant": "level",
                    "minLevel": 38
                }
            ]
        }
    ],
    "baseScale": 1.0,
    "hitbox": {
        "width": 1.0,
        "height": 1.0,
        "fixed": false
    }
}