{
    "name": "lampent",
    "nationalPokedexNumber": 608,
    "primaryType": "ghost",
    "secondaryType": "fire",
    "abilities": [
        "flashfire",
        "flamebody",
        "h:infiltrator"
    ],
    "baseStats": {
        "hp": 60,
        "attack": 40,
        "defence": 60,
        "special_attack": 95,
        "special_defence": 60,
        "speed": 55
    },
    "catchRate": 90,
    "maleRatio": 0.5,
    "shoulderMountable": false,
    "forms": [],
    "baseExperienceYield": 130,
    "experienceGroup": "mediumslow",
    "eggCycles": 20,
    "eggGroups": [
        "indeterminate"
    ],
    "moves": [
        "1:ember",
        "1:minimize",
        "1:smog",
        "1:astonish",
        "12:confuseray",
        "16:hex",
        "20:willowisp",
        "24:firespin",
        "28:nightshade",
        "32:curse",
        "36:shadowball",
        "40:inferno",
        "46:imprison",
        "52:painsplit",
        "58:overheat",
        "64:memento",
        "tm:allyswitch",
        "tm:attract",
        "tm:calmmind",
        "tm:darkpulse",
        "tm:endure",
        "tm:energyball",
        "tm:facade",
        "tm:fireblast",
        "tm:flamethrower",
        "tm:heatwave",
        "tm:mysticalfire",
        "tm:payback",
        "tm:protect",
        "tm:psychic",
        "tm:rest",
        "tm:round",
        "tm:safeguard",
        "tm:sleeptalk",
        "tm:snore",
        "tm:solarbeam",
        "tm:substitute",
        "tm:sunnyday",
        "tm:taunt",
        "tm:thief",
        "tm:trick",
        "tm:trickroom",
        "tutor:burningjealousy",
        "tutor:poltergeist",
        "tutor:skittersmack"
    ],
    "labels": [
        "gen5"
    ],
    "pokedex": [
        "pokemoncobbled.species.lampent.desc1",
        "pokemoncobbled.species.lampent.desc2"
    ],
    "preEvolution": "litwick",
    "evolutions": [
        {
            "id": "lampent_chandelure",
            "variant": "item_interact",
            "result": "chandelure",
            "consumeHeldItem": true,
            "learnableMoves": [],
            "requirements": [],
            "requiredContext": "dusk-stone"
        }
    ],
    "baseScale": 1.0,
    "hitbox": {
        "width": 1.0,
        "height": 1.0,
        "fixed": false
    }
}