{
    "name": "mienshao",
    "nationalPokedexNumber": 620,
    "primaryType": "fighting",
    "abilities": [
        "innerfocus",
        "regenerator",
        "h:reckless"
    ],
    "baseStats": {
        "hp": 65,
        "attack": 125,
        "defence": 60,
        "special_attack": 95,
        "special_defence": 60,
        "speed": 105
    },
    "catchRate": 45,
    "maleRatio": 0.5,
    "shoulderMountable": false,
    "forms": [],
    "baseExperienceYield": 179,
    "experienceGroup": "mediumslow",
    "eggCycles": 25,
    "eggGroups": [
        "ground",
        "humanshape"
    ],
    "moves": [
        "1:pound",
        "1:reversal",
        "1:detect",
        "1:fakeout",
        "1:quickguard",
        "15:furyswipes",
        "20:wideguard",
        "25:forcepalm",
        "30:uturn",
        "35:drainpunch",
        "40:honeclaws",
        "45:aurasphere",
        "53:bounce",
        "59:calmmind",
        "66:highjumpkick",
        "tm:acrobatics",
        "tm:agility",
        "tm:allyswitch",
        "tm:assurance",
        "tm:attract",
        "tm:batonpass",
        "tm:blazekick",
        "tm:brickbreak",
        "tm:brutalswing",
        "tm:bulkup",
        "tm:closecombat",
        "tm:dig",
        "tm:endure",
        "tm:facade",
        "tm:fling",
        "tm:focusblast",
        "tm:focusenergy",
        "tm:gigaimpact",
        "tm:grassknot",
        "tm:helpinghand",
        "tm:hyperbeam",
        "tm:lowkick",
        "tm:lowsweep",
        "tm:megakick",
        "tm:megapunch",
        "tm:payback",
        "tm:poisonjab",
        "tm:protect",
        "tm:raindance",
        "tm:reflect",
        "tm:rest",
        "tm:retaliate",
        "tm:revenge",
        "tm:rockslide",
        "tm:rocktomb",
        "tm:round",
        "tm:sleeptalk",
        "tm:snore",
        "tm:stoneedge",
        "tm:substitute",
        "tm:sunnyday",
        "tm:swift",
        "tm:swordsdance",
        "tm:taunt",
        "tm:workup",
        "tutor:coaching"
    ],
    "labels": [
        "gen5"
    ],
    "pokedex": [
        "pokemoncobbled.species.mienshao.desc1",
        "pokemoncobbled.species.mienshao.desc2"
    ],
    "preEvolution": "mienfoo",
    "evolutions": [],
    "baseScale": 1.0,
    "hitbox": {
        "width": 1.0,
        "height": 1.0,
        "fixed": false
    }
}