{
    "name": "panpour",
    "nationalPokedexNumber": 515,
    "primaryType": "water",
    "abilities": [
        "gluttony",
        "h:torrent"
    ],
    "baseStats": {
        "hp": 50,
        "attack": 53,
        "defence": 48,
        "special_attack": 53,
        "special_defence": 48,
        "speed": 64
    },
    "catchRate": 190,
    "maleRatio": 0.875,
    "shoulderMountable": false,
    "forms": [],
    "baseExperienceYield": 63,
    "experienceGroup": "mediumfast",
    "eggCycles": 20,
    "eggGroups": [
        "ground"
    ],
    "moves": [
        "1:scratch",
        "1:playnice",
        "4:leer",
        "7:lick",
        "10:watergun",
        "13:furyswipes",
        "16:watersport",
        "19:bite",
        "22:scald",
        "25:taunt",
        "28:fling",
        "31:acrobatics",
        "34:brine",
        "37:recycle",
        "40:naturalgift",
        "43:crunch",
        "egg:aquaring",
        "egg:aquatail",
        "egg:astonish",
        "egg:covet",
        "egg:disarmingvoice",
        "egg:hydropump",
        "egg:lowkick",
        "egg:mudsport",
        "egg:nastyplot",
        "egg:roleplay",
        "egg:tickle",
        "tm:attract",
        "tm:blizzard",
        "tm:confide",
        "tm:doubleteam",
        "tm:facade",
        "tm:frustration",
        "tm:grassknot",
        "tm:hail",
        "tm:hiddenpower",
        "tm:icebeam",
        "tm:lowsweep",
        "tm:payback",
        "tm:protect",
        "tm:raindance",
        "tm:rest",
        "tm:return",
        "tm:rocktomb",
        "tm:round",
        "tm:shadowclaw",
        "tm:sleeptalk",
        "tm:substitute",
        "tm:surf",
        "tm:swagger",
        "tm:thief",
        "tm:torment",
        "tm:toxic",
        "tm:waterfall",
        "tm:workup",
        "tutor:endeavor",
        "tutor:focuspunch",
        "tutor:gastroacid",
        "tutor:gunkshot",
        "tutor:helpinghand",
        "tutor:icepunch",
        "tutor:icywind",
        "tutor:irontail",
        "tutor:knockoff",
        "tutor:snore",
        "tutor:uproar",
        "tutor:waterpledge",
        "tutor:waterpulse"
    ],
    "labels": [
        "gen5"
    ],
    "pokedex": [
        "pokemoncobbled.species.panpour.desc1",
        "pokemoncobbled.species.panpour.desc2"
    ],
    "evolutions": [
        {
            "id": "panpour_simipour",
            "variant": "item_interact",
            "result": "simipour",
            "consumeHeldItem": true,
            "learnableMoves": [],
            "requirements": [],
            "requiredContext": "water-stone"
        }
    ],
    "baseScale": 1.0,
    "hitbox": {
        "width": 1.0,
        "height": 1.0,
        "fixed": false
    }
}