{
    "name": "petilil",
    "nationalPokedexNumber": 548,
    "primaryType": "grass",
    "abilities": [
        "chlorophyll",
        "owntempo",
        "h:leafguard"
    ],
    "baseStats": {
        "hp": 45,
        "attack": 35,
        "defence": 50,
        "special_attack": 70,
        "special_defence": 50,
        "speed": 30
    },
    "catchRate": 190,
    "maleRatio": 0.0,
    "shoulderMountable": false,
    "forms": [],
    "baseExperienceYield": 56,
    "experienceGroup": "mediumfast",
    "eggCycles": 20,
    "eggGroups": [
        "plant"
    ],
    "moves": [
        "1:absorb",
        "1:growth",
        "3:helpinghand",
        "6:stunspore",
        "9:megadrain",
        "12:aromatherapy",
        "15:magicalleaf",
        "18:sleeppowder",
        "21:gigadrain",
        "24:leechseed",
        "27:afteryou",
        "30:energyball",
        "33:synthesis",
        "36:sunnyday",
        "39:entrainment",
        "42:leafstorm",
        "egg:healingwish",
        "egg:ingrain",
        "egg:sweetscent",
        "egg:worryseed",
        "tm:attract",
        "tm:charm",
        "tm:encore",
        "tm:endure",
        "tm:facade",
        "tm:grassknot",
        "tm:pollenpuff",
        "tm:protect",
        "tm:rest",
        "tm:round",
        "tm:safeguard",
        "tm:seedbomb",
        "tm:sleeptalk",
        "tm:snore",
        "tm:solarbeam",
        "tm:substitute",
        "tutor:grassyglide"
    ],
    "labels": [
        "gen5"
    ],
    "pokedex": [
        "pokemoncobbled.species.petilil.desc1",
        "pokemoncobbled.species.petilil.desc2"
    ],
    "evolutions": [
        {
            "id": "petilil_lilligant",
            "variant": "item_interact",
            "result": "lilligant",
            "consumeHeldItem": true,
            "learnableMoves": [],
            "requirements": [],
            "requiredContext": "sun-stone"
        }
    ],
    "baseScale": 1.0,
    "hitbox": {
        "width": 1.0,
        "height": 1.0,
        "fixed": false
    }
}