{
    "name": "rufflet",
    "nationalPokedexNumber": 627,
    "primaryType": "normal",
    "secondaryType": "flying",
    "abilities": [
        "keeneye",
        "sheerforce",
        "h:hustle"
    ],
    "baseStats": {
        "hp": 70,
        "attack": 83,
        "defence": 50,
        "special_attack": 37,
        "special_defence": 50,
        "speed": 60
    },
    "catchRate": 190,
    "maleRatio": 1.0,
    "shoulderMountable": false,
    "forms": [],
    "baseExperienceYield": 70,
    "experienceGroup": "slow",
    "eggCycles": 20,
    "eggGroups": [
        "flying"
    ],
    "moves": [
        "1:leer",
        "1:peck",
        "6:honeclaws",
        "12:wingattack",
        "18:tailwind",
        "24:scaryface",
        "30:aerialace",
        "36:slash",
        "42:whirlwind",
        "48:crushclaw",
        "55:airslash",
        "60:defog",
        "66:thrash",
        "72:bravebird",
        "tm:agility",
        "tm:assurance",
        "tm:attract",
        "tm:bulkup",
        "tm:closecombat",
        "tm:endure",
        "tm:facade",
        "tm:fly",
        "tm:heatwave",
        "tm:hurricane",
        "tm:protect",
        "tm:raindance",
        "tm:rest",
        "tm:retaliate",
        "tm:rockslide",
        "tm:rocktomb",
        "tm:round",
        "tm:shadowclaw",
        "tm:sleeptalk",
        "tm:snore",
        "tm:steelwing",
        "tm:substitute",
        "tm:sunnyday",
        "tm:superpower",
        "tm:swift",
        "tm:uturn",
        "tm:workup",
        "tm:zenheadbutt",
        "tutor:dualwingbeat"
    ],
    "labels": [
        "gen5"
    ],
    "pokedex": [
        "pokemoncobbled.species.rufflet.desc1",
        "pokemoncobbled.species.rufflet.desc2"
    ],
    "evolutions": [
        {
            "id": "rufflet_braviary",
            "variant": "level_up",
            "result": "braviary",
            "consumeHeldItem": false,
            "learnableMoves": [],
            "requirements": [
                {
                    "variant": "level",
                    "minLevel": 54
                }
            ]
        }
    ],
    "baseScale": 1.0,
    "hitbox": {
        "width": 1.0,
        "height": 1.0,
        "fixed": false
    }
}