{
    "name": "scolipede",
    "nationalPokedexNumber": 545,
    "primaryType": "bug",
    "secondaryType": "poison",
    "abilities": [
        "poisonpoint",
        "swarm",
        "h:speedboost"
    ],
    "baseStats": {
        "hp": 60,
        "attack": 100,
        "defence": 89,
        "special_attack": 55,
        "special_defence": 69,
        "speed": 112
    },
    "catchRate": 45,
    "maleRatio": 0.5,
    "shoulderMountable": false,
    "forms": [],
    "baseExperienceYield": 243,
    "experienceGroup": "mediumslow",
    "eggCycles": 20,
    "eggGroups": [
        "bug"
    ],
    "moves": [
        "1:poisonsting",
        "1:defensecurl",
        "1:protect",
        "1:rollout",
        "1:batonpass",
        "1:irondefense",
        "12:poisontail",
        "16:screech",
        "20:bugbite",
        "26:venoshock",
        "34:takedown",
        "42:agility",
        "50:toxic",
        "58:venomdrench",
        "66:doubleedge",
        "74:megahorn",
        "tm:assurance",
        "tm:attract",
        "tm:bulldoze",
        "tm:crosspoison",
        "tm:dig",
        "tm:earthquake",
        "tm:endure",
        "tm:facade",
        "tm:gigaimpact",
        "tm:gyroball",
        "tm:hex",
        "tm:hyperbeam",
        "tm:irontail",
        "tm:payback",
        "tm:pinmissile",
        "tm:poisonjab",
        "tm:rest",
        "tm:rockslide",
        "tm:rocktomb",
        "tm:round",
        "tm:sleeptalk",
        "tm:sludgebomb",
        "tm:smartstrike",
        "tm:snore",
        "tm:solarbeam",
        "tm:spikes",
        "tm:stompingtantrum",
        "tm:substitute",
        "tm:sunnyday",
        "tm:superpower",
        "tm:swordsdance",
        "tm:throatchop",
        "tm:toxicspikes",
        "tm:xscissor",
        "tutor:skittersmack",
        "tutor:steelroller"
    ],
    "labels": [
        "gen5"
    ],
    "pokedex": [
        "pokemoncobbled.species.scolipede.desc1",
        "pokemoncobbled.species.scolipede.desc2"
    ],
    "preEvolution": "whirlipede",
    "evolutions": [],
    "baseScale": 1.0,
    "hitbox": {
        "width": 1.0,
        "height": 1.0,
        "fixed": false
    }
}