{
    "name": "simisear",
    "nationalPokedexNumber": 514,
    "primaryType": "fire",
    "abilities": [
        "gluttony",
        "h:blaze"
    ],
    "baseStats": {
        "hp": 75,
        "attack": 98,
        "defence": 63,
        "special_attack": 98,
        "special_defence": 63,
        "speed": 101
    },
    "catchRate": 75,
    "maleRatio": 0.875,
    "shoulderMountable": false,
    "forms": [],
    "baseExperienceYield": 174,
    "experienceGroup": "mediumfast",
    "eggCycles": 20,
    "eggGroups": [
        "ground"
    ],
    "moves": [
        "1:leer",
        "1:lick",
        "1:furyswipes",
        "1:flameburst",
        "tm:acrobatics",
        "tm:attract",
        "tm:brickbreak",
        "tm:confide",
        "tm:doubleteam",
        "tm:facade",
        "tm:fireblast",
        "tm:flamecharge",
        "tm:flamethrower",
        "tm:fling",
        "tm:focusblast",
        "tm:frustration",
        "tm:gigaimpact",
        "tm:grassknot",
        "tm:hiddenpower",
        "tm:hyperbeam",
        "tm:lowsweep",
        "tm:overheat",
        "tm:payback",
        "tm:protect",
        "tm:rest",
        "tm:return",
        "tm:rockslide",
        "tm:rocktomb",
        "tm:round",
        "tm:shadowclaw",
        "tm:sleeptalk",
        "tm:solarbeam",
        "tm:substitute",
        "tm:sunnyday",
        "tm:swagger",
        "tm:taunt",
        "tm:thief",
        "tm:torment",
        "tm:toxic",
        "tm:willowisp",
        "tm:workup",
        "tutor:covet",
        "tutor:endeavor",
        "tutor:firepledge",
        "tutor:firepunch",
        "tutor:focuspunch",
        "tutor:gastroacid",
        "tutor:gunkshot",
        "tutor:heatwave",
        "tutor:helpinghand",
        "tutor:irontail",
        "tutor:knockoff",
        "tutor:lowkick",
        "tutor:recycle",
        "tutor:roleplay",
        "tutor:snore",
        "tutor:superpower",
        "tutor:throatchop",
        "tutor:uproar"
    ],
    "labels": [
        "gen5"
    ],
    "pokedex": [
        "pokemoncobbled.species.simisear.desc1",
        "pokemoncobbled.species.simisear.desc2"
    ],
    "preEvolution": "pansear",
    "evolutions": [],
    "baseScale": 1.0,
    "hitbox": {
        "width": 1.0,
        "height": 1.0,
        "fixed": false
    }
}