{
    "name": "stoutland",
    "nationalPokedexNumber": 508,
    "primaryType": "normal",
    "abilities": [
        "intimidate",
        "sandrush",
        "h:scrappy"
    ],
    "baseStats": {
        "hp": 85,
        "attack": 110,
        "defence": 90,
        "special_attack": 45,
        "special_defence": 90,
        "speed": 80
    },
    "catchRate": 45,
    "maleRatio": 0.5,
    "shoulderMountable": false,
    "forms": [],
    "baseExperienceYield": 250,
    "experienceGroup": "mediumslow",
    "eggCycles": 15,
    "eggGroups": [
        "ground"
    ],
    "moves": [
        "1:tackle",
        "1:leer",
        "1:bite",
        "1:thunderfang",
        "1:icefang",
        "1:firefang",
        "1:workup",
        "12:retaliate",
        "19:babydolleyes",
        "24:playrough",
        "30:crunch",
        "38:takedown",
        "46:helpinghand",
        "54:reversal",
        "62:roar",
        "70:lastresort",
        "78:gigaimpact",
        "tm:attract",
        "tm:charm",
        "tm:dig",
        "tm:endure",
        "tm:facade",
        "tm:hyperbeam",
        "tm:hypervoice",
        "tm:ironhead",
        "tm:payback",
        "tm:protect",
        "tm:psychicfangs",
        "tm:raindance",
        "tm:rest",
        "tm:rocktomb",
        "tm:round",
        "tm:shadowball",
        "tm:sleeptalk",
        "tm:snarl",
        "tm:snore",
        "tm:stompingtantrum",
        "tm:substitute",
        "tm:sunnyday",
        "tm:superpower",
        "tm:surf",
        "tm:thunder",
        "tm:thunderbolt",
        "tm:thunderwave",
        "tm:uproar",
        "tm:wildcharge"
    ],
    "labels": [
        "gen5"
    ],
    "pokedex": [
        "pokemoncobbled.species.stoutland.desc1",
        "pokemoncobbled.species.stoutland.desc2"
    ],
    "preEvolution": "herdier",
    "evolutions": [],
    "baseScale": 1.0,
    "hitbox": {
        "width": 1.0,
        "height": 1.0,
        "fixed": false
    }
}