{
    "name": "timburr",
    "nationalPokedexNumber": 532,
    "primaryType": "fighting",
    "abilities": [
        "guts",
        "sheerforce",
        "h:ironfist"
    ],
    "baseStats": {
        "hp": 75,
        "attack": 80,
        "defence": 55,
        "special_attack": 25,
        "special_defence": 35,
        "speed": 35
    },
    "catchRate": 180,
    "maleRatio": 0.75,
    "shoulderMountable": false,
    "forms": [],
    "baseExperienceYield": 61,
    "experienceGroup": "mediumslow",
    "eggCycles": 20,
    "eggGroups": [
        "humanshape"
    ],
    "moves": [
        "1:pound",
        "1:leer",
        "4:lowkick",
        "8:rockthrow",
        "12:focusenergy",
        "16:bulkup",
        "20:rockslide",
        "24:slam",
        "28:scaryface",
        "32:dynamicpunch",
        "36:hammerarm",
        "40:stoneedge",
        "44:superpower",
        "48:focuspunch",
        "egg:counter",
        "egg:defog",
        "egg:detect",
        "egg:machpunch",
        "egg:poweruppunch",
        "egg:wideguard",
        "tm:attract",
        "tm:brickbreak",
        "tm:brutalswing",
        "tm:dig",
        "tm:drainpunch",
        "tm:endure",
        "tm:facade",
        "tm:firepunch",
        "tm:fling",
        "tm:focusblast",
        "tm:grassknot",
        "tm:helpinghand",
        "tm:icepunch",
        "tm:lowsweep",
        "tm:megakick",
        "tm:megapunch",
        "tm:payback",
        "tm:poisonjab",
        "tm:protect",
        "tm:raindance",
        "tm:rest",
        "tm:retaliate",
        "tm:revenge",
        "tm:reversal",
        "tm:rocktomb",
        "tm:round",
        "tm:sleeptalk",
        "tm:snore",
        "tm:substitute",
        "tm:sunnyday",
        "tm:taunt",
        "tm:thunderpunch",
        "tm:workup",
        "tutor:coaching"
    ],
    "labels": [
        "gen5"
    ],
    "pokedex": [
        "pokemoncobbled.species.timburr.desc1",
        "pokemoncobbled.species.timburr.desc2"
    ],
    "evolutions": [
        {
            "id": "timburr_gurdurr",
            "variant": "level_up",
            "result": "gurdurr",
            "consumeHeldItem": false,
            "learnableMoves": [],
            "requirements": [
                {
                    "variant": "level",
                    "minLevel": 25
                }
            ]
        }
    ],
    "baseScale": 1.0,
    "hitbox": {
        "width": 1.0,
        "height": 1.0,
        "fixed": false
    }
}