{
    "name": "venipede",
    "nationalPokedexNumber": 543,
    "primaryType": "bug",
    "secondaryType": "poison",
    "abilities": [
        "poisonpoint",
        "swarm",
        "h:speedboost"
    ],
    "baseStats": {
        "hp": 30,
        "attack": 45,
        "defence": 59,
        "special_attack": 30,
        "special_defence": 39,
        "speed": 57
    },
    "catchRate": 255,
    "maleRatio": 0.5,
    "shoulderMountable": false,
    "forms": [],
    "baseExperienceYield": 52,
    "experienceGroup": "mediumslow",
    "eggCycles": 15,
    "eggGroups": [
        "bug"
    ],
    "moves": [
        "1:poisonsting",
        "1:defensecurl",
        "4:rollout",
        "8:protect",
        "12:poisontail",
        "16:screech",
        "20:bugbite",
        "24:venoshock",
        "28:takedown",
        "32:agility",
        "36:toxic",
        "40:venomdrench",
        "44:doubleedge",
        "egg:bite",
        "egg:furycutter",
        "tm:attract",
        "tm:endure",
        "tm:facade",
        "tm:gyroball",
        "tm:hex",
        "tm:irondefense",
        "tm:payback",
        "tm:pinmissile",
        "tm:poisonjab",
        "tm:rest",
        "tm:round",
        "tm:sleeptalk",
        "tm:sludgebomb",
        "tm:snore",
        "tm:solarbeam",
        "tm:spikes",
        "tm:substitute",
        "tm:sunnyday",
        "tm:toxicspikes",
        "tutor:skittersmack",
        "tutor:steelroller"
    ],
    "labels": [
        "gen5"
    ],
    "pokedex": [
        "pokemoncobbled.species.venipede.desc1",
        "pokemoncobbled.species.venipede.desc2"
    ],
    "evolutions": [
        {
            "id": "venipede_whirlipede",
            "variant": "level_up",
            "result": "whirlipede",
            "consumeHeldItem": false,
            "learnableMoves": [],
            "requirements": [
                {
                    "variant": "level",
                    "minLevel": 22
                }
            ]
        }
    ],
    "baseScale": 1.0,
    "hitbox": {
        "width": 1.0,
        "height": 1.0,
        "fixed": false
    }
}