{
    "name": "victini",
    "nationalPokedexNumber": 494,
    "primaryType": "psychic",
    "secondaryType": "fire",
    "abilities": [
        "victorystar"
    ],
    "baseStats": {
        "hp": 100,
        "attack": 100,
        "defence": 100,
        "special_attack": 100,
        "special_defence": 100,
        "speed": 100
    },
    "catchRate": 3,
    "maleRatio": 1.125,
    "shoulderMountable": false,
    "forms": [],
    "baseExperienceYield": 300,
    "experienceGroup": "slow",
    "eggCycles": 120,
    "eggGroups": [
        "no-eggs"
    ],
    "moves": [
        "1:confusion",
        "1:quickattack",
        "1:focusenergy",
        "1:flamecharge",
        "1:vcreate",
        "7:workup",
        "14:incinerate",
        "21:storedpower",
        "28:headbutt",
        "35:endure",
        "42:zenheadbutt",
        "49:inferno",
        "56:reversal",
        "63:searingshot",
        "70:doubleedge",
        "77:flareblitz",
        "84:overheat",
        "91:finalgambit",
        "tm:batonpass",
        "tm:blazekick",
        "tm:bounce",
        "tm:brickbreak",
        "tm:dazzlinggleam",
        "tm:encore",
        "tm:energyball",
        "tm:facade",
        "tm:fireblast",
        "tm:firepunch",
        "tm:firespin",
        "tm:flamethrower",
        "tm:fling",
        "tm:focusblast",
        "tm:futuresight",
        "tm:gigaimpact",
        "tm:grassknot",
        "tm:guardswap",
        "tm:heatwave",
        "tm:helpinghand",
        "tm:hyperbeam",
        "tm:lightscreen",
        "tm:megakick",
        "tm:megapunch",
        "tm:mysticalfire",
        "tm:powerswap",
        "tm:protect",
        "tm:psychic",
        "tm:psyshock",
        "tm:rest",
        "tm:round",
        "tm:safeguard",
        "tm:shadowball",
        "tm:skillswap",
        "tm:sleeptalk",
        "tm:snore",
        "tm:solarbeam",
        "tm:speedswap",
        "tm:substitute",
        "tm:sunnyday",
        "tm:swift",
        "tm:taunt",
        "tm:thunder",
        "tm:thunderbolt",
        "tm:thunderpunch",
        "tm:thunderwave",
        "tm:trick",
        "tm:trickroom",
        "tm:uproar",
        "tm:uturn",
        "tm:wildcharge",
        "tm:willowisp",
        "tutor:expandingforce",
        "tutor:scorchingsands"
    ],
    "labels": [
        "mythical",
        "gen5"
    ],
    "pokedex": [
        "pokemoncobbled.species.victini.desc1",
        "pokemoncobbled.species.victini.desc2"
    ],
    "evolutions": [],
    "baseScale": 1.0,
    "hitbox": {
        "width": 1.0,
        "height": 1.0,
        "fixed": false
    }
}