{
    "name": "vullaby",
    "nationalPokedexNumber": 629,
    "primaryType": "dark",
    "secondaryType": "flying",
    "abilities": [
        "bigpecks",
        "overcoat",
        "h:weakarmor"
    ],
    "baseStats": {
        "hp": 70,
        "attack": 55,
        "defence": 75,
        "special_attack": 45,
        "special_defence": 65,
        "speed": 60
    },
    "catchRate": 190,
    "maleRatio": 0.0,
    "shoulderMountable": false,
    "forms": [],
    "baseExperienceYield": 74,
    "experienceGroup": "slow",
    "eggCycles": 20,
    "eggGroups": [
        "flying"
    ],
    "moves": [
        "1:gust",
        "1:leer",
        "6:flatter",
        "12:pluck",
        "18:tailwind",
        "24:knockoff",
        "30:irondefense",
        "36:whirlwind",
        "42:airslash",
        "48:darkpulse",
        "54:nastyplot",
        "60:defog",
        "66:attract",
        "72:bravebird",
        "egg:meanlook",
        "egg:roost",
        "egg:toxic",
        "tm:assurance",
        "tm:endure",
        "tm:facade",
        "tm:faketears",
        "tm:fly",
        "tm:foulplay",
        "tm:heatwave",
        "tm:payback",
        "tm:protect",
        "tm:raindance",
        "tm:rest",
        "tm:retaliate",
        "tm:rocktomb",
        "tm:round",
        "tm:scaryface",
        "tm:shadowball",
        "tm:sleeptalk",
        "tm:snarl",
        "tm:snore",
        "tm:steelwing",
        "tm:substitute",
        "tm:sunnyday",
        "tm:swift",
        "tm:taunt",
        "tm:thief",
        "tm:uturn",
        "tutor:dualwingbeat",
        "tutor:lashout"
    ],
    "labels": [
        "gen5"
    ],
    "pokedex": [
        "pokemoncobbled.species.vullaby.desc1",
        "pokemoncobbled.species.vullaby.desc2"
    ],
    "evolutions": [
        {
            "id": "vullaby_mandibuzz",
            "variant": "level_up",
            "result": "mandibuzz",
            "consumeHeldItem": false,
            "learnableMoves": [],
            "requirements": [
                {
                    "variant": "level",
                    "minLevel": 54
                }
            ]
        }
    ],
    "baseScale": 1.0,
    "hitbox": {
        "width": 1.0,
        "height": 1.0,
        "fixed": false
    }
}