{
    "name": "yamask",
    "nationalPokedexNumber": 562,
    "primaryType": "ghost",
    "abilities": [
        "mummy"
    ],
    "baseStats": {
        "hp": 38,
        "attack": 30,
        "defence": 85,
        "special_attack": 55,
        "special_defence": 65,
        "speed": 30
    },
    "catchRate": 190,
    "maleRatio": 0.5,
    "shoulderMountable": false,
    "forms": [
        {
            "name": "galar",
            "primaryType": "ground",
            "secondaryType": "ghost",
            "abilities": [
                "wanderingspirit"
            ],
            "baseStats": {
                "hp": 38,
                "attack": 55,
                "defence": 85,
                "special_attack": 30,
                "special_defence": 65,
                "speed": 30
            },
            "aspects": [
                "galar"
            ]
        }
    ],
    "baseExperienceYield": 61,
    "experienceGroup": "mediumfast",
    "eggCycles": 25,
    "eggGroups": [
        "mineral",
        "indeterminate"
    ],
    "moves": [
        "1:protect",
        "1:astonish",
        "4:haze",
        "8:nightshade",
        "12:disable",
        "16:willowisp",
        "20:craftyshield",
        "24:hex",
        "28:meanlook",
        "32:grudge",
        "36:curse",
        "40:shadowball",
        "44:darkpulse",
        "48:guardsplit",
        "48:powersplit",
        "52:destinybond",
        "egg:memento",
        "tm:allyswitch",
        "tm:attract",
        "tm:calmmind",
        "tm:endure",
        "tm:energyball",
        "tm:facade",
        "tm:faketears",
        "tm:imprison",
        "tm:irondefense",
        "tm:nastyplot",
        "tm:payback",
        "tm:psychic",
        "tm:raindance",
        "tm:rest",
        "tm:round",
        "tm:safeguard",
        "tm:skillswap",
        "tm:sleeptalk",
        "tm:snore",
        "tm:substitute",
        "tm:thief",
        "tm:toxicspikes",
        "tm:trick",
        "tm:trickroom",
        "tm:wonderroom",
        "tm:zenheadbutt",
        "tutor:poltergeist"
    ],
    "labels": [
        "gen5"
    ],
    "pokedex": [
        "pokemoncobbled.species.yamask.desc1",
        "pokemoncobbled.species.yamask.desc2"
    ],
    "evolutions": [
        {
            "id": "yamask_cofagrigus",
            "variant": "level_up",
            "result": "cofagrigus",
            "consumeHeldItem": false,
            "learnableMoves": [],
            "requirements": [
                {
                    "variant": "level",
                    "minLevel": 34
                }
            ]
        },
        {
            "id": "yamask_runerigus",
            "variant": "level_up",
            "result": "runerigus",
            "consumeHeldItem": false,
            "learnableMoves": [],
            "requirements": []
        }
    ],
    "baseScale": 1.0,
    "hitbox": {
        "width": 1.0,
        "height": 1.0,
        "fixed": false
    }
}