{
	"format_version": "1.12.0",
	"minecraft:geometry": [
		{
			"description": {
				"identifier": "geometry.arbok",
				"texture_width": 128,
				"texture_height": 128,
				"visible_bounds_width": 8,
				"visible_bounds_height": 4,
				"visible_bounds_offset": [0, 1, 0]
			},
			"bones": [
				{
					"name": "arbok",
					"pivot": [0, 0, 0]
				},
				{
					"name": "body",
					"parent": "arbok",
					"pivot": [0, 0, 0]
				},
				{
					"name": "body_upper",
					"parent": "body",
					"pivot": [0, 3, -9],
					"cubes": [
						{"origin": [-7.5, 1, -30], "size": [15, 4, 3], "uv": [12, 0]},
						{"origin": [-11, 2, -27], "size": [22, 4, 12], "uv": [0, 80]},
						{"origin": [-8.5, 1.5, -15], "size": [17, 4, 3], "uv": [14, 72]},
						{"origin": [-6, 1, -12], "size": [12, 4, 3], "uv": [0, 12]}
					]
				},
				{
					"name": "neck",
					"parent": "body_upper",
					"pivot": [0, 3.5, -28.25],
					"cubes": [
						{"origin": [-2.5, -2.43412, -30.2309], "size": [5, 6, 4], "pivot": [0, 3.5, -28.25], "rotation": [-10, 0, 0], "uv": [40, 42]}
					]
				},
				{
					"name": "head",
					"parent": "neck",
					"pivot": [0, -2, -29],
					"cubes": [
						{"origin": [-2.5, -4, -31.5], "size": [5, 2, 5], "inflate": 0.02, "uv": [48, 19]},
						{"origin": [-3, -9, -31.5], "size": [6, 5, 3], "uv": [48, 26]},
						{"origin": [-2, -11, -31.5], "size": [4, 2, 3], "uv": [68, 34]},
						{"origin": [-1.78446, -10.975, -28.75], "size": [0, 1, 1], "inflate": 0.02, "pivot": [-1.75, -10.74702, -28.609], "rotation": [0, 0, 30], "uv": [109, 22]},
						{"origin": [1.75096, -11.1, -28.75], "size": [0, 1, 1], "inflate": 0.02, "pivot": [1.5, -10.74702, -26.609], "rotation": [0, 0, -30], "uv": [109, 22]}
					]
				},
				{
					"name": "eyes",
					"parent": "head",
					"pivot": [0, -6.75, -29.75],
					"cubes": [
						{"origin": [-3, -8.25, -30.25], "size": [0, 3, 1], "inflate": 0.02, "uv": [113, 39]},
						{"origin": [3, -8.25, -30.25], "size": [0, 3, 1], "inflate": 0.02, "uv": [113, 39], "mirror": true},
						{"origin": [-2.9, -8.25, -30.25], "size": [1, 3, 1], "inflate": 0.04, "uv": [68, 67]},
						{"origin": [1.9, -8.25, -30.25], "size": [1, 3, 1], "inflate": 0.04, "uv": [68, 67], "mirror": true}
					]
				},
				{
					"name": "tongue",
					"parent": "head",
					"pivot": [0, -4, -28.25],
					"cubes": [
						{"origin": [-0.5, -9, -28.25], "size": [1, 5, 0], "inflate": 0.02, "uv": [0, 7]}
					]
				},
				{
					"name": "tongue2",
					"parent": "tongue",
					"pivot": [0, -9, -28.25],
					"cubes": [
						{"origin": [-0.5, -13, -28.25], "size": [1, 4, 0], "inflate": 0.02, "uv": [2, 7]}
					]
				},
				{
					"name": "tongue3",
					"parent": "tongue2",
					"pivot": [0, -13, -28.25],
					"cubes": [
						{"origin": [-0.5, -16, -28.25], "size": [1, 3, 0], "inflate": 0.02, "uv": [4, 7]}
					]
				},
				{
					"name": "tongue4",
					"parent": "tongue3",
					"pivot": [0, -16, -28.25],
					"cubes": [
						{"origin": [-1, -17, -28.25], "size": [2, 1, 0], "inflate": 0.02, "uv": [6, 7]}
					]
				},
				{
					"name": "tongue5",
					"parent": "tongue4",
					"pivot": [0, -17, -28.25],
					"cubes": [
						{"origin": [-1.5, -18, -28.25], "size": [3, 1, 0], "inflate": 0.02, "uv": [10, 7]}
					]
				},
				{
					"name": "jaw",
					"parent": "head",
					"pivot": [0, -4, -27.5],
					"rotation": [25, 0, 0],
					"cubes": [
						{"origin": [-2, -10, -28.5], "size": [4, 6, 2], "inflate": -0.02, "uv": [0, 58]},
						{"origin": [-1.70433, -9.77404, -29.25], "size": [1, 0, 1], "inflate": 0.02, "pivot": [-1.5, -9.70833, -28.40585], "rotation": [0, 0, -60], "uv": [108, 23]},
						{"origin": [0.48782, -9.89904, -29.25], "size": [1, 0, 1], "inflate": 0.02, "pivot": [1.5, -9.95833, -28.65585], "rotation": [0, 0, 60], "uv": [108, 23]},
						{"origin": [-1.57462, -8.99918, -29], "size": [0, 1, 1], "inflate": 0.02, "pivot": [-1.5, -8.45833, -28.40585], "rotation": [0, 0, 15], "uv": [109, 22]},
						{"origin": [1.57462, -8.99918, -29], "size": [0, 1, 1], "inflate": 0.02, "pivot": [1.5, -8.45833, -28.40585], "rotation": [0, 0, -15], "uv": [109, 22]},
						{"origin": [-1.72432, -8.0004, -28.75], "size": [0, 1, 1], "inflate": 0.02, "pivot": [-1.75, -7.45833, -28.40585], "rotation": [0, 0, 15], "uv": [109, 22]},
						{"origin": [1.72432, -8.0004, -28.75], "size": [0, 1, 1], "inflate": 0.02, "pivot": [1.75, -7.45833, -28.40585], "rotation": [0, 0, -15], "uv": [109, 22]}
					]
				},
				{
					"name": "body_lower",
					"parent": "body",
					"pivot": [0, 3, -9],
					"cubes": [
						{"origin": [-3.5, 0.5, -9], "size": [7, 5, 8], "inflate": 0.02, "uv": [45, 0]}
					]
				},
				{
					"name": "tail",
					"parent": "body_lower",
					"pivot": [0, 3, -1],
					"cubes": [
						{"origin": [-3.5, 0, -1], "size": [7, 6, 11], "uv": [0, 19]}
					]
				},
				{
					"name": "tail2",
					"parent": "tail",
					"pivot": [0, 3, 10],
					"cubes": [
						{"origin": [-3, 0, 10], "size": [6, 6, 11], "uv": [25, 25]}
					]
				},
				{
					"name": "tail3",
					"parent": "tail2",
					"pivot": [0, 2.5, 21],
					"cubes": [
						{"origin": [-2.5, 0, 21], "size": [5, 5, 11], "uv": [0, 36]}
					]
				},
				{
					"name": "tail4",
					"parent": "tail3",
					"pivot": [0, 2, 32],
					"cubes": [
						{"origin": [-2, 0, 32], "size": [4, 4, 11], "uv": [21, 42]}
					]
				},
				{
					"name": "tail5",
					"parent": "tail4",
					"pivot": [0, 1.5, 43],
					"cubes": [
						{"origin": [-1.5, 0, 43], "size": [3, 3, 11], "uv": [22, 57]}
					]
				}
			]
		}
	]
}