{
  "replace": false,
  "values": [
    "minecraft:frozen_river",
    "minecraft:grove",
	"minecraft:jagged_peaks",
    "minecraft:snowy_beach",
	"minecraft:snowy_plains",
    "minecraft:snowy_slopes",
	"minecraft:snowy_taiga",
	"#pokemoncobbled:is_icy",
    {
      "id": "#byg:is_snowy",
      "required": false
    }
  ]
}