{
  "replace": false,
  "values": [
    "minecraft:deep_dark",
    "minecraft:dripstone_caves",
    "minecraft:lush_caves",
    {
      "id": "#byg:is_underground",
      "required": false
    }
  ]
}