{
	"format_version": "1.12.0",
	"minecraft:geometry": [
		{
			"description": {
				"identifier": "geometry.pikachu_quad_male",
				"texture_width": 64,
				"texture_height": 64,
				"visible_bounds_width": 4,
				"visible_bounds_height": 4,
				"visible_bounds_offset": [0, 1, 0]
			},
			"bones": [
				{
					"name": "pikachu",
					"pivot": [0, 0, 0]
				},
				{
					"name": "body",
					"parent": "pikachu",
					"pivot": [0, 8, 0.5],
					"cubes": [
						{"origin": [-4.5, 7.5, 0], "size": [9, 13, 7], "pivot": [0, 6.5, 3], "rotation": [90, 0, 0], "uv": [32, 25]}
					]
				},
				{
					"name": "leftleg",
					"parent": "body",
					"pivot": [3.5, 5.5, -0.5],
					"cubes": [
						{"origin": [2, 1.5, -3.5], "size": [3, 5, 6], "uv": [0, 32], "mirror": true},
						{"origin": [2.25, 1, -1.25], "size": [2, 1, 3], "uv": [1, 54], "mirror": true}
					]
				},
				{
					"name": "leftfoot",
					"parent": "leftleg",
					"pivot": [3.25, 1, 0.25],
					"cubes": [
						{"origin": [1.75, 0, -3], "size": [3, 1, 5], "uv": [0, 58]}
					]
				},
				{
					"name": "rightleg",
					"parent": "body",
					"pivot": [-3.5, 5.5, -0.5],
					"cubes": [
						{"origin": [-5, 1.5, -3.5], "size": [3, 5, 6], "uv": [0, 32]},
						{"origin": [-4.25, 1, -1.25], "size": [2, 1, 3], "uv": [1, 54]}
					]
				},
				{
					"name": "rightfoot",
					"parent": "rightleg",
					"pivot": [-3.25, 1, 0.25],
					"cubes": [
						{"origin": [-4.75, 0, -3], "size": [3, 1, 5], "uv": [0, 58], "mirror": true}
					]
				},
				{
					"name": "head",
					"parent": "body",
					"pivot": [0, 12.5, 0.25],
					"cubes": [
						{"origin": [-0.5, 7.25, -17.825], "size": [1, 1, 0], "inflate": 0.02, "pivot": [0, -7.75, -13.75], "rotation": [0, 0, 0], "uv": [62, 9], "mirror": true},
						{"origin": [-1.5, 5.75, -17.825], "size": [3, 1, 0], "inflate": 0.02, "pivot": [0, -7.75, -13.75], "rotation": [0, 0, 0], "uv": [58, 0], "mirror": true},
						{"origin": [-5, 4.5, -17.75], "size": [10, 8, 8], "pivot": [0, -7.5, -13.75], "rotation": [0, 0, 0], "uv": [0, 0]}
					]
				},
				{
					"name": "eyes",
					"parent": "head",
					"pivot": [0, 17, -3.825],
					"cubes": [
						{"origin": [2, 8, -17.825], "size": [2, 2, 0], "inflate": 0.02, "pivot": [0, -7.75, -13.75], "rotation": [0, 0, 0], "uv": [0, 0], "mirror": true},
						{"origin": [-4, 8, -17.825], "size": [2, 2, 0], "inflate": 0.02, "pivot": [0, -7.75, -13.75], "rotation": [0, 0, 0], "uv": [0, 0]}
					]
				},
				{
					"name": "righteyelid",
					"parent": "eyes",
					"pivot": [0, 17, -3.825],
					"cubes": [
						{"origin": [-4, 8, -17.725], "size": [2, 2, 1], "inflate": 0.04, "pivot": [0, -7.75, -13.75], "rotation": [0, 0, 0], "uv": [43, 13]}
					]
				},
				{
					"name": "lefteyelid",
					"parent": "eyes",
					"pivot": [0, 17, -3.825],
					"cubes": [
						{"origin": [2, 8, -17.725], "size": [2, 2, 1], "inflate": 0.04, "pivot": [0, -7.75, -13.75], "rotation": [0, 0, 0], "uv": [43, 13], "mirror": true}
					]
				},
				{
					"name": "leftear",
					"parent": "head",
					"pivot": [4.25, 18.75, 0],
					"rotation": [0, 0, 25],
					"cubes": [
						{"origin": [-2.57201, 11.07309, -15.13034], "size": [4, 11, 0], "inflate": 0.02, "pivot": [1.25, -2.25, 0], "rotation": [-5, -30, 0], "uv": [0, 43]}
					]
				},
				{
					"name": "rightear",
					"parent": "head",
					"pivot": [-4.25, 18.75, 0],
					"rotation": [0, 0, -25],
					"cubes": [
						{"origin": [-1.42799, 11.07309, -15.13034], "size": [4, 11, 0], "inflate": 0.02, "pivot": [-1.25, -2.25, 0], "rotation": [-5, 30, 0], "uv": [11, 43]}
					]
				},
				{
					"name": "tail",
					"parent": "body",
					"pivot": [0, 2, 3],
					"cubes": [
						{"origin": [0, 7.5, 1], "size": [0, 16, 16], "inflate": 0.02, "uv": [0, 0]}
					]
				},
				{
					"name": "leftarm",
					"parent": "body",
					"pivot": [4.5, 10.75, -0.5],
					"cubes": [
						{"origin": [-0.75, 15.25, 5], "size": [7, 3, 3], "pivot": [0, 6.25, 2.75], "rotation": [90, 0, 90], "uv": [36, 10]}
					]
				},
				{
					"name": "rightarm",
					"parent": "body",
					"pivot": [-4.5, 10.75, -0.5],
					"cubes": [
						{"origin": [-6.25, 15.25, 5], "size": [7, 3, 3], "pivot": [0, 6.25, 2.75], "rotation": [90, 0, -90], "uv": [36, 10], "mirror": true}
					]
				}
			]
		}
	]
}