{
	"format_version": "1.12.0",
	"minecraft:geometry": [
		{
			"description": {
				"identifier": "geometry.pidgey",
				"texture_width": 32,
				"texture_height": 32,
				"visible_bounds_width": 3,
				"visible_bounds_height": 2.5,
				"visible_bounds_offset": [0, 0.75, 0]
			},
			"bones": [
				{
					"name": "pidgey",
					"pivot": [0, 0, 0]
				},
				{
					"name": "body",
					"parent": "pidgey",
					"pivot": [0, 5.37059, -0.26704],
					"cubes": [
						{"origin": [-2.5, 3, -4.25], "size": [5, 5, 8], "pivot": [-0.5, 5.5, -0.75], "rotation": [-15, 0, 0], "uv": [0, 0]}
					]
				},
				{
					"name": "head",
					"parent": "body",
					"pivot": [0, 5.75, -2.5],
					"cubes": [
						{"origin": [-2, 5.25, -4.5], "size": [4, 7, 4], "uv": [16, 13]},
						{"origin": [-2.5, 12.25, -4.5], "size": [5, 0, 5], "inflate": 0.02, "pivot": [0, 12.25, -4.5], "rotation": [15, 0, 0], "uv": [-5, 17]},
						{"origin": [-1, 9, -6.5], "size": [2, 2, 2], "uv": [0, 0]}
					]
				},
				{
					"name": "eyelid_right",
					"parent": "head",
					"pivot": [-1.4, 10.75, -3.4],
					"cubes": [
						{"origin": [-1.9, 10.25, -4.4], "size": [1, 1, 2], "inflate": 0.04, "uv": [0, 13]}
					]
				},
				{
					"name": "eyelid_left",
					"parent": "head",
					"pivot": [1.4, 10.75, -3.4],
					"cubes": [
						{"origin": [0.9, 10.25, -4.4], "size": [1, 1, 2], "inflate": 0.04, "uv": [0, 13], "mirror": true}
					]
				},
				{
					"name": "tail",
					"parent": "body",
					"pivot": [0, 3.5, 3.25],
					"rotation": [7.5, 0, 0],
					"cubes": [
						{"origin": [-3, 3.5, 3.25], "size": [6, 0, 5], "inflate": 0.02, "uv": [13, 0]}
					]
				},
				{
					"name": "leg_left",
					"parent": "body",
					"pivot": [1.5, 3, 0.5],
					"cubes": [
						{"origin": [1, 1, 0], "size": [1, 3, 1], "uv": [16, 13]}
					]
				},
				{
					"name": "foot_left",
					"parent": "leg_left",
					"pivot": [2, 0, 1],
					"cubes": [
						{"origin": [0.5, 0, -1], "size": [2, 1, 2], "uv": [0, 4]}
					]
				},
				{
					"name": "toe_left_back",
					"parent": "foot_left",
					"pivot": [1.5, 0.5, 1],
					"cubes": [
						{"origin": [1.5, 0, 1], "size": [0, 1, 2], "inflate": 0.02, "uv": [6, 22]}
					]
				},
				{
					"name": "toe_left_front",
					"parent": "foot_left",
					"pivot": [0.75, 0.5, -1],
					"cubes": [
						{"origin": [0.75, 0, -4], "size": [0, 1, 3], "inflate": 0.02, "uv": [0, 20]}
					]
				},
				{
					"name": "toe_left_front2",
					"parent": "foot_left",
					"pivot": [2.25, 0.5, -1],
					"cubes": [
						{"origin": [2.25, 0, -4], "size": [0, 1, 3], "inflate": 0.02, "uv": [0, 4]}
					]
				},
				{
					"name": "leg_right",
					"parent": "body",
					"pivot": [-1.5, 3, 0.5],
					"cubes": [
						{"origin": [-2, 1, 0], "size": [1, 3, 1], "uv": [11, 23]}
					]
				},
				{
					"name": "foot_right",
					"parent": "leg_right",
					"pivot": [-2, 0, 1],
					"cubes": [
						{"origin": [-2.5, 0, -1], "size": [2, 1, 2], "uv": [18, 5]}
					]
				},
				{
					"name": "toe_right_back",
					"parent": "foot_right",
					"pivot": [-1.5, 0.5, 1],
					"cubes": [
						{"origin": [-1.5, 0, 1], "size": [0, 1, 2], "inflate": 0.02, "uv": [15, 22]}
					]
				},
				{
					"name": "toe_right_front",
					"parent": "foot_right",
					"pivot": [-0.75, 0.5, -1],
					"cubes": [
						{"origin": [-0.75, 0, -4], "size": [0, 1, 3], "inflate": 0.02, "uv": [0, 21]}
					]
				},
				{
					"name": "toe_right_front2",
					"parent": "foot_right",
					"pivot": [-2.25, 0.5, -1],
					"cubes": [
						{"origin": [-2.25, 0, -4], "size": [0, 1, 3], "inflate": 0.02, "uv": [6, 20]}
					]
				},
				{
					"name": "wing_left",
					"parent": "body",
					"pivot": [2.5, 7.25, -2.5],
					"rotation": [-40, 5, -2.5],
					"cubes": [
						{"origin": [2.55, 4.4, -3], "size": [0, 5, 5], "inflate": 0.02, "uv": [0, 22], "mirror": true}
					]
				},
				{
					"name": "wing_left_tip",
					"parent": "wing_left",
					"pivot": [2.5, 4.5, 3.5],
					"rotation": [40, -1.5, -2],
					"cubes": [
						{"origin": [2.5, 5.4, 2.25], "size": [0, 5, 5], "inflate": 0.02, "uv": [11, 22], "mirror": true}
					]
				},
				{
					"name": "wing_right",
					"parent": "body",
					"pivot": [-2.5, 7.25, -2.5],
					"rotation": [-40, -5, 2.5],
					"cubes": [
						{"origin": [-2.55, 4.4, -3], "size": [0, 5, 5], "inflate": 0.02, "uv": [0, 22]}
					]
				},
				{
					"name": "wing_right_tip",
					"parent": "wing_right",
					"pivot": [-2.5, 4.5, 3.5],
					"rotation": [40, 1.5, 2],
					"cubes": [
						{"origin": [-2.5, 5.4, 2.25], "size": [0, 5, 5], "inflate": 0.02, "uv": [11, 22]}
					]
				}
			]
		}
	]
}