{
  "poser": "pokemoncobbled:cloyster",
  "model": "pokemoncobbled:bedrock/models/0091_cloyster/cloyster.geo.json",
  "texture": "pokemoncobbled:textures/pokemon/0091_cloyster/cloyster.png",
  "variations": [
    {
      "aspects": ["shiny"],
      "texture": "pokemoncobbled:textures/pokemon/0091_cloyster/cloyster_shiny.png"
    }
  ]
}