{
  "poser": "pokemoncobbled:dodrio",
  "model": "pokemoncobbled:bedrock/models/0085_dodrio/dodrio.geo.json",
  "texture": "pokemoncobbled:textures/pokemon/0085_dodrio/dodrio_male.png",
  "variations": [
    {
      "aspects": ["shiny"],
      "texture": "pokemoncobbled:textures/pokemon/0085_dodrio/dodrio_shiny.png"
    },
    {
      "aspects": ["female"],
      "texture": "pokemoncobbled:textures/pokemon/0085_dodrio/dodrio_female.png"
    }
  ]
}