{
  "poser": "pokemoncobbled:electivire",
  "model": "pokemoncobbled:bedrock/models/0466_electivire/electivire.geo.json",
  "texture": "pokemoncobbled:textures/pokemon/0466_electivire/electivire.png",
  "variations": [
    {
      "aspects": ["shiny"],
      "texture": "pokemoncobbled:textures/pokemon/0466_electivire/electivire_shiny.png"
    }
  ]
}