{
  "poser": "pokemoncobbled:horsea",
  "model": "pokemoncobbled:bedrock/models/0116_horsea/horsea.geo.json",
  "texture": "pokemoncobbled:textures/pokemon/0116_horsea/horsea.png",
  "variations": [
    {
      "aspects": ["shiny"],
      "texture": "pokemoncobbled:textures/pokemon/0116_horsea/horsea_shiny.png"
    }
  ]
}