{
  "poser": "pokemoncobbled:jynx",
  "model": "pokemoncobbled:bedrock/models/0124_jynx/jynx.geo.json",
  "texture": "pokemoncobbled:textures/pokemon/0124_jynx/jynx.png",
  "variations": [
    {
      "aspects": ["shiny"],
      "texture": "pokemoncobbled:textures/pokemon/0124_jynx/jynx_shiny.png"
    }
  ]
}