{
  "poser": "pokemoncobbled:kabutops",
  "model": "pokemoncobbled:bedrock/models/0141_kabutops/kabutops.geo.json",
  "texture": "pokemoncobbled:textures/pokemon/0141_kabutops/kabutops.png",
  "variations": [
    {
      "aspects": ["shiny"],
      "texture": "pokemoncobbled:textures/pokemon/0141_kabutops/kabutops_shiny.png"
    }
  ]
}