{
  "poser": "pokemoncobbled:kadabra",
  "model": "pokemoncobbled:bedrock/models/0064_kadabra/kadabra_male.geo.json",
  "texture": "pokemoncobbled:textures/pokemon/0064_kadabra/kadabra.png",
  "variations": [
    {
      "aspects": ["shiny"],
      "texture": "pokemoncobbled:textures/pokemon/0064_kadabra/kadabra_shiny.png"
    },
    {
      "aspects": ["female"],
      "model": "pokemoncobbled:bedrock/models/0064_kadabra/kadabra_female.geo.json"
    }
  ]
}