{
  "poser": "pokemoncobbled:leafeon",
  "model": "pokemoncobbled:bedrock/models/0470_leafeon/leafeon.geo.json",
  "texture": "pokemoncobbled:textures/pokemon/0470_leafeon/leafeon.png",
  "variations": [
    {
      "aspects": ["shiny"],
      "texture": "pokemoncobbled:textures/pokemon/0470_leafeon/leafeon_shiny.png"
    }
  ]
}