{
  "poser": "pokemoncobbled:lickilicky",
  "model": "pokemoncobbled:bedrock/models/0463_lickilicky/lickilicky.geo.json",
  "texture": "pokemoncobbled:textures/pokemon/0463_lickilicky/lickilicky.png",
  "variations": [
    {
      "aspects": ["shiny"],
      "texture": "pokemoncobbled:textures/pokemon/0463_lickilicky/lickilicky_shiny.png"
    }
  ]
}