{
  "poser": "pokemoncobbled:mewtwo",
  "model": "pokemoncobbled:bedrock/models/0150_mewtwo/mewtwo.geo.json",
  "texture": "pokemoncobbled:textures/pokemon/0150_mewtwo/mewtwo.png",
  "variations": [
    {
      "aspects": ["shiny"],
      "texture": "pokemoncobbled:textures/pokemon/0150_mewtwo/mewtwo_shiny.png"
    }
  ]
}