{
  "poser": "pokemoncobbled:munchlax",
  "model": "pokemoncobbled:bedrock/models/0446_munchlax/munchlax.geo.json",
  "texture": "pokemoncobbled:textures/pokemon/0446_munchlax/munchlax.png",
  "variations": [
    {
      "aspects": ["shiny"],
      "texture": "pokemoncobbled:textures/pokemon/0446_munchlax/munchlax_shiny.png"
    }
  ]
}