{
  "poser": "pokemoncobbled:pidgeot",
  "model": "pokemoncobbled:bedrock/models/0018_pidgeot/pidgeot.geo.json",
  "texture": "pokemoncobbled:textures/pokemon/0018_pidgeot/pidgeot.png",
  "variations": [
    {
      "aspects": ["shiny"],
      "texture": "pokemoncobbled:textures/pokemon/0018_pidgeot/pidgeot_shiny.png"
    }
  ]
}