{
  "poser": "pokemoncobbled:poliwhirl",
  "model": "pokemoncobbled:bedrock/models/0061_poliwhirl/poliwhirl.geo.json",
  "texture": "pokemoncobbled:textures/pokemon/0061_poliwhirl/poliwhirl.png",
  "variations": [
    {
      "aspects": ["shiny"],
      "texture": "pokemoncobbled:textures/pokemon/0061_poliwhirl/poliwhirl_shiny.png"
    }
  ]
}