{
  "poser": "pokemoncobbled:porygon2",
  "model": "pokemoncobbled:bedrock/models/0233_porygon2/porygon2.geo.json",
  "texture": "pokemoncobbled:textures/pokemon/0233_porygon2/porygon2.png",
  "variations": [
    {
      "aspects": ["shiny"],
      "texture": "pokemoncobbled:textures/pokemon/0233_porygon2/porygon2_shiny.png"
    }
  ]
}