{
  "poser": "pokemoncobbled:raticate",
  "model": "pokemoncobbled:bedrock/models/0020_raticate/raticate_male.geo.json",
  "texture": "pokemoncobbled:textures/pokemon/0020_raticate/raticate.png",
  "variations": [
    {
      "aspects": ["shiny"],
      "texture": "pokemoncobbled:textures/pokemon/0020_raticate/raticate_shiny.png"
    },
    {
      "aspects": ["female"],
      "model": "pokemoncobbled:bedrock/models/0020_raticate/raticate_female.geo.json"
    }
  ]
}