{
  "poser": "pokemoncobbled:shellder",
  "model": "pokemoncobbled:bedrock/models/0090_shellder/shellder.geo.json",
  "texture": "pokemoncobbled:textures/pokemon/0090_shellder/shellder.png",
  "variations": [
    {
      "aspects": ["shiny"],
      "texture": "pokemoncobbled:textures/pokemon/0090_shellder/shellder_shiny.png"
    }
  ]
}