{
  "poser": "pokemoncobbled:smoochum",
  "model": "pokemoncobbled:bedrock/models/0238_smoochum/smoochum.geo.json",
  "texture": "pokemoncobbled:textures/pokemon/0238_smoochum/smoochum.png",
  "variations": [
    {
      "aspects": ["shiny"],
      "texture": "pokemoncobbled:textures/pokemon/0238_smoochum/smoochum_shiny.png"
    }
  ]
}