{
  "poser": "pokemoncobbled:sylveon",
  "model": "pokemoncobbled:bedrock/models/0700_sylveon/sylveon.geo.json",
  "texture": "pokemoncobbled:textures/pokemon/0700_sylveon/sylveon.png",
  "variations": [
    {
      "aspects": ["shiny"],
      "texture": "pokemoncobbled:textures/pokemon/0700_sylveon/sylveon_shiny.png"
    }
  ]
}