{
  "poser": "pokemoncobbled:tangrowth",
  "model": "pokemoncobbled:bedrock/models/0465_tangrowth/tangrowth.geo.json",
  "texture": "pokemoncobbled:textures/pokemon/0465_tangrowth/tangrowth.png",
  "variations": [
    {
      "aspects": ["shiny"],
      "texture": "pokemoncobbled:textures/pokemon/0465_tangrowth/tangrowth_shiny.png"
    }
  ]
}