{
  "poser": "pokemoncobbled:tangela",
  "model": "pokemoncobbled:bedrock/models/0114_tangela/tangela.geo.json",
  "texture": "pokemoncobbled:textures/pokemon/0114_tangela/tangela.png",
  "variations": [
    {
      "aspects": ["shiny"],
      "texture": "pokemoncobbled:textures/pokemon/0114_tangela/tangela_shiny.png"
    }
  ]
}