{
  "poser": "pokemoncobbled:umbreon",
  "model": "pokemoncobbled:bedrock/models/0197_umbreon/umbreon.geo.json",
  "texture": "pokemoncobbled:textures/pokemon/0197_umbreon/umbreon.png",
  "variations": [
    {
      "aspects": ["shiny"],
      "texture": "pokemoncobbled:textures/pokemon/0197_umbreon/umbreon_shiny.png"
    }
  ]
}