{
  "poser": "pokemoncobbled:venusaur",
  "model": "pokemoncobbled:bedrock/models/0003_venusaur/venusaur_male.geo.json",
  "texture": "pokemoncobbled:textures/pokemon/0003_venusaur/venusaur.png",
  "variations": [
    {
      "aspects": ["shiny"],
      "texture": "pokemoncobbled:textures/pokemon/0003_venusaur/venusaur_shiny.png"
    },
    {
      "aspects": ["female"],
      "model": "pokemoncobbled:bedrock/models/0003_venusaur/venusaur_female.geo.json"
    }
  ]
}