{
  "poser": "pokemoncobbled:vileplume",
  "model": "pokemoncobbled:bedrock/models/0045_vileplume/vileplume_male.geo.json",
  "texture": "pokemoncobbled:textures/pokemon/0045_vileplume/vileplume_male.png",
  "variations": [
    {
      "aspects": ["female"],
      "model": "pokemoncobbled:bedrock/models/0045_vileplume/vileplume_female.geo.json",
      "texture": "pokemoncobbled:textures/pokemon/0045_vileplume/vileplume_female.png"
    },
    {
      "aspects": ["shiny"],
      "texture": "pokemoncobbled:textures/pokemon/0045_vileplume/vileplume_male_shiny.png"
    },
    {
      "aspects": ["shiny", "female"],
      "texture": "pokemoncobbled:textures/pokemon/0045_vileplume/vileplume_female_shiny.png"
    }
  ]
}