{
  "poser": "pokemoncobbled:wartortle",
  "model": "pokemoncobbled:bedrock/models/0008_wartortle/wartortle.geo.json",
  "texture": "pokemoncobbled:textures/pokemon/0008_wartortle/wartortle.png",
  "variations": [
    {
      "aspects": ["shiny"],
      "texture": "pokemoncobbled:textures/pokemon/0008_wartortle/wartortle_shiny.png"
    },
    {
      "aspects": ["sunglasses"],
      "texture": "pokemoncobbled:textures/pokemon/0008_wartortle/wartortle_sunglasses.png"
    },
    {
      "aspects": ["shiny", "sunglasses"],
      "texture": "pokemoncobbled:textures/pokemon/0008_wartortle/wartortle_shiny_sunglasses.png"
    }
  ]
}