{
  "poser": "pokemoncobbled:weedle",
  "model": "pokemoncobbled:bedrock/models/0013_weedle/weedle.geo.json",
  "texture": "pokemoncobbled:textures/pokemon/0013_weedle/weedle.png",
  "variations": [
    {
      "aspects": ["shiny"],
      "texture": "pokemoncobbled:textures/pokemon/0013_weedle/weedle_shiny.png"
    }
  ]
}