{
	"format_version": "1.12.0",
	"minecraft:geometry": [
		{
			"description": {
				"identifier": "geometry.raticate_female",
				"texture_width": 64,
				"texture_height": 64,
				"visible_bounds_width": 4,
				"visible_bounds_height": 2.5,
				"visible_bounds_offset": [0, 0.75, 0]
			},
			"bones": [
				{
					"name": "raticate",
					"pivot": [0, 0, 0]
				},
				{
					"name": "body",
					"parent": "raticate",
					"pivot": [0, 5.5, 0],
					"cubes": [
						{"origin": [-4.5, 1, -3.5], "size": [9, 9, 7], "uv": [0, 0]}
					]
				},
				{
					"name": "head",
					"parent": "body",
					"pivot": [0, 10, -1],
					"cubes": [
						{"origin": [-4, 8.5, -5], "size": [8, 8, 7], "uv": [0, 16]},
						{"origin": [-1, 11.54738, -5.01475], "size": [2, 2, 0], "pivot": [0, 13.50381, -5.08716], "rotation": [-5, 0, 0], "uv": [0, 61]},
						{"origin": [-1, 9.45262, -5.01475], "size": [2, 2, 0], "pivot": [0, 9.49619, -5.08716], "rotation": [5, 0, 0], "uv": [7, 61]},
						{"origin": [-3.5, 16.43209, -1.07453], "size": [7, 2, 0], "pivot": [0, 16.39279, -0.98396], "rotation": [-50, 0, 0], "uv": [30, 23]}
					]
				},
				{
					"name": "whiskers_right",
					"parent": "head",
					"pivot": [-4, 11.25, -4.5],
					"rotation": [0, 15, -5],
					"cubes": [
						{"origin": [-10.75, 7.75, -4.5], "size": [7, 7, 0], "pivot": [-3.75, 10.75, -4.5], "rotation": [0, 0, 0], "uv": [0, 38]}
					]
				},
				{
					"name": "whiskers_left",
					"parent": "head",
					"pivot": [4, 11.25, -4.5],
					"rotation": [0, -15, 5],
					"cubes": [
						{"origin": [3.75, 7.75, -4.5], "size": [7, 7, 0], "pivot": [3.75, 10.75, -4.5], "rotation": [0, 0, 0], "uv": [0, 38], "mirror": true}
					]
				},
				{
					"name": "ear_right",
					"parent": "head",
					"pivot": [-4, 15.25, 0.75],
					"rotation": [10, 30, 5],
					"cubes": [
						{"origin": [-9.5, 12.25, 0.75], "size": [6, 6, 0], "uv": [32, 10], "mirror": true}
					]
				},
				{
					"name": "ear_left",
					"parent": "head",
					"pivot": [4, 15.25, 0.75],
					"rotation": [10, -30, -5],
					"cubes": [
						{"origin": [3.5, 12.25, 0.75], "size": [6, 6, 0], "uv": [32, 10]}
					]
				},
				{
					"name": "eyes",
					"parent": "head",
					"pivot": [0, 14.75, -1.75],
					"cubes": [
						{"origin": [-4, 13.75, -3.75], "size": [0, 2, 3], "inflate": 0.02, "pivot": [-4, 14.75, -1.75], "rotation": [12.5, 0, 0], "uv": [58, -3], "mirror": true},
						{"origin": [4, 13.75, -3.75], "size": [0, 2, 3], "inflate": 0.02, "pivot": [4, 14.75, -1.75], "rotation": [12.5, 0, 0], "uv": [58, -3]}
					]
				},
				{
					"name": "eyelids",
					"parent": "eyes",
					"pivot": [0, 0, 0]
				},
				{
					"name": "eyelid_right",
					"parent": "eyelids",
					"pivot": [-4, 14.75, -1.75],
					"cubes": [
						{"origin": [-3.9, 13.75, -3.75], "size": [1, 2, 3], "inflate": 0.04, "pivot": [-4, 14.75, -1.75], "rotation": [12.5, 0, 0], "uv": [23, 18], "mirror": true}
					]
				},
				{
					"name": "eyelid_left",
					"parent": "eyelids",
					"pivot": [4, 14.75, -1.75],
					"cubes": [
						{"origin": [2.9, 13.75, -3.75], "size": [1, 2, 3], "inflate": 0.04, "pivot": [4, 14.75, -1.75], "rotation": [12.5, 0, 0], "uv": [23, 18]}
					]
				},
				{
					"name": "hand_right",
					"parent": "body",
					"pivot": [-4, 6.25, -3.5],
					"cubes": [
						{"origin": [-5, 5.5, -5.25], "size": [2, 1, 2], "uv": [27, 32]}
					]
				},
				{
					"name": "finger_right1",
					"parent": "hand_right",
					"pivot": [-4.75, 6.5, -5.25],
					"rotation": [0, 10, 0],
					"cubes": [
						{"origin": [-4.75, 5.5, -7.25], "size": [0, 1, 2], "uv": [0, 16]}
					]
				},
				{
					"name": "finger_right2",
					"parent": "hand_right",
					"pivot": [-4, 6.5, -5.25],
					"cubes": [
						{"origin": [-4, 5.5, -7.25], "size": [0, 1, 2], "uv": [0, 0]}
					]
				},
				{
					"name": "finger_right3",
					"parent": "hand_right",
					"pivot": [-3.25, 6.5, -5.25],
					"rotation": [0, -10, 0],
					"cubes": [
						{"origin": [-3.25, 5.5, -7.25], "size": [0, 1, 2], "uv": [0, 17]}
					]
				},
				{
					"name": "hand_left",
					"parent": "body",
					"pivot": [4, 6.25, -3.5],
					"cubes": [
						{"origin": [3, 5.5, -5.25], "size": [2, 1, 2], "uv": [33, 33]}
					]
				},
				{
					"name": "finger_left1",
					"parent": "hand_left",
					"pivot": [3.25, 6.5, -5.25],
					"rotation": [0, 10, 0],
					"cubes": [
						{"origin": [3.25, 5.5, -7.25], "size": [0, 1, 2], "uv": [0, 18]}
					]
				},
				{
					"name": "finger_left2",
					"parent": "hand_left",
					"pivot": [4, 6.5, -5.25],
					"cubes": [
						{"origin": [4, 5.5, -7.25], "size": [0, 1, 2], "uv": [0, 20]}
					]
				},
				{
					"name": "finger_left3",
					"parent": "hand_left",
					"pivot": [4.75, 6.5, -5.25],
					"rotation": [0, -10, 0],
					"cubes": [
						{"origin": [4.75, 5.5, -7.25], "size": [0, 1, 2], "uv": [0, 19]}
					]
				},
				{
					"name": "foot_right",
					"parent": "body",
					"pivot": [-2.75, 1, 0.5],
					"cubes": [
						{"origin": [-4.25, 0, -2.5], "size": [3, 1, 5], "uv": [25, 0]},
						{"origin": [-3.75, 1, -1], "size": [2, 2, 3], "pivot": [-2.75, 1, 2], "rotation": [10, 0, 0], "uv": [31, 17], "mirror": true}
					]
				},
				{
					"name": "toe_right",
					"parent": "foot_right",
					"pivot": [-2.75, 0, -2.5],
					"cubes": [
						{"origin": [-4, 0, -5.5], "size": [0, 1, 3], "pivot": [-4, 0.5, -2.5], "rotation": [0, 10, 0], "uv": [0, 2]},
						{"origin": [-2.75, 0, -5.5], "size": [0, 1, 3], "uv": [0, 1]},
						{"origin": [-1.5, 0, -5.5], "size": [0, 1, 3], "pivot": [-1.5, 0.5, -2.5], "rotation": [0, -10, 0], "uv": [0, 0]}
					]
				},
				{
					"name": "foot_left",
					"parent": "body",
					"pivot": [2.75, 1, 0.5],
					"cubes": [
						{"origin": [1.25, 0, -2.5], "size": [3, 1, 5], "uv": [26, 26]},
						{"origin": [1.75, 1, -1], "size": [2, 2, 3], "pivot": [2.75, 1, 2], "rotation": [10, 0, 0], "uv": [31, 17]}
					]
				},
				{
					"name": "toe_left",
					"parent": "foot_left",
					"pivot": [2.75, 0, -2.5],
					"cubes": [
						{"origin": [1.5, 0, -5.5], "size": [0, 1, 3], "pivot": [1.5, 0.5, -2.5], "rotation": [0, 10, 0], "uv": [0, 13]},
						{"origin": [2.75, 0, -5.5], "size": [0, 1, 3], "uv": [0, 14]},
						{"origin": [4, 0, -5.5], "size": [0, 1, 3], "pivot": [4, 0.5, -2.5], "rotation": [0, -10, 0], "uv": [0, 3]}
					]
				},
				{
					"name": "tail",
					"parent": "body",
					"pivot": [0, 4.5, 3.5],
					"cubes": [
						{"origin": [-1.5, 1.5, 2.5], "size": [3, 3, 6], "inflate": 0.02, "uv": [14, 31]}
					]
				},
				{
					"name": "tail2",
					"parent": "tail",
					"pivot": [0, 2, 8.5],
					"cubes": [
						{"origin": [-1, 2, 8.5], "size": [2, 2, 5], "inflate": 0.02, "uv": [15, 40]}
					]
				},
				{
					"name": "tail3",
					"parent": "tail2",
					"pivot": [0, 2, 13.5],
					"cubes": [
						{"origin": [-1, 2, 13.5], "size": [2, 2, 5], "inflate": 0.02, "uv": [15, 47]}
					]
				},
				{
					"name": "tail4",
					"parent": "tail3",
					"pivot": [0, 2.5, 18.5],
					"cubes": [
						{"origin": [-0.5, 2.5, 18.5], "size": [1, 1, 5], "inflate": 0.02, "uv": [15, 54]}
					]
				}
			]
		}
	]
}