{
	"format_version": "1.12.0",
	"minecraft:geometry": [
		{
			"description": {
				"identifier": "geometry.starmie",
				"texture_width": 64,
				"texture_height": 64,
				"visible_bounds_width": 3,
				"visible_bounds_height": 2.5,
				"visible_bounds_offset": [0, 0.75, 0]
			},
			"bones": [
				{
					"name": "starmie",
					"pivot": [0, 0, 0]
				},
				{
					"name": "body",
					"parent": "starmie",
					"pivot": [0, 8.75, 0],
					"cubes": [
						{"origin": [-3.5, 5.25, -1.5], "size": [7, 7, 3], "uv": [0, 0]},
						{"origin": [-1, 12.24144, -1.11947], "size": [2, 2, 0], "pivot": [0, 13.24144, -1.11947], "rotation": [-7.5, 0, 0], "uv": [45, 0]},
						{"origin": [-1, 3.25856, -1.11947], "size": [2, 2, 0], "pivot": [0, 4.25856, -1.11947], "rotation": [7.5, 0, 0], "uv": [45, 0]},
						{"origin": [-1, 12.20302, -1.70573], "size": [2, 2, 0], "pivot": [0, 8.75, -1.11947], "rotation": [-7.5, 0, 90], "uv": [45, 0]},
						{"origin": [-1, 3.29698, -1.70573], "size": [2, 2, 0], "pivot": [0, 8.75, -1.11947], "rotation": [7.5, 0, 90], "uv": [45, 0]},
						{"origin": [-1, 3.29698, -1.70573], "size": [2, 2, 0], "pivot": [0, 8.75, -1.11947], "rotation": [7.5, 0, 135], "uv": [45, 0]},
						{"origin": [-1, 12.20302, -1.70573], "size": [2, 2, 0], "pivot": [0, 8.75, -1.11947], "rotation": [-7.5, 0, 135], "uv": [45, 0]},
						{"origin": [-1, 3.29698, -1.70573], "size": [2, 2, 0], "pivot": [0, 8.75, -1.11947], "rotation": [7.5, 0, 45], "uv": [45, 0]},
						{"origin": [-1, 12.20302, -1.70573], "size": [2, 2, 0], "pivot": [0, 8.75, -1.11947], "rotation": [-7.5, 0, 45], "uv": [45, 0]},
						{"origin": [-2, 6.75, -2.25], "size": [4, 4, 1], "uv": [0, 33]},
						{"origin": [-2, 12, -0.5], "size": [4, 6, 2], "pivot": [0, 15.5, 0.5], "rotation": [-7.5, 0, 0], "uv": [32, 12]}
					]
				},
				{
					"name": "leftarm",
					"parent": "body",
					"pivot": [3, 10, 0],
					"rotation": [0, -7.5, -10],
					"cubes": [
						{"origin": [3, 8, -1], "size": [6, 4, 2], "uv": [28, 27]}
					]
				},
				{
					"name": "rightarm",
					"parent": "body",
					"pivot": [-3, 10, 0],
					"rotation": [0, 7.5, 10],
					"cubes": [
						{"origin": [-9, 8, -1], "size": [6, 4, 2], "uv": [30, 21]}
					]
				},
				{
					"name": "leftleg",
					"parent": "body",
					"pivot": [1.75, 6.5, 0],
					"rotation": [0, -7.5, 55],
					"cubes": [
						{"origin": [1.75, 4.5, -1], "size": [6, 4, 2], "uv": [14, 23]}
					]
				},
				{
					"name": "rightleg",
					"parent": "body",
					"pivot": [-1.75, 6.5, 0],
					"rotation": [0, 7.5, -55],
					"cubes": [
						{"origin": [-7.75, 4.5, -1], "size": [6, 4, 2], "uv": [0, 27]}
					]
				},
				{
					"name": "back",
					"parent": "body",
					"pivot": [0, 8.75, 1.5],
					"cubes": [
						{"origin": [-3.5, 5.25, 1.5], "size": [7, 7, 2], "uv": [0, 10]},
						{"origin": [-2, 0.25, 1.5], "size": [4, 6, 2], "pivot": [0, 2.75, 2.5], "rotation": [7.5, 0, 0], "uv": [16, 29]},
						{"origin": [-6.37513, 3.92769, 1.80027], "size": [6, 4, 2], "pivot": [-6.37513, 0.92769, 0.80027], "rotation": [0, 7.5, -20], "uv": [18, 8]},
						{"origin": [-9.65751, 16.21882, 1.80027], "size": [6, 4, 2], "pivot": [-9.65751, 13.21882, 0.80027], "rotation": [0, 7.5, 55], "uv": [20, 0]},
						{"origin": [3.65751, 16.21882, 1.80027], "size": [6, 4, 2], "pivot": [9.65751, 13.21882, 0.80027], "rotation": [0, -7.5, -55], "uv": [0, 19]},
						{"origin": [0.37513, 3.92769, 1.80027], "size": [6, 4, 2], "pivot": [6.37513, 0.92769, 0.80027], "rotation": [0, -7.5, 20], "uv": [16, 17]}
					]
				}
			]
		}
	]
}