{
	"format_version": "1.12.0",
	"minecraft:geometry": [
		{
			"description": {
				"identifier": "geometry.pidgeotto",
				"texture_width": 64,
				"texture_height": 64,
				"visible_bounds_width": 3,
				"visible_bounds_height": 2.5,
				"visible_bounds_offset": [0, 0.75, 0]
			},
			"bones": [
				{
					"name": "pidgeotto",
					"pivot": [0, 0, 0]
				},
				{
					"name": "body",
					"parent": "pidgeotto",
					"pivot": [0, 7.16348, -0.74178],
					"cubes": [
						{"origin": [-3, 4.5, -5], "size": [6, 5, 10], "pivot": [-0.5, 8, 0], "rotation": [-15, 0, 0], "uv": [0, 0]}
					]
				},
				{
					"name": "head",
					"parent": "body",
					"pivot": [0, 7.5, -3.25],
					"cubes": [
						{"origin": [-2.5, 6.5, -5.75], "size": [5, 9, 5], "uv": [20, 15]},
						{"origin": [-1, 11.25, -7.75], "size": [2, 2, 2], "uv": [32, 8]},
						{"origin": [-2.5, 12.74429, -6.11927], "size": [5, 3, 0], "pivot": [0, 14.24429, -6.11927], "rotation": [-5, 0, 0], "uv": [0, 32]},
						{"origin": [-0.5, 15.5, -6.1], "size": [1, 2, 0], "pivot": [0, 14.24429, -6.11927], "rotation": [-5, 0, 0], "uv": [18, 29]},
						{"origin": [-3, 14.25622, -4.05668], "size": [6, 4, 0], "pivot": [0, 16.25622, -4.05668], "rotation": [-75, 0, 0], "uv": [30, 29]},
						{"origin": [-3.5, 13.77386, -0.39278], "size": [7, 5, 0], "pivot": [-0.5, 15.77386, -0.39278], "rotation": [-120, 0, 0], "uv": [0, 27]}
					]
				},
				{
					"name": "eyelid_left",
					"parent": "head",
					"pivot": [1.75, 14, -4.5],
					"cubes": [
						{"origin": [1.25, 13.5, -5.5], "size": [1, 1, 2], "inflate": 0.02, "uv": [37, 0]}
					]
				},
				{
					"name": "eyelid_right",
					"parent": "head",
					"pivot": [-1.75, 14, -4.5],
					"cubes": [
						{"origin": [-2.25, 13.5, -5.5], "size": [1, 1, 2], "inflate": 0.02, "uv": [37, 0], "mirror": true}
					]
				},
				{
					"name": "tail",
					"parent": "body",
					"pivot": [0, 4.75, 4.25],
					"cubes": [
						{"origin": [-3.5, 5.25, 4.25], "size": [7, 0, 8], "uv": [14, 0]}
					]
				},
				{
					"name": "leg_left",
					"parent": "body",
					"pivot": [2.25, 5.25, 0.5],
					"cubes": [
						{"origin": [1.25, 3, -1.5], "size": [2, 3, 4], "uv": [10, 28]}
					]
				},
				{
					"name": "knee_left",
					"parent": "leg_left",
					"pivot": [2.25, 3, 1],
					"cubes": [
						{"origin": [1.75, 1, 0.5], "size": [1, 3, 1], "uv": [20, 15]}
					]
				},
				{
					"name": "foot_left",
					"parent": "knee_left",
					"pivot": [2.25, 1, 1],
					"cubes": [
						{"origin": [1.25, 0, -1], "size": [2, 1, 3], "uv": [0, 0]}
					]
				},
				{
					"name": "toe_left_back",
					"parent": "foot_left",
					"pivot": [2.25, 0.5, 2],
					"cubes": [
						{"origin": [2.25, 0, 2], "size": [0, 1, 2], "uv": [6, 6]}
					]
				},
				{
					"name": "toe_left_front",
					"parent": "foot_left",
					"pivot": [3, 0.5, -1],
					"cubes": [
						{"origin": [3, 0, -4], "size": [0, 1, 3], "uv": [0, 6]}
					]
				},
				{
					"name": "toe_left_front2",
					"parent": "foot_left",
					"pivot": [1.5, 0.5, -1],
					"cubes": [
						{"origin": [1.5, 0, -4], "size": [0, 1, 3], "uv": [0, 5]}
					]
				},
				{
					"name": "leg_right",
					"parent": "body",
					"pivot": [-2.25, 5.25, 0.5],
					"cubes": [
						{"origin": [-3.25, 3, -1.5], "size": [2, 3, 4], "uv": [22, 29]}
					]
				},
				{
					"name": "knee_right",
					"parent": "leg_right",
					"pivot": [-2.25, 3, 1],
					"cubes": [
						{"origin": [-2.75, 1, 0.5], "size": [1, 3, 1], "uv": [22, 29]}
					]
				},
				{
					"name": "foot_right",
					"parent": "knee_right",
					"pivot": [-2.25, 1, 1],
					"cubes": [
						{"origin": [-3.25, 0, -1], "size": [2, 1, 3], "uv": [0, 4]}
					]
				},
				{
					"name": "toe_right_back",
					"parent": "foot_right",
					"pivot": [-2.25, 0.5, 2],
					"cubes": [
						{"origin": [-2.25, 0, 2], "size": [0, 1, 2], "uv": [6, 7]}
					]
				},
				{
					"name": "toe_right_front",
					"parent": "foot_right",
					"pivot": [-3, 0.5, -1],
					"cubes": [
						{"origin": [-3, 0, -4], "size": [0, 1, 3], "uv": [22, 6]}
					]
				},
				{
					"name": "toe_right_front2",
					"parent": "foot_right",
					"pivot": [-1.5, 0.5, -1],
					"cubes": [
						{"origin": [-1.5, 0, -4], "size": [0, 1, 3], "uv": [22, 5]}
					]
				},
				{
					"name": "wing_left",
					"parent": "body",
					"pivot": [3, 9.75, -2.75],
					"rotation": [-40, 5, -5],
					"cubes": [
						{"origin": [3, 6.75, -2.75], "size": [0, 6, 7], "uv": [15, 51], "mirror": true}
					]
				},
				{
					"name": "wing_left_tip",
					"parent": "wing_left",
					"pivot": [3, 6.75, 4.25],
					"rotation": [47.5, 0, -2.5],
					"cubes": [
						{"origin": [3, 6.75, 4.25], "size": [0, 6, 7], "uv": [0, 51], "mirror": true}
					]
				},
				{
					"name": "wing_right",
					"parent": "body",
					"pivot": [-3, 9.75, -2.75],
					"rotation": [-40, -5, 5],
					"cubes": [
						{"origin": [-3, 6.75, -2.75], "size": [0, 6, 7], "uv": [15, 51]}
					]
				},
				{
					"name": "wing_right_tip",
					"parent": "wing_right",
					"pivot": [-3, 6.75, 4.25],
					"rotation": [47.5, 0, 2.5],
					"cubes": [
						{"origin": [-3, 6.75, 4.25], "size": [0, 6, 7], "uv": [0, 51]}
					]
				}
			]
		}
	]
}