{
    "id": "0002-ivysaur",
    "version": "1",
    "neededInstalledMods": [],
    "neededUninstalledMods": [],
    "spawns": [
        {
            "id": "ivysaur",
            "pokemon": "ivysaur",
            "type": "pokemon",
            "context": "grounded",
            "bucket": "ultra-rare",
            "level": "16-31",
            "weight": 3.0,
            "condition": {
                "canSeeSky": true,
                "biomes": [
                    "#minecraft:is_jungle"
                ],
                "timeRange": "day"
            }
        }
    ]
}