{
    "id": "0015-beedrill",
    "version": "1",
    "neededInstalledMods": [],
    "neededUninstalledMods": [],
    "spawns": [
        {
            "id": "beedrill",
            "pokemon": "beedrill",
            "type": "pokemon",
            "context": "grounded",
            "bucket": "common",
            "level": "10-39",
            "weight": 2.0,
            "condition": {
                "canSeeSky": true,
                "biomes": [
                    "#minecraft:is_forest",
                    "#minecraft:is_jungle"
                ],
                "timeRange": "day",
                "isRaining": false
            },
            "anticondition": {
                "biomes": [
                    "#pokemoncobbled:is_cold"
                ]
            }
        }
    ]
}