{
    "id": "0021-spearow",
    "version": "1",
    "neededInstalledMods": [],
    "neededUninstalledMods": [],
    "spawns": [
        {
            "id": "spearow",
            "pokemon": "spearow",
            "type": "pokemon",
            "context": "grounded",
            "bucket": "common",
            "level": "4-19",
            "weight": 7.0,
            "condition": {
                "canSeeSky": true,
                "biomes": [
                    "#minecraft:is_badlands",
                    "#minecraft:is_savanna"
                ],
                "timeRange": "day",
                "isRaining": false
            }
        }
    ]
}