{
    "id": "0051-dugtrio",
    "version": "1",
    "neededInstalledMods": [],
    "neededUninstalledMods": [],
    "spawns": [
        {
            "id": "dugtrio",
            "pokemon": "dugtrio",
            "presets": [
                "underground"
            ],
            "type": "pokemon",
            "context": "grounded",
            "bucket": "common",
            "level": "26-42",
            "weight": 3.0
        }
    ]
}