{
    "id": "0090-shellder",
    "version": "1",
    "neededInstalledMods": [],
    "neededUninstalledMods": [],
    "spawns": [
        {
            "id": "shellder",
            "pokemon": "shellder",
            "presets": [
                "underwater"
            ],
            "type": "pokemon",
            "context": "seafloor",
            "bucket": "common",
            "level": "8-30",
            "weight": 10.0,
            "condition": {
				"biomes": [
                    "#minecraft:is_ocean"
                ],
                "canSeeSky": true
            }
        }
    ]
}
