{
    "id": "0096-drowzee",
    "version": "1",
    "neededInstalledMods": [],
    "neededUninstalledMods": [],
    "spawns": [
        {
            "id": "drowzee",
            "pokemon": "drowzee",
            "presets": [
                "urban"
            ],
            "type": "pokemon",
            "context": "grounded",
            "bucket": "common",
            "level": "9-25",
            "weight": 4.2,
            "condition": {
                "canSeeSky": true,
                "biomes": [
                    "#minecraft:is_jungle",
                    "#minecraft:is_savanna"
                ],
                "timeRange": "night"
            }
        }
    ]
}