{
    "id": "0124-jynx",
    "version": "1",
    "neededInstalledMods": [],
    "neededUninstalledMods": [],
    "spawns": [
        {
            "id": "jynx",
            "pokemon": "jynx",
            "presets": [
                "urban"
            ],
            "type": "pokemon",
            "context": "grounded",
            "bucket": "uncommon",
            "level": "30-45",
            "weight": 0.6,
            "condition": {
                "canSeeSky": true,
                "biomes": [
                    "#pokemoncobbled:is_snowy"
                ]
            }
        }
    ]
}