{
    "id": "0129-magikarp",
    "version": "1",
    "neededInstalledMods": [],
    "neededUninstalledMods": [],
    "spawns": [
        {
            "id": "magikarp",
            "pokemon": "magikarp",
            "presets": [
                "freshwater",
                "underwater"
            ],
            "type": "pokemon",
            "context": "submerged",
            "bucket": "common",
            "level": "2-19",
            "weight": 10.0,
            "condition": {
                "canSeeSky": true
            }
        },
        {
            "id": "magikarp",
            "pokemon": "magikarp",
            "presets": [
                "underwater"
            ],
            "type": "pokemon",
            "context": "submerged",
            "bucket": "common",
            "level": "2-19",
            "weight": 10.0,
            "condition": {
                "canSeeSky": true,
                "biomes": [
                    "#minecraft:is_ocean"
                ]
            }
        }
    ]
}
