{
    "id": "0133-eevee",
    "version": "1",
    "neededInstalledMods": [],
    "neededUninstalledMods": [],
    "spawns": [
        {
            "id": "eevee",
            "pokemon": "eevee",
            "type": "pokemon",
            "context": "grounded",
            "bucket": "rare",
            "level": "5-32",
            "weight": 10.0,
            "condition": {
                "canSeeSky": true,
                "biomes": [
                    "#minecraft:is_overworld"
                ]
            }
        }
    ]
}