{
    "id": "0143-snorlax",
    "version": "1",
    "neededInstalledMods": [],
    "neededUninstalledMods": [],
    "spawns": [
        {
            "id": "snorlax",
            "pokemon": "snorlax",
            "type": "pokemon",
            "context": "grounded",
            "bucket": "rare",
            "level": "20-54",
            "weight": 10.0,
            "condition": {
                "canSeeSky": true,
                "biomes": [
                    "#minecraft:is_forest",
                    "#pokemoncobbled:is_mountain"
                ]
            }
        }
    ]
}