{
    "id": "0148-dragonair",
    "version": "1",
    "neededInstalledMods": [],
    "neededUninstalledMods": [],
    "spawns": [
        {
            "id": "dragonair",
            "pokemon": "dragonair",
            "presets": [
                "underwater",
                "underground"
            ],
            "type": "pokemon",
            "context": "submerged",
            "bucket": "rare",
            "level": "30-42",
            "weight": 3.0
        }
    ]
}