{
  "required": true,
  "package": "com.cablemc.pokemoncobbled.common.mixin",
  "compatibilityLevel": "JAVA_16",
  "minVersion": "0.8",
  "client": [
    "EntityRenderDispatcherMixin",
    "KeyBindingMixin",
    "KeyboardHandlerMixin"
  ],
  "mixins": [
    "PlayerMixin",
    "accessor.AccessorEntity",
    "ArgumentTypesMixin"
  ],
  "injectors": {
    "defaultRequire": 1
  }
}