{
    "name": "abra",
    "nationalPokedexNumber": 63,
    "primaryType": "psychic",
    "abilities": [
        "synchronize",
        "innerfocus",
        "h:magicguard"
    ],
    "baseStats": {
        "hp": 25,
        "attack": 20,
        "defence": 15,
        "special_attack": 105,
        "special_defence": 55,
        "speed": 90
    },
    "catchRate": 200,
    "maleRatio": 0.75,
    "shoulderMountable": false,
    "forms": [],
    "baseExperienceYield": 62,
    "experienceGroup": "mediumslow",
    "eggCycles": 20,
    "eggGroups": [
        "humanshape"
    ],
    "moves": [
        "1:teleport",
        "egg:confusion",
        "egg:guardsplit",
        "egg:magiccoat",
        "tm:allyswitch",
        "tm:attract",
        "tm:bodyslam",
        "tm:calmmind",
        "tm:dazzlinggleam",
        "tm:drainpunch",
        "tm:encore",
        "tm:endure",
        "tm:energyball",
        "tm:facade",
        "tm:firepunch",
        "tm:fling",
        "tm:foulplay",
        "tm:grassknot",
        "tm:guardswap",
        "tm:icepunch",
        "tm:irontail",
        "tm:lightscreen",
        "tm:magicroom",
        "tm:megakick",
        "tm:megapunch",
        "tm:metronome",
        "tm:powerswap",
        "tm:protect",
        "tm:psychic",
        "tm:psychicterrain",
        "tm:psyshock",
        "tm:raindance",
        "tm:reflect",
        "tm:rest",
        "tm:round",
        "tm:safeguard",
        "tm:shadowball",
        "tm:skillswap",
        "tm:sleeptalk",
        "tm:snore",
        "tm:speedswap",
        "tm:substitute",
        "tm:sunnyday",
        "tm:swift",
        "tm:taunt",
        "tm:thief",
        "tm:thunderpunch",
        "tm:thunderwave",
        "tm:triattack",
        "tm:trick",
        "tm:trickroom",
        "tm:wonderroom",
        "tm:zenheadbutt"
    ],
    "labels": [
        "gen1"
    ],
    "pokedex": [
        "pokemoncobbled.species.abra.desc1",
        "pokemoncobbled.species.abra.desc2"
    ],
    "evolutions": [
        {
            "id": "abra_kadabra",
            "variant": "level_up",
            "result": "kadabra",
            "consumeHeldItem": false,
            "learnableMoves": [],
            "requirements": [
                {
                    "variant": "level",
                    "minLevel": 16
                }
            ]
        }
    ],
    "baseScale": 1.0,
    "hitbox": {
        "width": 1.0,
        "height": 1.0,
        "fixed": false
    }
}