{
    "name": "aerodactyl",
    "nationalPokedexNumber": 142,
    "primaryType": "rock",
    "secondaryType": "flying",
    "abilities": [
        "rockhead",
        "pressure",
        "h:unnerve"
    ],
    "baseStats": {
        "hp": 80,
        "attack": 105,
        "defence": 65,
        "special_attack": 60,
        "special_defence": 75,
        "speed": 130
    },
    "catchRate": 45,
    "maleRatio": 0.875,
    "shoulderMountable": false,
    "forms": [
        {
            "name": "mega",
            "abilities": [
                "toughclaws"
            ],
            "baseStats": {
                "hp": 80,
                "attack": 135,
                "defence": 85,
                "special_attack": 70,
                "special_defence": 95,
                "speed": 150
            },
            "aspects": [
                "mega"
            ]
        }
    ],
    "baseExperienceYield": 180,
    "experienceGroup": "slow",
    "eggCycles": 35,
    "eggGroups": [
        "flying"
    ],
    "moves": [
        "1:bite",
        "1:ancientpower",
        "5:supersonic",
        "10:wingattack",
        "15:scaryface",
        "20:rockslide",
        "25:roar",
        "30:crunch",
        "35:ironhead",
        "40:takedown",
        "45:stoneedge",
        "50:agility",
        "55:hyperbeam",
        "60:gigaimpact",
        "egg:curse",
        "egg:dragonbreath",
        "egg:roost",
        "egg:tailwind",
        "egg:whirlwind",
        "egg:wideguard",
        "tm:assurance",
        "tm:attract",
        "tm:brutalswing",
        "tm:bulldoze",
        "tm:dragonclaw",
        "tm:dragondance",
        "tm:dragonpulse",
        "tm:earthpower",
        "tm:earthquake",
        "tm:endure",
        "tm:facade",
        "tm:fireblast",
        "tm:firefang",
        "tm:flamethrower",
        "tm:fly",
        "tm:heatwave",
        "tm:hurricane",
        "tm:icefang",
        "tm:irontail",
        "tm:payback",
        "tm:protect",
        "tm:psychicfangs",
        "tm:raindance",
        "tm:rest",
        "tm:rockblast",
        "tm:rocktomb",
        "tm:round",
        "tm:sandstorm",
        "tm:sleeptalk",
        "tm:snore",
        "tm:stealthrock",
        "tm:steelwing",
        "tm:substitute",
        "tm:sunnyday",
        "tm:swift",
        "tm:taunt",
        "tm:thief",
        "tm:thunderfang",
        "tutor:dualwingbeat",
        "tutor:meteorbeam"
    ],
    "labels": [
        "gen1"
    ],
    "pokedex": [
        "pokemoncobbled.species.aerodactyl.desc1",
        "pokemoncobbled.species.aerodactyl.desc2"
    ],
    "evolutions": [],
    "baseScale": 1.0,
    "hitbox": {
        "width": 1.0,
        "height": 1.0,
        "fixed": false
    }
}