{
    "name": "bellsprout",
    "nationalPokedexNumber": 69,
    "primaryType": "grass",
    "secondaryType": "poison",
    "abilities": [
        "chlorophyll",
        "h:gluttony"
    ],
    "baseStats": {
        "hp": 50,
        "attack": 75,
        "defence": 35,
        "special_attack": 70,
        "special_defence": 30,
        "speed": 40
    },
    "catchRate": 255,
    "maleRatio": 0.5,
    "shoulderMountable": false,
    "forms": [],
    "baseExperienceYield": 60,
    "experienceGroup": "mediumslow",
    "eggCycles": 20,
    "eggGroups": [
        "plant"
    ],
    "moves": [
        "1:vinewhip",
        "7:growth",
        "11:wrap",
        "13:sleeppowder",
        "15:poisonpowder",
        "17:stunspore",
        "23:acid",
        "27:knockoff",
        "29:sweetscent",
        "35:gastroacid",
        "39:razorleaf",
        "41:poisonjab",
        "47:slam",
        "50:wringout",
        "egg:acidspray",
        "egg:belch",
        "egg:bulletseed",
        "egg:clearsmog",
        "egg:encore",
        "egg:gigadrain",
        "egg:ingrain",
        "egg:leechlife",
        "egg:magicalleaf",
        "egg:naturalgift",
        "egg:powerwhip",
        "egg:strengthsap",
        "egg:synthesis",
        "egg:tickle",
        "egg:weatherball",
        "egg:worryseed",
        "tm:attract",
        "tm:confide",
        "tm:doubleteam",
        "tm:energyball",
        "tm:facade",
        "tm:frustration",
        "tm:grassknot",
        "tm:hiddenpower",
        "tm:infestation",
        "tm:naturepower",
        "tm:protect",
        "tm:reflect",
        "tm:rest",
        "tm:return",
        "tm:round",
        "tm:sleeptalk",
        "tm:sludgebomb",
        "tm:solarbeam",
        "tm:substitute",
        "tm:sunnyday",
        "tm:swagger",
        "tm:swordsdance",
        "tm:thief",
        "tm:toxic",
        "tm:venoshock",
        "tutor:bind",
        "tutor:seedbomb",
        "tutor:snore"
    ],
    "labels": [
        "gen1"
    ],
    "pokedex": [
        "pokemoncobbled.species.bellsprout.desc1"
    ],
    "evolutions": [
        {
            "id": "bellsprout_weepinbell",
            "variant": "level_up",
            "result": "weepinbell",
            "consumeHeldItem": false,
            "learnableMoves": [],
            "requirements": [
                {
                    "variant": "level",
                    "minLevel": 21
                }
            ]
        }
    ],
    "baseScale": 1.0,
    "hitbox": {
        "width": 1.0,
        "height": 1.0,
        "fixed": false
    }
}