{
    "name": "cubone",
    "nationalPokedexNumber": 104,
    "primaryType": "ground",
    "abilities": [
        "rockhead",
        "lightningrod",
        "h:battlearmor"
    ],
    "baseStats": {
        "hp": 50,
        "attack": 50,
        "defence": 95,
        "special_attack": 40,
        "special_defence": 50,
        "speed": 35
    },
    "catchRate": 190,
    "maleRatio": 0.5,
    "shoulderMountable": false,
    "forms": [],
    "baseExperienceYield": 64,
    "experienceGroup": "mediumfast",
    "eggCycles": 20,
    "eggGroups": [
        "monster"
    ],
    "moves": [
        "1:growl",
        "1:mudslap",
        "4:tailwhip",
        "8:falseswipe",
        "12:headbutt",
        "16:retaliate",
        "20:fling",
        "24:stompingtantrum",
        "29:bonerush",
        "32:focusenergy",
        "36:endeavor",
        "40:bonemerang",
        "44:thrash",
        "48:doubleedge",
        "egg:ancientpower",
        "egg:bellydrum",
        "egg:curse",
        "egg:detect",
        "egg:doublekick",
        "egg:leer",
        "egg:perishsong",
        "egg:skullbash",
        "tm:attract",
        "tm:blizzard",
        "tm:bodyslam",
        "tm:brickbreak",
        "tm:brutalswing",
        "tm:bulldoze",
        "tm:dig",
        "tm:earthpower",
        "tm:earthquake",
        "tm:endure",
        "tm:facade",
        "tm:fireblast",
        "tm:firepunch",
        "tm:flamethrower",
        "tm:icebeam",
        "tm:icywind",
        "tm:irondefense",
        "tm:ironhead",
        "tm:irontail",
        "tm:lowkick",
        "tm:megakick",
        "tm:megapunch",
        "tm:protect",
        "tm:rest",
        "tm:rockslide",
        "tm:rocktomb",
        "tm:round",
        "tm:sandstorm",
        "tm:screech",
        "tm:sleeptalk",
        "tm:snore",
        "tm:stealthrock",
        "tm:substitute",
        "tm:sunnyday",
        "tm:swift",
        "tm:swordsdance",
        "tm:thief",
        "tm:thunderpunch",
        "tm:uproar",
        "tutor:scorchingsands"
    ],
    "labels": [
        "gen1"
    ],
    "pokedex": [
        "pokemoncobbled.species.cubone.desc1",
        "pokemoncobbled.species.cubone.desc2"
    ],
    "evolutions": [
        {
            "id": "cubone_marowak",
            "variant": "level_up",
            "result": "marowak",
            "consumeHeldItem": false,
            "learnableMoves": [],
            "requirements": [
                {
                    "variant": "level",
                    "minLevel": 28
                }
            ]
        },
        {
            "id": "cubone_marowak",
            "variant": "level_up",
            "result": "marowak",
            "consumeHeldItem": false,
            "learnableMoves": [],
            "requirements": [
                {
                    "variant": "time_range",
                    "range": "night"
                },
                {
                    "variant": "level",
                    "minLevel": 28
                }
            ]
        }
    ],
    "baseScale": 1.0,
    "hitbox": {
        "width": 1.0,
        "height": 1.0,
        "fixed": false
    }
}