{
    "name": "dragonite",
    "nationalPokedexNumber": 149,
    "primaryType": "dragon",
    "secondaryType": "flying",
    "abilities": [
        "innerfocus",
        "h:multiscale"
    ],
    "baseStats": {
        "hp": 91,
        "attack": 134,
        "defence": 95,
        "special_attack": 100,
        "special_defence": 100,
        "speed": 80
    },
    "catchRate": 45,
    "maleRatio": 0.5,
    "shoulderMountable": false,
    "forms": [],
    "baseExperienceYield": 300,
    "experienceGroup": "slow",
    "eggCycles": 40,
    "eggGroups": [
        "water1",
        "dragon"
    ],
    "moves": [
        "0:hurricane",
        "1:firepunch",
        "1:thunderpunch",
        "1:wingattack",
        "1:wrap",
        "1:leer",
        "1:thunderwave",
        "1:twister",
        "1:extremespeed",
        "1:roost",
        "15:dragontail",
        "20:agility",
        "25:slam",
        "33:aquatail",
        "39:dragonrush",
        "41:outrage",
        "46:safeguard",
        "53:raindance",
        "62:dragondance",
        "80:hyperbeam",
        "tm:airslash",
        "tm:attract",
        "tm:blizzard",
        "tm:bodypress",
        "tm:bodyslam",
        "tm:breakingswipe",
        "tm:brickbreak",
        "tm:brutalswing",
        "tm:bulldoze",
        "tm:dive",
        "tm:dragonclaw",
        "tm:dragonpulse",
        "tm:earthquake",
        "tm:endure",
        "tm:facade",
        "tm:fireblast",
        "tm:firespin",
        "tm:flamethrower",
        "tm:fling",
        "tm:fly",
        "tm:focusblast",
        "tm:gigaimpact",
        "tm:hail",
        "tm:heatwave",
        "tm:hydropump",
        "tm:icebeam",
        "tm:icepunch",
        "tm:icywind",
        "tm:ironhead",
        "tm:irontail",
        "tm:lightscreen",
        "tm:megakick",
        "tm:megapunch",
        "tm:protect",
        "tm:rest",
        "tm:rockslide",
        "tm:rocktomb",
        "tm:round",
        "tm:sandstorm",
        "tm:sleeptalk",
        "tm:snore",
        "tm:steelwing",
        "tm:stoneedge",
        "tm:substitute",
        "tm:sunnyday",
        "tm:superpower",
        "tm:surf",
        "tm:swift",
        "tm:thunder",
        "tm:thunderbolt",
        "tm:waterfall",
        "tm:whirlpool",
        "tutor:dracometeor",
        "tutor:dualwingbeat",
        "tutor:scaleshot"
    ],
    "labels": [
        "gen1"
    ],
    "pokedex": [
        "pokemoncobbled.species.dragonite.desc1",
        "pokemoncobbled.species.dragonite.desc2"
    ],
    "preEvolution": "dragonair",
    "evolutions": [],
    "baseScale": 1.0,
    "hitbox": {
        "width": 1.0,
        "height": 1.0,
        "fixed": false
    }
}