{
    "name": "electabuzz",
    "nationalPokedexNumber": 125,
    "primaryType": "electric",
    "abilities": [
        "static",
        "h:vitalspirit"
    ],
    "baseStats": {
        "hp": 65,
        "attack": 83,
        "defence": 57,
        "special_attack": 95,
        "special_defence": 85,
        "speed": 105
    },
    "catchRate": 45,
    "maleRatio": 0.75,
    "shoulderMountable": false,
    "forms": [],
    "baseExperienceYield": 172,
    "experienceGroup": "mediumfast",
    "eggCycles": 25,
    "eggGroups": [
        "humanshape"
    ],
    "moves": [
        "1:leer",
        "1:thundershock",
        "1:quickattack",
        "1:charge",
        "12:swift",
        "16:shockwave",
        "20:thunderwave",
        "24:screech",
        "28:thunderpunch",
        "34:discharge",
        "40:lowkick",
        "46:thunderbolt",
        "52:lightscreen",
        "58:thunder",
        "64:gigaimpact",
        "tm:attract",
        "tm:bodyslam",
        "tm:brickbreak",
        "tm:electroball",
        "tm:electroweb",
        "tm:endure",
        "tm:facade",
        "tm:firepunch",
        "tm:fling",
        "tm:focusblast",
        "tm:helpinghand",
        "tm:hyperbeam",
        "tm:icepunch",
        "tm:irontail",
        "tm:lowsweep",
        "tm:megakick",
        "tm:megapunch",
        "tm:protect",
        "tm:psychic",
        "tm:raindance",
        "tm:rest",
        "tm:round",
        "tm:sleeptalk",
        "tm:snore",
        "tm:substitute",
        "tm:thief",
        "tm:uproar",
        "tm:voltswitch",
        "tm:wildcharge",
        "tutor:risingvoltage"
    ],
    "labels": [
        "gen1"
    ],
    "pokedex": [
        "pokemoncobbled.species.electabuzz.desc1",
        "pokemoncobbled.species.electabuzz.desc2"
    ],
    "preEvolution": "elekid",
    "evolutions": [
        {
            "id": "electabuzz_electivire",
            "variant": "trade",
            "result": "electivire",
            "consumeHeldItem": false,
            "learnableMoves": [],
            "requirements": [
                {
                    "variant": "held_item",
                    "item": "electirizer"
                }
            ]
        }
    ],
    "baseScale": 1.0,
    "hitbox": {
        "width": 1.0,
        "height": 1.0,
        "fixed": false
    }
}