{
    "name": "gastly",
    "nationalPokedexNumber": 92,
    "primaryType": "ghost",
    "secondaryType": "poison",
    "abilities": [
        "levitate"
    ],
    "baseStats": {
        "hp": 30,
        "attack": 35,
        "defence": 30,
        "special_attack": 100,
        "special_defence": 35,
        "speed": 80
    },
    "catchRate": 190,
    "maleRatio": 0.5,
    "shoulderMountable": false,
    "forms": [],
    "baseExperienceYield": 62,
    "experienceGroup": "mediumslow",
    "eggCycles": 20,
    "eggGroups": [
        "indeterminate"
    ],
    "moves": [
        "1:confuseray",
        "1:lick",
        "4:hypnosis",
        "8:meanlook",
        "12:payback",
        "16:spite",
        "20:curse",
        "24:hex",
        "28:nightshade",
        "32:suckerpunch",
        "36:darkpulse",
        "40:shadowball",
        "44:destinybond",
        "48:dreameater",
        "egg:astonish",
        "egg:clearsmog",
        "egg:disable",
        "egg:grudge",
        "egg:haze",
        "egg:perishsong",
        "egg:reflecttype",
        "egg:smog",
        "egg:toxic",
        "tm:allyswitch",
        "tm:attract",
        "tm:dazzlinggleam",
        "tm:endure",
        "tm:energyball",
        "tm:facade",
        "tm:firepunch",
        "tm:foulplay",
        "tm:gigadrain",
        "tm:icepunch",
        "tm:icywind",
        "tm:poisonjab",
        "tm:protect",
        "tm:psychic",
        "tm:raindance",
        "tm:rest",
        "tm:round",
        "tm:scaryface",
        "tm:selfdestruct",
        "tm:skillswap",
        "tm:sleeptalk",
        "tm:sludgebomb",
        "tm:sludgewave",
        "tm:snore",
        "tm:substitute",
        "tm:sunnyday",
        "tm:taunt",
        "tm:thief",
        "tm:thunderbolt",
        "tm:thunderpunch",
        "tm:trick",
        "tm:trickroom",
        "tm:uproar",
        "tm:venoshock",
        "tm:willowisp",
        "tm:wonderroom",
        "tutor:corrosivegas",
        "tutor:poltergeist",
        "tutor:skittersmack"
    ],
    "labels": [
        "gen1"
    ],
    "pokedex": [
        "pokemoncobbled.species.gastly.desc1",
        "pokemoncobbled.species.gastly.desc2"
    ],
    "evolutions": [
        {
            "id": "gastly_haunter",
            "variant": "level_up",
            "result": "haunter",
            "consumeHeldItem": false,
            "learnableMoves": [],
            "requirements": [
                {
                    "variant": "level",
                    "minLevel": 25
                }
            ]
        }
    ],
    "baseScale": 1.0,
    "hitbox": {
        "width": 1.0,
        "height": 1.0,
        "fixed": false
    }
}