{
    "name": "gengar",
    "nationalPokedexNumber": 94,
    "primaryType": "ghost",
    "secondaryType": "poison",
    "abilities": [
        "cursedbody"
    ],
    "baseStats": {
        "hp": 60,
        "attack": 65,
        "defence": 60,
        "special_attack": 130,
        "special_defence": 75,
        "speed": 110
    },
    "catchRate": 45,
    "maleRatio": 0.5,
    "shoulderMountable": false,
    "forms": [
        {
            "name": "mega",
            "abilities": [
                "shadowtag"
            ],
            "baseStats": {
                "hp": 60,
                "attack": 65,
                "defence": 80,
                "special_attack": 170,
                "special_defence": 95,
                "speed": 130
            },
            "aspects": [
                "mega"
            ]
        },
        {
            "name": "gmax",
            "aspects": [
                "gmax"
            ]
        }
    ],
    "baseExperienceYield": 250,
    "experienceGroup": "mediumslow",
    "eggCycles": 20,
    "eggGroups": [
        "indeterminate"
    ],
    "moves": [
        "1:hypnosis",
        "1:confuseray",
        "1:lick",
        "1:perishsong",
        "1:meanlook",
        "1:shadowpunch",
        "1:reflecttype",
        "12:payback",
        "16:spite",
        "20:curse",
        "24:hex",
        "30:nightshade",
        "36:suckerpunch",
        "42:darkpulse",
        "48:shadowball",
        "54:destinybond",
        "60:dreameater",
        "tm:allyswitch",
        "tm:attract",
        "tm:bodyslam",
        "tm:brickbreak",
        "tm:dazzlinggleam",
        "tm:drainpunch",
        "tm:encore",
        "tm:endure",
        "tm:energyball",
        "tm:facade",
        "tm:firepunch",
        "tm:fling",
        "tm:focusblast",
        "tm:foulplay",
        "tm:gigadrain",
        "tm:gigaimpact",
        "tm:hyperbeam",
        "tm:icepunch",
        "tm:icywind",
        "tm:imprison",
        "tm:megakick",
        "tm:megapunch",
        "tm:metronome",
        "tm:nastyplot",
        "tm:phantomforce",
        "tm:poisonjab",
        "tm:protect",
        "tm:psychic",
        "tm:raindance",
        "tm:rest",
        "tm:round",
        "tm:scaryface",
        "tm:selfdestruct",
        "tm:shadowclaw",
        "tm:skillswap",
        "tm:sleeptalk",
        "tm:sludgebomb",
        "tm:sludgewave",
        "tm:snore",
        "tm:substitute",
        "tm:sunnyday",
        "tm:taunt",
        "tm:thief",
        "tm:thunder",
        "tm:thunderbolt",
        "tm:thunderpunch",
        "tm:trick",
        "tm:trickroom",
        "tm:uproar",
        "tm:venoshock",
        "tm:willowisp",
        "tm:wonderroom",
        "tutor:corrosivegas",
        "tutor:poltergeist",
        "tutor:skittersmack"
    ],
    "labels": [
        "gen1"
    ],
    "pokedex": [
        "pokemoncobbled.species.gengar.desc1",
        "pokemoncobbled.species.gengar.desc2"
    ],
    "preEvolution": "haunter",
    "evolutions": [],
    "baseScale": 1.0,
    "hitbox": {
        "width": 1.0,
        "height": 1.0,
        "fixed": false
    }
}