{
    "name": "golbat",
    "nationalPokedexNumber": 42,
    "primaryType": "poison",
    "secondaryType": "flying",
    "abilities": [
        "innerfocus",
        "h:infiltrator"
    ],
    "baseStats": {
        "hp": 75,
        "attack": 80,
        "defence": 70,
        "special_attack": 65,
        "special_defence": 75,
        "speed": 90
    },
    "catchRate": 90,
    "maleRatio": 0.5,
    "shoulderMountable": false,
    "forms": [],
    "baseExperienceYield": 159,
    "experienceGroup": "mediumfast",
    "eggCycles": 15,
    "eggGroups": [
        "flying"
    ],
    "moves": [
        "1:supersonic",
        "1:absorb",
        "1:screech",
        "1:meanlook",
        "1:astonish",
        "15:poisonfang",
        "20:quickguard",
        "27:aircutter",
        "34:bite",
        "41:haze",
        "48:venoshock",
        "55:confuseray",
        "62:airslash",
        "69:leechlife",
        "tm:acrobatics",
        "tm:agility",
        "tm:assurance",
        "tm:attract",
        "tm:bravebird",
        "tm:crunch",
        "tm:endure",
        "tm:facade",
        "tm:fly",
        "tm:gigadrain",
        "tm:gigaimpact",
        "tm:heatwave",
        "tm:hyperbeam",
        "tm:nastyplot",
        "tm:payback",
        "tm:protect",
        "tm:raindance",
        "tm:rest",
        "tm:round",
        "tm:shadowball",
        "tm:sleeptalk",
        "tm:sludgebomb",
        "tm:snore",
        "tm:steelwing",
        "tm:substitute",
        "tm:sunnyday",
        "tm:swift",
        "tm:taunt",
        "tm:thief",
        "tm:uproar",
        "tm:uturn",
        "tm:venomdrench",
        "tm:zenheadbutt",
        "tutor:dualwingbeat"
    ],
    "labels": [
        "gen1"
    ],
    "pokedex": [
        "pokemoncobbled.species.golbat.desc1",
        "pokemoncobbled.species.golbat.desc2"
    ],
    "preEvolution": "zubat",
    "evolutions": [
        {
            "id": "golbat_crobat",
            "variant": "level_up",
            "result": "crobat",
            "consumeHeldItem": false,
            "learnableMoves": [],
            "requirements": [
                {
                    "variant": "friendship",
                    "amount": 160
                }
            ]
        }
    ],
    "baseScale": 1.0,
    "hitbox": {
        "width": 1.0,
        "height": 1.0,
        "fixed": false
    }
}