{
    "name": "growlithe",
    "nationalPokedexNumber": 58,
    "primaryType": "fire",
    "abilities": [
        "intimidate",
        "flashfire",
        "h:justified"
    ],
    "baseStats": {
        "hp": 55,
        "attack": 70,
        "defence": 45,
        "special_attack": 70,
        "special_defence": 50,
        "speed": 60
    },
    "catchRate": 190,
    "maleRatio": 0.75,
    "shoulderMountable": false,
    "forms": [
        {
            "name": "hisui",
            "secondaryType": "rock",
            "baseStats": {
                "hp": 60,
                "attack": 75,
                "defence": 45,
                "special_attack": 65,
                "special_defence": 50,
                "speed": 55
            },
            "aspects": [
                "hisui"
            ]
        }
    ],
    "baseExperienceYield": 70,
    "experienceGroup": "slow",
    "eggCycles": 20,
    "eggGroups": [
        "ground"
    ],
    "moves": [
        "1:leer",
        "1:ember",
        "4:howl",
        "8:bite",
        "12:flamewheel",
        "16:helpinghand",
        "20:agility",
        "24:firefang",
        "28:retaliate",
        "32:crunch",
        "36:takedown",
        "40:flamethrower",
        "44:roar",
        "48:playrough",
        "52:reversal",
        "56:flareblitz",
        "egg:covet",
        "egg:doubleedge",
        "egg:doublekick",
        "egg:morningsun",
        "egg:thrash",
        "tm:attract",
        "tm:bodyslam",
        "tm:closecombat",
        "tm:dig",
        "tm:endure",
        "tm:facade",
        "tm:fireblast",
        "tm:firespin",
        "tm:heatwave",
        "tm:irontail",
        "tm:outrage",
        "tm:overheat",
        "tm:protect",
        "tm:psychicfangs",
        "tm:rest",
        "tm:round",
        "tm:safeguard",
        "tm:sleeptalk",
        "tm:snarl",
        "tm:snore",
        "tm:substitute",
        "tm:sunnyday",
        "tm:swift",
        "tm:thief",
        "tm:wildcharge",
        "tm:willowisp"
    ],
    "labels": [
        "gen1"
    ],
    "pokedex": [
        "pokemoncobbled.species.growlithe.desc1",
        "pokemoncobbled.species.growlithe.desc2"
    ],
    "evolutions": [
        {
            "id": "growlithe_arcanine",
            "variant": "item_interact",
            "result": "arcanine",
            "consumeHeldItem": true,
            "learnableMoves": [],
            "requirements": [],
            "requiredContext": "fire-stone"
        }
    ],
    "baseScale": 1.0,
    "hitbox": {
        "width": 1.0,
        "height": 1.0,
        "fixed": false
    }
}