{
    "name": "hypno",
    "nationalPokedexNumber": 97,
    "primaryType": "psychic",
    "abilities": [
        "insomnia",
        "forewarn",
        "h:innerfocus"
    ],
    "baseStats": {
        "hp": 85,
        "attack": 73,
        "defence": 70,
        "special_attack": 73,
        "special_defence": 115,
        "speed": 67
    },
    "catchRate": 75,
    "maleRatio": 0.5,
    "shoulderMountable": false,
    "forms": [],
    "baseExperienceYield": 169,
    "experienceGroup": "mediumfast",
    "eggCycles": 20,
    "eggGroups": [
        "humanshape"
    ],
    "moves": [
        "1:pound",
        "1:disable",
        "1:confusion",
        "1:hypnosis",
        "1:nightmare",
        "1:futuresight",
        "1:switcheroo",
        "1:nastyplot",
        "13:headbutt",
        "17:poisongas",
        "21:meditate",
        "25:psybeam",
        "29:wakeupslap",
        "33:psychup",
        "37:synchronoise",
        "41:zenheadbutt",
        "45:swagger",
        "49:psychic",
        "57:psyshock",
        "tm:attract",
        "tm:brickbreak",
        "tm:calmmind",
        "tm:confide",
        "tm:dazzlinggleam",
        "tm:doubleteam",
        "tm:dreameater",
        "tm:facade",
        "tm:fling",
        "tm:focusblast",
        "tm:frustration",
        "tm:gigaimpact",
        "tm:grassknot",
        "tm:hiddenpower",
        "tm:hyperbeam",
        "tm:lightscreen",
        "tm:lowsweep",
        "tm:protect",
        "tm:raindance",
        "tm:reflect",
        "tm:rest",
        "tm:return",
        "tm:round",
        "tm:safeguard",
        "tm:shadowball",
        "tm:sleeptalk",
        "tm:substitute",
        "tm:sunnyday",
        "tm:taunt",
        "tm:thief",
        "tm:thunderwave",
        "tm:torment",
        "tm:toxic",
        "tm:trickroom",
        "tutor:allyswitch",
        "tutor:drainpunch",
        "tutor:firepunch",
        "tutor:focuspunch",
        "tutor:foulplay",
        "tutor:icepunch",
        "tutor:lowkick",
        "tutor:magiccoat",
        "tutor:magicroom",
        "tutor:recycle",
        "tutor:roleplay",
        "tutor:signalbeam",
        "tutor:skillswap",
        "tutor:snatch",
        "tutor:snore",
        "tutor:telekinesis",
        "tutor:thunderpunch",
        "tutor:trick"
    ],
    "labels": [
        "gen1"
    ],
    "pokedex": [
        "pokemoncobbled.species.hypno.desc1"
    ],
    "preEvolution": "drowzee",
    "evolutions": [],
    "baseScale": 1.0,
    "hitbox": {
        "width": 1.0,
        "height": 1.0,
        "fixed": false
    }
}