{
    "name": "ivysaur",
    "nationalPokedexNumber": 2,
    "primaryType": "grass",
    "secondaryType": "poison",
    "abilities": [
        "overgrow",
        "h:chlorophyll"
    ],
    "baseStats": {
        "hp": 60,
        "attack": 62,
        "defence": 63,
        "special_attack": 80,
        "special_defence": 80,
        "speed": 60
    },
    "catchRate": 45,
    "maleRatio": 0.875,
    "shoulderMountable": false,
    "forms": [],
    "baseExperienceYield": 142,
    "experienceGroup": "mediumslow",
    "eggCycles": 20,
    "eggGroups": [
        "monster",
        "plant"
    ],
    "moves": [
        "1:vinewhip",
        "1:tackle",
        "1:growl",
        "1:growth",
        "9:leechseed",
        "12:razorleaf",
        "15:poisonpowder",
        "15:sleeppowder",
        "20:seedbomb",
        "25:takedown",
        "30:sweetscent",
        "35:synthesis",
        "40:worryseed",
        "45:doubleedge",
        "50:solarbeam",
        "tm:amnesia",
        "tm:attract",
        "tm:bodyslam",
        "tm:bulletseed",
        "tm:charm",
        "tm:endure",
        "tm:energyball",
        "tm:facade",
        "tm:falseswipe",
        "tm:gigadrain",
        "tm:grassknot",
        "tm:grassyterrain",
        "tm:helpinghand",
        "tm:leafstorm",
        "tm:lightscreen",
        "tm:magicalleaf",
        "tm:powerwhip",
        "tm:protect",
        "tm:rest",
        "tm:round",
        "tm:safeguard",
        "tm:sleeptalk",
        "tm:sludgebomb",
        "tm:snore",
        "tm:substitute",
        "tm:sunnyday",
        "tm:swordsdance",
        "tm:venoshock",
        "tm:weatherball",
        "tm:workup",
        "tutor:grasspledge",
        "tutor:grassyglide"
    ],
    "labels": [
        "gen1"
    ],
    "pokedex": [
        "pokemoncobbled.species.ivysaur.desc1",
        "pokemoncobbled.species.ivysaur.desc2"
    ],
    "preEvolution": "bulbasaur",
    "evolutions": [
        {
            "id": "ivysaur_venusaur",
            "variant": "level_up",
            "result": "venusaur",
            "consumeHeldItem": false,
            "learnableMoves": [],
            "requirements": [
                {
                    "variant": "level",
                    "minLevel": 32
                }
            ]
        }
    ],
    "baseScale": 1,
    "hitbox": {
        "width": 0.7,
        "height": 0.8,
        "fixed": false
    }
}