{
    "name": "jigglypuff",
    "nationalPokedexNumber": 39,
    "primaryType": "normal",
    "secondaryType": "fairy",
    "abilities": [
        "cutecharm",
        "competitive",
        "h:friendguard"
    ],
    "baseStats": {
        "hp": 115,
        "attack": 45,
        "defence": 20,
        "special_attack": 45,
        "special_defence": 25,
        "speed": 20
    },
    "catchRate": 170,
    "maleRatio": 0.25,
    "shoulderMountable": false,
    "forms": [],
    "baseExperienceYield": 95,
    "experienceGroup": "fast",
    "eggCycles": 10,
    "eggGroups": [
        "fairy"
    ],
    "moves": [
        "1:pound",
        "1:sing",
        "1:disable",
        "1:defensecurl",
        "1:sweetkiss",
        "1:charm",
        "1:copycat",
        "1:disarmingvoice",
        "4:echoedvoice",
        "8:covet",
        "12:stockpile",
        "12:spitup",
        "12:swallow",
        "16:round",
        "20:rest",
        "24:bodyslam",
        "28:mimic",
        "32:gyroball",
        "36:hypervoice",
        "40:playrough",
        "44:doubleedge",
        "tm:allyswitch",
        "tm:attract",
        "tm:batonpass",
        "tm:blizzard",
        "tm:bounce",
        "tm:brickbreak",
        "tm:dazzlinggleam",
        "tm:dig",
        "tm:drainingkiss",
        "tm:drainpunch",
        "tm:endure",
        "tm:facade",
        "tm:faketears",
        "tm:fireblast",
        "tm:firepunch",
        "tm:flamethrower",
        "tm:fling",
        "tm:grassknot",
        "tm:helpinghand",
        "tm:icebeam",
        "tm:icepunch",
        "tm:icywind",
        "tm:lightscreen",
        "tm:megakick",
        "tm:megapunch",
        "tm:mistyterrain",
        "tm:protect",
        "tm:psychic",
        "tm:raindance",
        "tm:reflect",
        "tm:retaliate",
        "tm:safeguard",
        "tm:screech",
        "tm:selfdestruct",
        "tm:shadowball",
        "tm:sleeptalk",
        "tm:snore",
        "tm:solarbeam",
        "tm:stealthrock",
        "tm:substitute",
        "tm:sunnyday",
        "tm:thunder",
        "tm:thunderbolt",
        "tm:thunderpunch",
        "tm:thunderwave",
        "tm:triattack",
        "tm:uproar",
        "tm:wildcharge",
        "tm:workup",
        "tutor:mistyexplosion",
        "tutor:steelroller"
    ],
    "labels": [
        "gen1"
    ],
    "pokedex": [
        "pokemoncobbled.species.jigglypuff.desc1",
        "pokemoncobbled.species.jigglypuff.desc2"
    ],
    "preEvolution": "igglybuff",
    "evolutions": [
        {
            "id": "jigglypuff_wigglytuff",
            "variant": "item_interact",
            "result": "wigglytuff",
            "consumeHeldItem": true,
            "learnableMoves": [],
            "requirements": [],
            "requiredContext": "moon-stone"
        }
    ],
    "baseScale": 1.0,
    "hitbox": {
        "width": 1.0,
        "height": 1.0,
        "fixed": false
    }
}