{
    "name": "nidoranm",
    "nationalPokedexNumber": 32,
    "primaryType": "poison",
    "abilities": [
        "poisonpoint",
        "rivalry",
        "h:hustle"
    ],
    "baseStats": {
        "hp": 46,
        "attack": 57,
        "defence": 40,
        "special_attack": 40,
        "special_defence": 40,
        "speed": 50
    },
    "catchRate": 235,
    "maleRatio": 1.0,
    "shoulderMountable": false,
    "forms": [],
    "baseExperienceYield": 55,
    "experienceGroup": "mediumslow",
    "eggCycles": 20,
    "eggGroups": [
        "monster",
        "ground"
    ],
    "moves": [
        "1:poisonsting",
        "1:leer",
        "5:peck",
        "10:focusenergy",
        "15:furyattack",
        "20:toxicspikes",
        "25:doublekick",
        "30:hornattack",
        "35:helpinghand",
        "40:toxic",
        "45:flatter",
        "50:poisonjab",
        "55:earthpower",
        "egg:confusion",
        "egg:counter",
        "egg:disable",
        "egg:headsmash",
        "egg:horndrill",
        "egg:poisontail",
        "egg:suckerpunch",
        "egg:supersonic",
        "egg:takedown",
        "egg:thrash",
        "tm:amnesia",
        "tm:attract",
        "tm:beatup",
        "tm:blizzard",
        "tm:bodyslam",
        "tm:dig",
        "tm:drillrun",
        "tm:endure",
        "tm:facade",
        "tm:icebeam",
        "tm:irontail",
        "tm:protect",
        "tm:raindance",
        "tm:rest",
        "tm:round",
        "tm:shadowclaw",
        "tm:sleeptalk",
        "tm:sludgebomb",
        "tm:smartstrike",
        "tm:snore",
        "tm:substitute",
        "tm:sunnyday",
        "tm:thief",
        "tm:thunder",
        "tm:thunderbolt",
        "tm:venomdrench",
        "tm:venoshock"
    ],
    "labels": [
        "gen1"
    ],
    "pokedex": [
        "pokemoncobbled.species.nidoranm.desc1",
        "pokemoncobbled.species.nidoranm.desc2"
    ],
    "evolutions": [
        {
            "id": "nidoranm_nidorino",
            "variant": "level_up",
            "result": "nidorino",
            "consumeHeldItem": false,
            "learnableMoves": [],
            "requirements": [
                {
                    "variant": "level",
                    "minLevel": 16
                }
            ]
        }
    ],
    "baseScale": 1.0,
    "hitbox": {
        "width": 1.0,
        "height": 1.0,
        "fixed": false
    }
}