{
    "name": "nidoqueen",
    "nationalPokedexNumber": 31,
    "primaryType": "poison",
    "secondaryType": "ground",
    "abilities": [
        "poisonpoint",
        "rivalry",
        "h:sheerforce"
    ],
    "baseStats": {
        "hp": 90,
        "attack": 92,
        "defence": 87,
        "special_attack": 75,
        "special_defence": 85,
        "speed": 76
    },
    "catchRate": 45,
    "maleRatio": 0.0,
    "shoulderMountable": false,
    "forms": [],
    "baseExperienceYield": 253,
    "experienceGroup": "mediumslow",
    "eggCycles": 20,
    "eggGroups": [
        "no-eggs"
    ],
    "moves": [
        "0:superpower",
        "1:scratch",
        "1:doublekick",
        "1:tailwhip",
        "1:poisonsting",
        "1:bite",
        "1:growl",
        "1:toxic",
        "1:furyswipes",
        "1:crunch",
        "1:flatter",
        "1:helpinghand",
        "1:toxicspikes",
        "1:earthpower",
        "tm:attract",
        "tm:avalanche",
        "tm:beatup",
        "tm:blizzard",
        "tm:bodypress",
        "tm:bodyslam",
        "tm:brickbreak",
        "tm:bulldoze",
        "tm:charm",
        "tm:dig",
        "tm:dragonpulse",
        "tm:drillrun",
        "tm:earthquake",
        "tm:endure",
        "tm:facade",
        "tm:fireblast",
        "tm:firepunch",
        "tm:flamethrower",
        "tm:fling",
        "tm:focusblast",
        "tm:focusenergy",
        "tm:gigaimpact",
        "tm:hex",
        "tm:highhorsepower",
        "tm:hyperbeam",
        "tm:icebeam",
        "tm:icepunch",
        "tm:icywind",
        "tm:irontail",
        "tm:megakick",
        "tm:megapunch",
        "tm:mudshot",
        "tm:outrage",
        "tm:payday",
        "tm:poisonjab",
        "tm:protect",
        "tm:raindance",
        "tm:rest",
        "tm:rockblast",
        "tm:rockslide",
        "tm:rocktomb",
        "tm:round",
        "tm:sandstorm",
        "tm:sandtomb",
        "tm:shadowball",
        "tm:shadowclaw",
        "tm:sleeptalk",
        "tm:sludgebomb",
        "tm:sludgewave",
        "tm:snore",
        "tm:stealthrock",
        "tm:stompingtantrum",
        "tm:stoneedge",
        "tm:substitute",
        "tm:sunnyday",
        "tm:surf",
        "tm:taunt",
        "tm:thief",
        "tm:throatchop",
        "tm:thunder",
        "tm:thunderbolt",
        "tm:thunderpunch",
        "tm:uproar",
        "tm:venomdrench",
        "tm:venoshock",
        "tm:whirlpool",
        "tutor:scorchingsands"
    ],
    "labels": [
        "gen1"
    ],
    "pokedex": [
        "pokemoncobbled.species.nidoqueen.desc1",
        "pokemoncobbled.species.nidoqueen.desc2"
    ],
    "preEvolution": "nidorina",
    "evolutions": [],
    "baseScale": 1.0,
    "hitbox": {
        "width": 1.0,
        "height": 1.0,
        "fixed": false
    }
}