{
    "name": "omanyte",
    "nationalPokedexNumber": 138,
    "primaryType": "rock",
    "secondaryType": "water",
    "abilities": [
        "swiftswim",
        "shellarmor",
        "h:weakarmor"
    ],
    "baseStats": {
        "hp": 35,
        "attack": 40,
        "defence": 100,
        "special_attack": 90,
        "special_defence": 55,
        "speed": 35
    },
    "catchRate": 45,
    "maleRatio": 0.875,
    "shoulderMountable": false,
    "forms": [],
    "baseExperienceYield": 71,
    "experienceGroup": "mediumfast",
    "eggCycles": 30,
    "eggGroups": [
        "water1",
        "water3"
    ],
    "moves": [
        "1:bind",
        "1:withdraw",
        "5:rollout",
        "10:sandattack",
        "15:watergun",
        "20:leer",
        "25:mudshot",
        "30:ancientpower",
        "35:brine",
        "41:protect",
        "45:rockblast",
        "50:surf",
        "55:shellsmash",
        "60:hydropump",
        "egg:aurorabeam",
        "egg:bite",
        "egg:bubblebeam",
        "egg:haze",
        "egg:knockoff",
        "egg:reflecttype",
        "egg:slam",
        "egg:supersonic",
        "egg:tickle",
        "egg:waterpulse",
        "tm:attract",
        "tm:blizzard",
        "tm:bodyslam",
        "tm:dive",
        "tm:earthpower",
        "tm:endure",
        "tm:facade",
        "tm:gyroball",
        "tm:hail",
        "tm:icebeam",
        "tm:icywind",
        "tm:irondefense",
        "tm:muddywater",
        "tm:raindance",
        "tm:rest",
        "tm:rockslide",
        "tm:rocktomb",
        "tm:round",
        "tm:sandstorm",
        "tm:scald",
        "tm:sleeptalk",
        "tm:snore",
        "tm:spikes",
        "tm:stealthrock",
        "tm:substitute",
        "tm:thief",
        "tm:toxicspikes",
        "tm:waterfall",
        "tm:whirlpool",
        "tutor:meteorbeam"
    ],
    "labels": [
        "gen1"
    ],
    "pokedex": [
        "pokemoncobbled.species.omanyte.desc1",
        "pokemoncobbled.species.omanyte.desc2"
    ],
    "evolutions": [
        {
            "id": "omanyte_omastar",
            "variant": "level_up",
            "result": "omastar",
            "consumeHeldItem": false,
            "learnableMoves": [],
            "requirements": [
                {
                    "variant": "level",
                    "minLevel": 40
                }
            ]
        }
    ],
    "baseScale": 1.0,
    "hitbox": {
        "width": 1.0,
        "height": 1.0,
        "fixed": false
    }
}