{
    "name": "parasect",
    "nationalPokedexNumber": 47,
    "primaryType": "bug",
    "secondaryType": "grass",
    "abilities": [
        "effectspore",
        "dryskin",
        "h:damp"
    ],
    "baseStats": {
        "hp": 60,
        "attack": 95,
        "defence": 80,
        "special_attack": 60,
        "special_defence": 80,
        "speed": 30
    },
    "catchRate": 75,
    "maleRatio": 0.5,
    "shoulderMountable": false,
    "forms": [],
    "baseExperienceYield": 142,
    "experienceGroup": "mediumfast",
    "eggCycles": 20,
    "eggGroups": [
        "bug",
        "plant"
    ],
    "moves": [
        "1:scratch",
        "1:absorb",
        "1:poisonpowder",
        "1:stunspore",
        "1:crosspoison",
        "17:furycutter",
        "22:spore",
        "29:slash",
        "37:growth",
        "44:gigadrain",
        "51:aromatherapy",
        "59:ragepowder",
        "66:xscissor",
        "tm:aerialace",
        "tm:attract",
        "tm:brickbreak",
        "tm:confide",
        "tm:doubleteam",
        "tm:energyball",
        "tm:facade",
        "tm:falseswipe",
        "tm:frustration",
        "tm:gigaimpact",
        "tm:grassknot",
        "tm:hiddenpower",
        "tm:hyperbeam",
        "tm:leechlife",
        "tm:lightscreen",
        "tm:naturepower",
        "tm:protect",
        "tm:rest",
        "tm:return",
        "tm:round",
        "tm:sleeptalk",
        "tm:sludgebomb",
        "tm:solarbeam",
        "tm:substitute",
        "tm:sunnyday",
        "tm:swagger",
        "tm:swordsdance",
        "tm:thief",
        "tm:toxic",
        "tm:venoshock",
        "tutor:afteryou",
        "tutor:bugbite",
        "tutor:knockoff",
        "tutor:seedbomb",
        "tutor:snore",
        "tutor:synthesis",
        "tutor:throatchop",
        "tutor:worryseed"
    ],
    "labels": [
        "gen1"
    ],
    "pokedex": [
        "pokemoncobbled.species.parasect.desc1"
    ],
    "preEvolution": "paras",
    "evolutions": [],
    "baseScale": 1.0,
    "hitbox": {
        "width": 1.0,
        "height": 1.0,
        "fixed": false
    }
}