{
    "name": "ponyta",
    "nationalPokedexNumber": 77,
    "primaryType": "fire",
    "abilities": [
        "runaway",
        "flashfire",
        "h:flamebody"
    ],
    "baseStats": {
        "hp": 50,
        "attack": 85,
        "defence": 55,
        "special_attack": 65,
        "special_defence": 65,
        "speed": 90
    },
    "catchRate": 190,
    "maleRatio": 0.5,
    "shoulderMountable": false,
    "forms": [
        {
            "name": "galar",
            "primaryType": "psychic",
            "abilities": [
                "runaway",
                "pastelveil",
                "h:anticipation"
            ],
            "aspects": [
                "galar"
            ]
        }
    ],
    "baseExperienceYield": 82,
    "experienceGroup": "mediumfast",
    "eggCycles": 20,
    "eggGroups": [
        "ground"
    ],
    "moves": [
        "1:tackle",
        "1:growl",
        "5:tailwhip",
        "10:ember",
        "15:flamecharge",
        "20:agility",
        "25:flamewheel",
        "30:stomp",
        "35:firespin",
        "41:takedown",
        "45:inferno",
        "50:fireblast",
        "55:flareblitz",
        "egg:doubleedge",
        "egg:doublekick",
        "egg:horndrill",
        "egg:hypnosis",
        "egg:morningsun",
        "egg:thrash",
        "tm:allyswitch",
        "tm:attract",
        "tm:bodyslam",
        "tm:bounce",
        "tm:charm",
        "tm:endure",
        "tm:facade",
        "tm:flamethrower",
        "tm:heatwave",
        "tm:highhorsepower",
        "tm:irontail",
        "tm:lowkick",
        "tm:mysticalfire",
        "tm:overheat",
        "tm:playrough",
        "tm:protect",
        "tm:rest",
        "tm:round",
        "tm:sleeptalk",
        "tm:snore",
        "tm:solarbeam",
        "tm:solarblade",
        "tm:substitute",
        "tm:sunnyday",
        "tm:swift",
        "tm:wildcharge",
        "tm:willowisp"
    ],
    "labels": [
        "gen1"
    ],
    "pokedex": [
        "pokemoncobbled.species.ponyta.desc1",
        "pokemoncobbled.species.ponyta.desc2"
    ],
    "evolutions": [
        {
            "id": "ponyta_rapidash",
            "variant": "level_up",
            "result": "rapidash",
            "consumeHeldItem": false,
            "learnableMoves": [],
            "requirements": [
                {
                    "variant": "level",
                    "minLevel": 40
                }
            ]
        }
    ],
    "baseScale": 1.0,
    "hitbox": {
        "width": 1.0,
        "height": 1.0,
        "fixed": false
    }
}