{
    "name": "raichu",
    "nationalPokedexNumber": 26,
    "primaryType": "electric",
    "abilities": [
        "static",
        "h:lightningrod"
    ],
    "baseStats": {
        "hp": 60,
        "attack": 90,
        "defence": 55,
        "special_attack": 90,
        "special_defence": 80,
        "speed": 110
    },
    "catchRate": 75,
    "maleRatio": 0.5,
    "shoulderMountable": false,
    "forms": [
        {
            "name": "alola",
            "secondaryType": "psychic",
            "abilities": [
                "surgesurfer"
            ],
            "baseStats": {
                "hp": 60,
                "attack": 85,
                "defence": 50,
                "special_attack": 95,
                "special_defence": 85,
                "speed": 110
            },
            "aspects": [
                "alola"
            ]
        }
    ],
    "baseExperienceYield": 243,
    "experienceGroup": "mediumfast",
    "eggCycles": 10,
    "eggGroups": [
        "ground",
        "fairy"
    ],
    "moves": [
        "0:thunderpunch",
        "1:slam",
        "1:tailwhip",
        "1:growl",
        "1:thundershock",
        "1:thunderbolt",
        "1:thunderwave",
        "1:thunder",
        "1:agility",
        "1:quickattack",
        "1:doubleteam",
        "1:lightscreen",
        "1:sweetkiss",
        "1:charm",
        "1:spark",
        "1:feint",
        "1:nastyplot",
        "1:discharge",
        "1:electroball",
        "1:playnice",
        "1:nuzzle",
        "tm:attract",
        "tm:bodyslam",
        "tm:brickbreak",
        "tm:brutalswing",
        "tm:dig",
        "tm:drainingkiss",
        "tm:eerieimpulse",
        "tm:electricterrain",
        "tm:electroweb",
        "tm:encore",
        "tm:endure",
        "tm:facade",
        "tm:fling",
        "tm:focusblast",
        "tm:gigaimpact",
        "tm:grassknot",
        "tm:helpinghand",
        "tm:hyperbeam",
        "tm:irontail",
        "tm:megakick",
        "tm:megapunch",
        "tm:payday",
        "tm:playrough",
        "tm:protect",
        "tm:raindance",
        "tm:reflect",
        "tm:rest",
        "tm:reversal",
        "tm:round",
        "tm:safeguard",
        "tm:sleeptalk",
        "tm:snore",
        "tm:speedswap",
        "tm:substitute",
        "tm:surf",
        "tm:swift",
        "tm:thief",
        "tm:uproar",
        "tm:voltswitch",
        "tm:wildcharge",
        "tutor:risingvoltage"
    ],
    "labels": [
        "gen1"
    ],
    "pokedex": [
        "pokemoncobbled.species.raichu.desc1",
        "pokemoncobbled.species.raichu.desc2"
    ],
    "preEvolution": "pikachu",
    "evolutions": [],
    "baseScale": 1.0,
    "hitbox": {
        "width": 1.0,
        "height": 1.0,
        "fixed": false
    }
}