{
    "name": "seel",
    "nationalPokedexNumber": 86,
    "primaryType": "water",
    "abilities": [
        "thickfat",
        "hydration",
        "h:icebody"
    ],
    "baseStats": {
        "hp": 65,
        "attack": 45,
        "defence": 55,
        "special_attack": 45,
        "special_defence": 70,
        "speed": 45
    },
    "catchRate": 190,
    "maleRatio": 0.5,
    "shoulderMountable": false,
    "forms": [],
    "baseExperienceYield": 65,
    "experienceGroup": "mediumfast",
    "eggCycles": 20,
    "eggGroups": [
        "water1",
        "ground"
    ],
    "moves": [
        "1:headbutt",
        "3:growl",
        "7:watersport",
        "11:icywind",
        "13:encore",
        "17:iceshard",
        "21:rest",
        "23:aquaring",
        "27:aurorabeam",
        "31:aquajet",
        "33:brine",
        "37:takedown",
        "41:dive",
        "43:aquatail",
        "47:icebeam",
        "51:safeguard",
        "53:hail",
        "egg:belch",
        "egg:disable",
        "egg:entrainment",
        "egg:fakeout",
        "egg:horndrill",
        "egg:iciclespear",
        "egg:irontail",
        "egg:lick",
        "egg:perishsong",
        "egg:signalbeam",
        "egg:slam",
        "egg:sleeptalk",
        "egg:spitup",
        "egg:stockpile",
        "egg:swallow",
        "egg:waterpulse",
        "tm:attract",
        "tm:blizzard",
        "tm:confide",
        "tm:doubleteam",
        "tm:echoedvoice",
        "tm:facade",
        "tm:fling",
        "tm:frustration",
        "tm:hiddenpower",
        "tm:protect",
        "tm:raindance",
        "tm:return",
        "tm:round",
        "tm:smartstrike",
        "tm:substitute",
        "tm:surf",
        "tm:swagger",
        "tm:thief",
        "tm:toxic",
        "tm:waterfall",
        "tutor:drillrun",
        "tutor:snore"
    ],
    "labels": [
        "gen1"
    ],
    "pokedex": [
        "pokemoncobbled.species.seel.desc1"
    ],
    "evolutions": [
        {
            "id": "seel_dewgong",
            "variant": "level_up",
            "result": "dewgong",
            "consumeHeldItem": false,
            "learnableMoves": [],
            "requirements": [
                {
                    "variant": "level",
                    "minLevel": 34
                }
            ]
        }
    ],
    "baseScale": 1.0,
    "hitbox": {
        "width": 1.0,
        "height": 1.0,
        "fixed": false
    }
}