{
    "name": "slowbro",
    "nationalPokedexNumber": 80,
    "primaryType": "water",
    "secondaryType": "psychic",
    "abilities": [
        "oblivious",
        "owntempo",
        "h:regenerator"
    ],
    "baseStats": {
        "hp": 95,
        "attack": 75,
        "defence": 110,
        "special_attack": 100,
        "special_defence": 80,
        "speed": 30
    },
    "catchRate": 75,
    "maleRatio": 0.5,
    "shoulderMountable": false,
    "forms": [
        {
            "name": "mega",
            "abilities": [
                "shellarmor"
            ],
            "baseStats": {
                "hp": 95,
                "attack": 75,
                "defence": 180,
                "special_attack": 130,
                "special_defence": 80,
                "speed": 30
            },
            "aspects": [
                "mega"
            ]
        },
        {
            "name": "galar",
            "primaryType": "poison",
            "abilities": [
                "quickdraw",
                "owntempo",
                "h:regenerator"
            ],
            "baseStats": {
                "hp": 95,
                "attack": 100,
                "defence": 95,
                "special_attack": 100,
                "special_defence": 70,
                "speed": 30
            },
            "aspects": [
                "galar"
            ]
        }
    ],
    "baseExperienceYield": 172,
    "experienceGroup": "mediumfast",
    "eggCycles": 20,
    "eggGroups": [
        "monster",
        "water1"
    ],
    "moves": [
        "1:tackle",
        "1:growl",
        "1:watergun",
        "1:withdraw",
        "1:curse",
        "9:yawn",
        "12:confusion",
        "15:disable",
        "18:waterpulse",
        "21:headbutt",
        "24:zenheadbutt",
        "27:amnesia",
        "30:surf",
        "33:slackoff",
        "36:psychic",
        "41:psychup",
        "46:raindance",
        "51:healpulse",
        "tm:attract",
        "tm:avalanche",
        "tm:blizzard",
        "tm:bodypress",
        "tm:bodyslam",
        "tm:brickbreak",
        "tm:brine",
        "tm:bulldoze",
        "tm:calmmind",
        "tm:dig",
        "tm:dive",
        "tm:drainpunch",
        "tm:earthquake",
        "tm:endure",
        "tm:facade",
        "tm:fireblast",
        "tm:flamethrower",
        "tm:fling",
        "tm:focusblast",
        "tm:foulplay",
        "tm:futuresight",
        "tm:gigaimpact",
        "tm:grassknot",
        "tm:hail",
        "tm:hydropump",
        "tm:hyperbeam",
        "tm:icebeam",
        "tm:icepunch",
        "tm:icywind",
        "tm:imprison",
        "tm:irondefense",
        "tm:irontail",
        "tm:lightscreen",
        "tm:liquidation",
        "tm:megakick",
        "tm:megapunch",
        "tm:muddywater",
        "tm:mudshot",
        "tm:nastyplot",
        "tm:payday",
        "tm:protect",
        "tm:psychicterrain",
        "tm:psyshock",
        "tm:razorshell",
        "tm:rest",
        "tm:round",
        "tm:safeguard",
        "tm:scald",
        "tm:shadowball",
        "tm:skillswap",
        "tm:sleeptalk",
        "tm:snore",
        "tm:storedpower",
        "tm:substitute",
        "tm:sunnyday",
        "tm:swift",
        "tm:thunderwave",
        "tm:triattack",
        "tm:trick",
        "tm:trickroom",
        "tm:weatherball",
        "tm:whirlpool",
        "tm:wonderroom",
        "tutor:expandingforce"
    ],
    "labels": [
        "gen1"
    ],
    "pokedex": [
        "pokemoncobbled.species.slowbro.desc1",
        "pokemoncobbled.species.slowbro.desc2"
    ],
    "preEvolution": "slowpoke",
    "evolutions": [],
    "baseScale": 1.0,
    "hitbox": {
        "width": 1.0,
        "height": 1.0,
        "fixed": false
    }
}