{
    "name": "slowpoke",
    "nationalPokedexNumber": 79,
    "primaryType": "water",
    "secondaryType": "psychic",
    "abilities": [
        "oblivious",
        "owntempo",
        "h:regenerator"
    ],
    "baseStats": {
        "hp": 90,
        "attack": 65,
        "defence": 65,
        "special_attack": 40,
        "special_defence": 40,
        "speed": 15
    },
    "catchRate": 190,
    "maleRatio": 0.5,
    "shoulderMountable": false,
    "forms": [
        {
            "name": "galar",
            "primaryType": "psychic",
            "abilities": [
                "gluttony",
                "owntempo",
                "h:regenerator"
            ],
            "aspects": [
                "galar"
            ]
        }
    ],
    "baseExperienceYield": 63,
    "experienceGroup": "mediumfast",
    "eggCycles": 20,
    "eggGroups": [
        "monster",
        "water1"
    ],
    "moves": [
        "1:tackle",
        "1:curse",
        "3:growl",
        "6:watergun",
        "9:yawn",
        "12:confusion",
        "15:disable",
        "18:waterpulse",
        "21:headbutt",
        "24:zenheadbutt",
        "27:amnesia",
        "30:surf",
        "33:slackoff",
        "36:psychic",
        "39:psychup",
        "42:raindance",
        "45:healpulse",
        "egg:belch",
        "egg:bellydrum",
        "egg:block",
        "egg:stomp",
        "tm:attract",
        "tm:blizzard",
        "tm:bodyslam",
        "tm:brine",
        "tm:bulldoze",
        "tm:calmmind",
        "tm:dig",
        "tm:dive",
        "tm:earthquake",
        "tm:endure",
        "tm:facade",
        "tm:fireblast",
        "tm:flamethrower",
        "tm:futuresight",
        "tm:grassknot",
        "tm:hail",
        "tm:hydropump",
        "tm:icebeam",
        "tm:icywind",
        "tm:imprison",
        "tm:irontail",
        "tm:lightscreen",
        "tm:liquidation",
        "tm:mudshot",
        "tm:payday",
        "tm:protect",
        "tm:psychicterrain",
        "tm:psyshock",
        "tm:rest",
        "tm:round",
        "tm:safeguard",
        "tm:scald",
        "tm:shadowball",
        "tm:skillswap",
        "tm:sleeptalk",
        "tm:snore",
        "tm:storedpower",
        "tm:substitute",
        "tm:sunnyday",
        "tm:swift",
        "tm:thunderwave",
        "tm:triattack",
        "tm:trick",
        "tm:trickroom",
        "tm:weatherball",
        "tm:whirlpool",
        "tm:wonderroom",
        "tutor:expandingforce"
    ],
    "labels": [
        "gen1"
    ],
    "pokedex": [
        "pokemoncobbled.species.slowpoke.desc1",
        "pokemoncobbled.species.slowpoke.desc2"
    ],
    "evolutions": [
        {
            "id": "slowpoke_slowbro",
            "variant": "level_up",
            "result": "slowbro",
            "consumeHeldItem": false,
            "learnableMoves": [],
            "requirements": [
                {
                    "variant": "level",
                    "minLevel": 37
                }
            ]
        },
        {
            "id": "slowpoke_slowbro",
            "variant": "item_interact",
            "result": "slowbro",
            "consumeHeldItem": true,
            "learnableMoves": [],
            "requirements": [],
            "requiredContext": "galarica-cuff"
        },
        {
            "id": "slowpoke_slowking",
            "variant": "trade",
            "result": "slowking",
            "consumeHeldItem": false,
            "learnableMoves": [],
            "requirements": [
                {
                    "variant": "held_item",
                    "item": "kings-rock"
                }
            ]
        },
        {
            "id": "slowpoke_slowking",
            "variant": "item_interact",
            "result": "slowking",
            "consumeHeldItem": true,
            "learnableMoves": [],
            "requirements": [],
            "requiredContext": "galarica-wreath"
        }
    ],
    "baseScale": 1.0,
    "hitbox": {
        "width": 1.0,
        "height": 1.0,
        "fixed": false
    }
}