{
    "name": "vileplume",
    "nationalPokedexNumber": 45,
    "primaryType": "grass",
    "secondaryType": "poison",
    "abilities": [
        "chlorophyll",
        "h:effectspore"
    ],
    "baseStats": {
        "hp": 75,
        "attack": 80,
        "defence": 85,
        "special_attack": 110,
        "special_defence": 90,
        "speed": 50
    },
    "catchRate": 45,
    "maleRatio": 0.5,
    "shoulderMountable": false,
    "forms": [],
    "baseExperienceYield": 245,
    "experienceGroup": "mediumslow",
    "eggCycles": 20,
    "eggGroups": [
        "plant"
    ],
    "moves": [
        "0:petalblizzard",
        "1:acid",
        "1:absorb",
        "1:megadrain",
        "1:growth",
        "1:poisonpowder",
        "1:stunspore",
        "1:sleeppowder",
        "1:petaldance",
        "1:toxic",
        "1:gigadrain",
        "1:sweetscent",
        "1:moonlight",
        "1:aromatherapy",
        "1:grassyterrain",
        "1:moonblast",
        "tm:attract",
        "tm:bodyslam",
        "tm:bulletseed",
        "tm:charm",
        "tm:dazzlinggleam",
        "tm:drainpunch",
        "tm:endure",
        "tm:energyball",
        "tm:facade",
        "tm:fling",
        "tm:gigaimpact",
        "tm:grassknot",
        "tm:hyperbeam",
        "tm:pollenpuff",
        "tm:protect",
        "tm:rest",
        "tm:round",
        "tm:safeguard",
        "tm:seedbomb",
        "tm:sleeptalk",
        "tm:sludgebomb",
        "tm:sludgewave",
        "tm:snore",
        "tm:solarbeam",
        "tm:substitute",
        "tm:sunnyday",
        "tm:swordsdance",
        "tm:venoshock",
        "tutor:corrosivegas",
        "tutor:grassyglide"
    ],
    "labels": [
        "gen1"
    ],
    "pokedex": [
        "pokemoncobbled.species.vileplume.desc1",
        "pokemoncobbled.species.vileplume.desc2"
    ],
    "preEvolution": "gloom",
    "evolutions": [],
    "baseScale": 1.0,
    "hitbox": {
        "width": 1.0,
        "height": 1.0,
        "fixed": false
    }
}