{
    "name": "aurorus",
    "nationalPokedexNumber": 699,
    "primaryType": "rock",
    "secondaryType": "ice",
    "abilities": [
        "refrigerate",
        "h:snowwarning"
    ],
    "baseStats": {
        "hp": 123,
        "attack": 77,
        "defence": 72,
        "special_attack": 99,
        "special_defence": 92,
        "speed": 58
    },
    "catchRate": 45,
    "maleRatio": 0.875,
    "shoulderMountable": false,
    "forms": [],
    "baseExperienceYield": 104,
    "experienceGroup": "mediumfast",
    "eggCycles": 30,
    "eggGroups": [
        "monster"
    ],
    "moves": [
        "1:growl",
        "1:powdersnow",
        "1:encore",
        "1:ancientpower",
        "12:icywind",
        "16:round",
        "20:mist",
        "24:aurorabeam",
        "28:thunderwave",
        "32:naturepower",
        "36:freezedry",
        "42:icebeam",
        "48:lightscreen",
        "54:hail",
        "60:blizzard",
        "66:hyperbeam",
        "tm:attract",
        "tm:avalanche",
        "tm:bodyslam",
        "tm:bulldoze",
        "tm:calmmind",
        "tm:darkpulse",
        "tm:earthpower",
        "tm:earthquake",
        "tm:endure",
        "tm:facade",
        "tm:flashcannon",
        "tm:gigaimpact",
        "tm:hypervoice",
        "tm:iciclespear",
        "tm:irondefense",
        "tm:ironhead",
        "tm:irontail",
        "tm:mudshot",
        "tm:outrage",
        "tm:protect",
        "tm:psychic",
        "tm:raindance",
        "tm:reflect",
        "tm:rest",
        "tm:rockblast",
        "tm:rockslide",
        "tm:rocktomb",
        "tm:safeguard",
        "tm:sandstorm",
        "tm:sleeptalk",
        "tm:snore",
        "tm:stealthrock",
        "tm:stoneedge",
        "tm:substitute",
        "tm:thunder",
        "tm:thunderbolt",
        "tm:weatherball",
        "tm:zenheadbutt",
        "tutor:meteorbeam"
    ],
    "labels": [
        "gen6"
    ],
    "pokedex": [
        "pokemoncobbled.species.aurorus.desc1",
        "pokemoncobbled.species.aurorus.desc2"
    ],
    "preEvolution": "amaura",
    "evolutions": [],
    "baseScale": 1.0,
    "hitbox": {
        "width": 1.0,
        "height": 1.0,
        "fixed": false
    }
}