{
    "name": "frogadier",
    "nationalPokedexNumber": 657,
    "primaryType": "water",
    "abilities": [
        "torrent",
        "h:protean"
    ],
    "baseStats": {
        "hp": 54,
        "attack": 63,
        "defence": 52,
        "special_attack": 83,
        "special_defence": 56,
        "speed": 97
    },
    "catchRate": 45,
    "maleRatio": 0.875,
    "shoulderMountable": false,
    "forms": [],
    "baseExperienceYield": 142,
    "experienceGroup": "mediumslow",
    "eggCycles": 20,
    "eggGroups": [
        "water1"
    ],
    "moves": [
        "1:pound",
        "1:growl",
        "1:bubble",
        "8:quickattack",
        "10:lick",
        "14:waterpulse",
        "19:smokescreen",
        "23:round",
        "28:fling",
        "33:smackdown",
        "40:substitute",
        "45:bounce",
        "50:doubleteam",
        "56:hydropump",
        "tm:acrobatics",
        "tm:aerialace",
        "tm:attract",
        "tm:blizzard",
        "tm:confide",
        "tm:darkpulse",
        "tm:echoedvoice",
        "tm:facade",
        "tm:frustration",
        "tm:grassknot",
        "tm:hiddenpower",
        "tm:icebeam",
        "tm:protect",
        "tm:raindance",
        "tm:rest",
        "tm:return",
        "tm:rockslide",
        "tm:rocktomb",
        "tm:scald",
        "tm:sleeptalk",
        "tm:surf",
        "tm:swagger",
        "tm:taunt",
        "tm:thief",
        "tm:toxic",
        "tm:uturn",
        "tm:waterfall",
        "tm:workup",
        "tutor:gunkshot",
        "tutor:icepunch",
        "tutor:icywind",
        "tutor:lowkick",
        "tutor:roleplay",
        "tutor:snatch",
        "tutor:snore",
        "tutor:spite",
        "tutor:waterpledge"
    ],
    "labels": [
        "gen6"
    ],
    "pokedex": [
        "pokemoncobbled.species.frogadier.desc1",
        "pokemoncobbled.species.frogadier.desc2"
    ],
    "preEvolution": "froakie",
    "evolutions": [
        {
            "id": "frogadier_greninja",
            "variant": "level_up",
            "result": "greninja",
            "consumeHeldItem": false,
            "learnableMoves": [],
            "requirements": [
                {
                    "variant": "level",
                    "minLevel": 36
                }
            ]
        }
    ],
    "baseScale": 1.0,
    "hitbox": {
        "width": 1.0,
        "height": 1.0,
        "fixed": false
    }
}