{
    "name": "hawlucha",
    "nationalPokedexNumber": 701,
    "primaryType": "fighting",
    "secondaryType": "flying",
    "abilities": [
        "limber",
        "unburden",
        "h:moldbreaker"
    ],
    "baseStats": {
        "hp": 78,
        "attack": 92,
        "defence": 75,
        "special_attack": 74,
        "special_defence": 63,
        "speed": 118
    },
    "catchRate": 100,
    "maleRatio": 0.5,
    "shoulderMountable": false,
    "forms": [],
    "baseExperienceYield": 175,
    "experienceGroup": "mediumfast",
    "eggCycles": 20,
    "eggGroups": [
        "flying",
        "humanshape"
    ],
    "moves": [
        "1:tackle",
        "1:honeclaws",
        "4:wingattack",
        "8:detect",
        "12:aerialace",
        "16:encore",
        "20:featherdance",
        "24:submission",
        "28:bounce",
        "32:taunt",
        "36:roost",
        "40:swordsdance",
        "44:flyingpress",
        "48:highjumpkick",
        "52:endeavor",
        "56:skyattack",
        "egg:crosschop",
        "egg:defog",
        "egg:entrainment",
        "egg:feint",
        "egg:meanlook",
        "egg:quickguard",
        "tm:acrobatics",
        "tm:agility",
        "tm:allyswitch",
        "tm:assurance",
        "tm:attract",
        "tm:batonpass",
        "tm:bodypress",
        "tm:bravebird",
        "tm:brickbreak",
        "tm:bulkup",
        "tm:closecombat",
        "tm:dig",
        "tm:drainpunch",
        "tm:endure",
        "tm:facade",
        "tm:falseswipe",
        "tm:firepunch",
        "tm:fling",
        "tm:fly",
        "tm:focusblast",
        "tm:gigaimpact",
        "tm:grassknot",
        "tm:helpinghand",
        "tm:ironhead",
        "tm:lowkick",
        "tm:lowsweep",
        "tm:megakick",
        "tm:megapunch",
        "tm:payback",
        "tm:poisonjab",
        "tm:protect",
        "tm:raindance",
        "tm:rest",
        "tm:retaliate",
        "tm:revenge",
        "tm:reversal",
        "tm:rockslide",
        "tm:rocktomb",
        "tm:round",
        "tm:sleeptalk",
        "tm:snore",
        "tm:steelwing",
        "tm:stoneedge",
        "tm:substitute",
        "tm:sunnyday",
        "tm:superpower",
        "tm:swift",
        "tm:throatchop",
        "tm:thunderpunch",
        "tm:uturn",
        "tm:workup",
        "tm:xscissor",
        "tm:zenheadbutt",
        "tutor:coaching",
        "tutor:dualwingbeat"
    ],
    "labels": [
        "gen6"
    ],
    "pokedex": [
        "pokemoncobbled.species.hawlucha.desc1",
        "pokemoncobbled.species.hawlucha.desc2"
    ],
    "evolutions": [],
    "baseScale": 1.0,
    "hitbox": {
        "width": 1.0,
        "height": 1.0,
        "fixed": false
    }
}