{
    "name": "helioptile",
    "nationalPokedexNumber": 694,
    "primaryType": "electric",
    "secondaryType": "normal",
    "abilities": [
        "dryskin",
        "sandveil",
        "h:solarpower"
    ],
    "baseStats": {
        "hp": 44,
        "attack": 38,
        "defence": 33,
        "special_attack": 61,
        "special_defence": 43,
        "speed": 70
    },
    "catchRate": 190,
    "maleRatio": 0.5,
    "shoulderMountable": false,
    "forms": [],
    "baseExperienceYield": 58,
    "experienceGroup": "mediumfast",
    "eggCycles": 20,
    "eggGroups": [
        "monster",
        "dragon"
    ],
    "moves": [
        "1:tailwhip",
        "1:mudslap",
        "4:pound",
        "8:thundershock",
        "12:quickattack",
        "16:charge",
        "20:bulldoze",
        "24:voltswitch",
        "28:paraboliccharge",
        "32:thunderwave",
        "36:thunderbolt",
        "40:electrify",
        "44:thunder",
        "egg:dragonrush",
        "egg:dragontail",
        "egg:glare",
        "tm:agility",
        "tm:allyswitch",
        "tm:attract",
        "tm:darkpulse",
        "tm:dig",
        "tm:electricterrain",
        "tm:electroball",
        "tm:electroweb",
        "tm:endure",
        "tm:facade",
        "tm:grassknot",
        "tm:irontail",
        "tm:lightscreen",
        "tm:lowsweep",
        "tm:protect",
        "tm:raindance",
        "tm:rest",
        "tm:rockslide",
        "tm:rocktomb",
        "tm:round",
        "tm:sandstorm",
        "tm:sleeptalk",
        "tm:snore",
        "tm:substitute",
        "tm:surf",
        "tm:swift",
        "tm:uturn",
        "tm:wildcharge",
        "tutor:risingvoltage",
        "tutor:scaleshot"
    ],
    "labels": [
        "gen6"
    ],
    "pokedex": [
        "pokemoncobbled.species.helioptile.desc1",
        "pokemoncobbled.species.helioptile.desc2"
    ],
    "evolutions": [
        {
            "id": "helioptile_heliolisk",
            "variant": "item_interact",
            "result": "heliolisk",
            "consumeHeldItem": true,
            "learnableMoves": [],
            "requirements": [],
            "requiredContext": "sun-stone"
        }
    ],
    "baseScale": 1.0,
    "hitbox": {
        "width": 1.0,
        "height": 1.0,
        "fixed": false
    }
}