{
    "name": "spritzee",
    "nationalPokedexNumber": 682,
    "primaryType": "fairy",
    "abilities": [
        "healer",
        "h:aromaveil"
    ],
    "baseStats": {
        "hp": 78,
        "attack": 52,
        "defence": 60,
        "special_attack": 63,
        "special_defence": 65,
        "speed": 23
    },
    "catchRate": 200,
    "maleRatio": 0.5,
    "shoulderMountable": false,
    "forms": [],
    "baseExperienceYield": 68,
    "experienceGroup": "mediumfast",
    "eggCycles": 20,
    "eggGroups": [
        "fairy"
    ],
    "moves": [
        "1:sweetscent",
        "1:fairywind",
        "3:sweetkiss",
        "6:echoedvoice",
        "9:drainingkiss",
        "12:aromatherapy",
        "18:attract",
        "21:flail",
        "24:mistyterrain",
        "27:psychic",
        "30:charm",
        "33:calmmind",
        "36:moonblast",
        "39:skillswap",
        "egg:afteryou",
        "egg:disable",
        "egg:wish",
        "tm:allyswitch",
        "tm:dazzlinggleam",
        "tm:encore",
        "tm:endure",
        "tm:energyball",
        "tm:facade",
        "tm:faketears",
        "tm:flashcannon",
        "tm:gyroball",
        "tm:helpinghand",
        "tm:lightscreen",
        "tm:nastyplot",
        "tm:protect",
        "tm:raindance",
        "tm:reflect",
        "tm:rest",
        "tm:round",
        "tm:sleeptalk",
        "tm:snore",
        "tm:substitute",
        "tm:sunnyday",
        "tm:thunderbolt",
        "tm:trickroom",
        "tutor:mistyexplosion"
    ],
    "labels": [
        "gen6"
    ],
    "pokedex": [
        "pokemoncobbled.species.spritzee.desc1",
        "pokemoncobbled.species.spritzee.desc2"
    ],
    "evolutions": [
        {
            "id": "spritzee_aromatisse",
            "variant": "trade",
            "result": "aromatisse",
            "consumeHeldItem": false,
            "learnableMoves": [],
            "requirements": [
                {
                    "variant": "held_item",
                    "item": "sachet"
                }
            ]
        }
    ],
    "baseScale": 1.0,
    "hitbox": {
        "width": 1.0,
        "height": 1.0,
        "fixed": false
    }
}