{
    "name": "xerneas",
    "nationalPokedexNumber": 716,
    "primaryType": "fairy",
    "abilities": [
        "fairyaura"
    ],
    "baseStats": {
        "hp": 126,
        "attack": 131,
        "defence": 95,
        "special_attack": 131,
        "special_defence": 98,
        "speed": 99
    },
    "catchRate": 45,
    "maleRatio": 1.125,
    "shoulderMountable": false,
    "forms": [],
    "baseExperienceYield": 340,
    "experienceGroup": "slow",
    "eggCycles": 120,
    "eggGroups": [
        "no-eggs"
    ],
    "moves": [
        "1:tackle",
        "1:gravity",
        "5:lightscreen",
        "10:aurorabeam",
        "15:naturepower",
        "20:nightslash",
        "25:aromatherapy",
        "30:psychup",
        "35:hornleech",
        "40:mistyterrain",
        "45:ingrain",
        "50:takedown",
        "55:geomancy",
        "60:moonblast",
        "65:healpulse",
        "70:megahorn",
        "75:closecombat",
        "80:outrage",
        "85:gigaimpact",
        "tm:bodyslam",
        "tm:calmmind",
        "tm:dazzlinggleam",
        "tm:drainingkiss",
        "tm:endure",
        "tm:facade",
        "tm:flashcannon",
        "tm:focusblast",
        "tm:grassknot",
        "tm:hail",
        "tm:hyperbeam",
        "tm:hypervoice",
        "tm:playrough",
        "tm:protect",
        "tm:psychic",
        "tm:psyshock",
        "tm:raindance",
        "tm:reflect",
        "tm:rest",
        "tm:rockslide",
        "tm:round",
        "tm:sleeptalk",
        "tm:smartstrike",
        "tm:snore",
        "tm:substitute",
        "tm:sunnyday",
        "tm:swift",
        "tm:thunder",
        "tm:thunderbolt",
        "tm:thunderwave",
        "tm:wonderroom",
        "tm:zenheadbutt",
        "tutor:mistyexplosion",
        "tutor:terrainpulse"
    ],
    "labels": [
        "legendary",
        "gen6"
    ],
    "pokedex": [
        "pokemoncobbled.species.xerneas.desc1",
        "pokemoncobbled.species.xerneas.desc2"
    ],
    "evolutions": [],
    "baseScale": 1.0,
    "hitbox": {
        "width": 1.0,
        "height": 1.0,
        "fixed": false
    }
}