{
    "name": "zygarde50",
    "nationalPokedexNumber": 718,
    "primaryType": "dragon",
    "secondaryType": "ground",
    "abilities": [
        "aurabreak"
    ],
    "baseStats": {
        "hp": 108,
        "attack": 100,
        "defence": 121,
        "special_attack": 81,
        "special_defence": 95,
        "speed": 95
    },
    "catchRate": 3,
    "maleRatio": 1.125,
    "shoulderMountable": false,
    "forms": [
        {
            "name": "10-power-construct",
            "abilities": [
                "powerconstruct"
            ],
            "baseStats": {
                "hp": 54,
                "attack": 100,
                "defence": 71,
                "special_attack": 61,
                "special_defence": 85,
                "speed": 115
            },
            "aspects": [
                "10-power-construct"
            ]
        },
        {
            "name": "50-power-construct",
            "abilities": [
                "powerconstruct"
            ],
            "aspects": [
                "50-power-construct"
            ]
        },
        {
            "name": "complete",
            "abilities": [
                "powerconstruct"
            ],
            "baseStats": {
                "hp": 216,
                "attack": 100,
                "defence": 121,
                "special_attack": 91,
                "special_defence": 95,
                "speed": 85
            },
            "aspects": [
                "complete"
            ]
        },
        {
            "name": "10",
            "baseStats": {
                "hp": 54,
                "attack": 100,
                "defence": 71,
                "special_attack": 61,
                "special_defence": 85,
                "speed": 115
            },
            "aspects": [
                "10"
            ]
        }
    ],
    "baseExperienceYield": 300,
    "experienceGroup": "slow",
    "eggCycles": 120,
    "eggGroups": [
        "no-eggs"
    ],
    "moves": [
        "1:bind",
        "1:bite",
        "1:dragonbreath",
        "1:bulldoze",
        "1:thousandarrows",
        "1:thousandwaves",
        "1:coreenforcer",
        "8:haze",
        "16:dig",
        "24:safeguard",
        "32:crunch",
        "40:dragonpulse",
        "48:landswrath",
        "56:glare",
        "64:sandstorm",
        "72:coil",
        "80:earthquake",
        "88:outrage",
        "tm:bodyslam",
        "tm:breakingswipe",
        "tm:brickbreak",
        "tm:dragondance",
        "tm:earthpower",
        "tm:endure",
        "tm:facade",
        "tm:focusblast",
        "tm:gigaimpact",
        "tm:grassknot",
        "tm:highhorsepower",
        "tm:hyperbeam",
        "tm:hypervoice",
        "tm:irontail",
        "tm:payback",
        "tm:protect",
        "tm:rest",
        "tm:retaliate",
        "tm:reversal",
        "tm:rockslide",
        "tm:round",
        "tm:sleeptalk",
        "tm:sludgewave",
        "tm:snore",
        "tm:stompingtantrum",
        "tm:stoneedge",
        "tm:substitute",
        "tm:sunnyday",
        "tm:superpower",
        "tm:swift",
        "tm:zenheadbutt",
        "tutor:dracometeor",
        "tutor:scaleshot",
        "tutor:scorchingsands",
        "tutor:skittersmack"
    ],
    "labels": [
        "legendary",
        "gen6"
    ],
    "pokedex": [
        "pokemoncobbled.species.zygarde50.desc1",
        "pokemoncobbled.species.zygarde50.desc2"
    ],
    "evolutions": [],
    "baseScale": 1.0,
    "hitbox": {
        "width": 1.0,
        "height": 1.0,
        "fixed": false
    }
}