{
	"format_version": "1.8.0",
	"animations": {
		"animation.primeape.ground_idle": {
			"loop": true,
			"bones": {
				"body": {
					"rotation": ["4+(math.sin(q.anim_time*90*4*2-90-45)*1+1)*2", 0, 0],
					"position": [0, "(math.sin(q.anim_time*90*4*2+90)*1+1)*0.5-0.75", 0]
				},
				"arm_right": {
					"rotation": [-22.5, "-15-2.5*math.sin(q.anim_time*90*4*2)", "-45+2.5*(math.sin(q.anim_time*90*4*2)*1+1)"]
				},
				"forearm_right": {
					"rotation": [0, "-82.5+2.5*(math.sin(q.anim_time*90*4*2)*1+1)", 0]
				},
				"hand_right": {
					"rotation": [-15, -15, -27.5]
				},
				"arm_left": {
					"rotation": [-22.5, "15+2.5*math.sin(q.anim_time*90*4*2)", "45-2.5*(math.sin(q.anim_time*90*4*2)*1+1)"]
				},
				"forearm_left": {
					"rotation": [0, "82.5-2.5*(math.sin(q.anim_time*90*4*2)*1+1)", 0]
				},
				"hand_left": {
					"rotation": [-15, 15, 27.5]
				},
				"ear_right": {
					"rotation": ["(math.sin(q.anim_time*90*4*2+135)*1+1)*4", 0, 0]
				},
				"ear_left": {
					"rotation": ["(math.sin(q.anim_time*90*4*2+135)*1+1)*4", 0, 0]
				},
				"leg_right": {
					"rotation": ["-2.5+(math.sin(q.anim_time*90*4*2+90)*1+1)*2-(math.sin(q.anim_time*90*4*2-90-45)*1+1)*2", 0, 0],
					"position": ["0.03*(math.sin(q.anim_time*90*4*2-150)*1+1)", "(math.sin(q.anim_time*90*4*2-90)*1+1)*0.4", "-0.16*(math.sin(q.anim_time*90*4*2-135)*1+1)"]
				},
				"knee_right": {
					"rotation": ["-(math.sin(q.anim_time*90*4*2+90)*1+1)*4", 0, 0]
				},
				"foot_right": {
					"rotation": ["-1+2*math.sin(q.anim_time*90*4*2+90)", 0, 0]
				},
				"leg_left": {
					"rotation": ["-2.5+(math.sin(q.anim_time*90*4*2+90)*1+1)*2-(math.sin(q.anim_time*90*4*2-90-45)*1+1)*2", 0, 0],
					"position": [
						"-0.03*(math.sin(q.anim_time*90*4*2-150)*1+1)",
						"(math.sin(q.anim_time*90*4*2-90)*1+1)*0.4",
						"-0.16*(math.sin(q.anim_time*90*4*2-135)*1+1)"
					]
				},
				"knee_left": {
					"rotation": ["-(math.sin(q.anim_time*90*4*2+90)*1+1)*4", 0, 0]
				},
				"foot_left": {
					"rotation": ["-1+2*math.sin(q.anim_time*90*4*2+90)", 0, 0]
				}
			}
		},
		"animation.primeape.ground_walk": {
			"loop": true,
			"bones": {
				"body": {
					"rotation": [
						"5+(math.sin(q.anim_time*90*4*2-90-45)*1+1)*2-(math.clamp(math.sin(q.anim_time*90*4*2+90)*1,0.5,1)*1-0.5)*10",
						0,
						"math.clamp(math.sin(q.anim_time*90*4*1)*5,-4,4)+math.sin(q.anim_time*90*4*1)*4"
					],
					"position": [0, "math.sin(q.anim_time*90*4*2+90)*1+1+math.clamp((math.sin(q.anim_time*90*4*2+90)*1+0.5)*1,0,20)", "math.sin(q.anim_time*90*4*2)*1"]
				},
				"arm_right": {
					"rotation": ["-22.5-10*math.sin(q.anim_time*90*4*2)", "-15*math.sin(q.anim_time*90*4)", "-45+2.5*(math.sin(q.anim_time*90*4*2)*1+1)"]
				},
				"forearm_right": {
					"rotation": [0, "-70-5*(math.sin(q.anim_time*90*4)*1+1)", 0]
				},
				"hand_right": {
					"rotation": [-15, -15, -27.5]
				},
				"arm_left": {
					"rotation": ["-22.5-10*math.sin(q.anim_time*90*4*2)", "-15*math.sin(q.anim_time*90*4)", "45-2.5*(math.sin(q.anim_time*90*4*2)*1+1)"]
				},
				"forearm_left": {
					"rotation": [0, "70+5*(math.sin(q.anim_time*90*4)*1+1)", 0]
				},
				"hand_left": {
					"rotation": [-15, 15, 27.5]
				},
				"ear_right": {
					"rotation": ["(math.sin(q.anim_time*90*4*2+135)*1+1)*10", 0, 0]
				},
				"ear_left": {
					"rotation": ["(math.sin(q.anim_time*90*4*2+135)*1+1)*10", 0, 0]
				},
				"leg_right": {
					"rotation": [
						"math.clamp(math.sin(q.anim_time*90*4*1+180*1-90)*40,0,60)+math.clamp(math.sin(q.anim_time*90*4*1+180*1-90)*37,-40,30)",
						"math.clamp((math.sin(q.anim_time*90*4*1)*1-1)*10,-5,10)",
						"(math.sin(q.anim_time*90*4*1-90)*1+1)*-3"
					],
					"position": [0, "(math.sin(q.anim_time*90*4*2-90)*1+1)*0.3-2*(math.clamp(math.sin(q.anim_time*90*4*1+200)*1,0.75,1)*1-0.75)", 0]
				},
				"knee_right": {
					"rotation": [
						"-14-(math.sin(q.anim_time*90*4*2)*1+1)*10+(math.sin(q.anim_time*90*4*2-90)*1+1)*25-(math.clamp((math.sin(q.anim_time*90*4*1+145)*1)*1,0.8,1)*1-0.8)*90",
						0,
						0
					]
				},
				"foot_right": {
					"rotation": [
						"-(math.sin(q.anim_time*90*4*2-90)*1)*15",
						0,
						"math.clamp(20*(math.sin(q.anim_time*90*4*1)*1+2),0,20)-math.clamp(10*(math.sin(q.anim_time*90*4*1)*1+2),20,50)+10-80*(math.clamp(math.sin(q.anim_time*90*4*1-105)*1,0.85,1)*1-0.85)"
					]
				},
				"leg_left": {
					"rotation": [
						"math.clamp(math.sin(q.anim_time*90*4*1+180*0-90)*40,0,60)+math.clamp(math.sin(q.anim_time*90*4*1+180*0-90)*37,-40,30)",
						"-1*math.clamp((math.sin(q.anim_time*90*4*1+180)*1-1)*10,-5,10)",
						"3*(math.sin(q.anim_time*90*4*1-90+180)*1+1)"
					],
					"position": [0, "(math.sin(q.anim_time*90*4*2-90+180*0)*1+1)*0.3-2*(math.clamp(math.sin(q.anim_time*90*4*1+200+180)*1,0.75,1)*1-0.75)", 0]
				},
				"knee_left": {
					"rotation": [
						"-14-(math.sin(q.anim_time*90*4*2+180*0)*1+1)*10+(math.sin(q.anim_time*90*4*2-90+180*0)*1+1)*25-(math.clamp((math.sin(q.anim_time*90*4*1+145+180)*1)*1,0.8,1)*1-0.8)*90",
						0,
						0
					]
				},
				"foot_left": {
					"rotation": [
						"-(math.sin(q.anim_time*90*4*2-90+180*0)*1)*15",
						0,
						"-1*(math.clamp(20*(math.sin(q.anim_time*90*4*1+180)*1+2),0,20)-math.clamp(10*(math.sin(q.anim_time*90*4*1+180)*1+2),20,50)+10-80*(math.clamp(math.sin(q.anim_time*90*4*1-105+180)*1,0.85,1)*1-0.85))"
					]
				},
				"primeape": {
					"position": [0, "-(math.clamp(math.sin(q.anim_time*90*4*2+90)*1,0.25,1)*1-0.25)*1", 0]
				}
			}
		}
	}
}