{
    "name": "ariados",
    "nationalPokedexNumber": 168,
    "primaryType": "bug",
    "secondaryType": "poison",
    "abilities": [
        "swarm",
        "insomnia",
        "h:sniper"
    ],
    "baseStats": {
        "hp": 70,
        "attack": 90,
        "defence": 70,
        "special_attack": 60,
        "special_defence": 70,
        "speed": 40
    },
    "catchRate": 90,
    "maleRatio": 0.5,
    "shoulderMountable": false,
    "forms": [],
    "baseExperienceYield": 140,
    "experienceGroup": "fast",
    "eggCycles": 15,
    "eggGroups": [
        "bug"
    ],
    "moves": [
        "0:swordsdance",
        "1:poisonsting",
        "1:absorb",
        "1:stringshot",
        "1:focusenergy",
        "1:constrict",
        "1:bugbite",
        "1:fellstinger",
        "1:venomdrench",
        "8:infestation",
        "12:scaryface",
        "15:nightshade",
        "19:shadowsneak",
        "23:furyswipes",
        "28:suckerpunch",
        "32:spiderweb",
        "37:agility",
        "41:pinmissile",
        "46:psychic",
        "50:poisonjab",
        "55:crosspoison",
        "58:stickyweb",
        "63:toxicthread",
        "tm:attract",
        "tm:confide",
        "tm:doubleteam",
        "tm:facade",
        "tm:frustration",
        "tm:gigaimpact",
        "tm:hiddenpower",
        "tm:hyperbeam",
        "tm:leechlife",
        "tm:protect",
        "tm:rest",
        "tm:return",
        "tm:round",
        "tm:sleeptalk",
        "tm:sludgebomb",
        "tm:smartstrike",
        "tm:solarbeam",
        "tm:substitute",
        "tm:sunnyday",
        "tm:swagger",
        "tm:thief",
        "tm:toxic",
        "tm:venoshock",
        "tm:xscissor",
        "tutor:bounce",
        "tutor:electroweb",
        "tutor:foulplay",
        "tutor:gigadrain",
        "tutor:signalbeam",
        "tutor:snore",
        "tutor:stompingtantrum",
        "tutor:throatchop"
    ],
    "labels": [
        "gen2"
    ],
    "pokedex": [
        "pokemoncobbled.species.ariados.desc1",
        "pokemoncobbled.species.ariados.desc2"
    ],
    "preEvolution": "spinarak",
    "evolutions": [],
    "baseScale": 1.0,
    "hitbox": {
        "width": 1.0,
        "height": 1.0,
        "fixed": false
    }
}