{
    "name": "blissey",
    "nationalPokedexNumber": 242,
    "primaryType": "normal",
    "abilities": [
        "naturalcure",
        "serenegrace",
        "h:healer"
    ],
    "baseStats": {
        "hp": 255,
        "attack": 10,
        "defence": 10,
        "special_attack": 75,
        "special_defence": 135,
        "speed": 55
    },
    "catchRate": 30,
    "maleRatio": 0.0,
    "shoulderMountable": false,
    "forms": [],
    "baseExperienceYield": 635,
    "experienceGroup": "fast",
    "eggCycles": 40,
    "eggGroups": [
        "fairy"
    ],
    "moves": [
        "1:pound",
        "1:minimize",
        "1:defensecurl",
        "1:sweetkiss",
        "1:charm",
        "1:covet",
        "1:copycat",
        "1:disarmingvoice",
        "4:tailwhip",
        "8:echoedvoice",
        "12:lifedew",
        "16:sing",
        "20:fling",
        "24:takedown",
        "28:healpulse",
        "32:helpinghand",
        "36:lightscreen",
        "40:doubleedge",
        "44:softboiled",
        "48:lastresort",
        "52:healingwish",
        "tm:allyswitch",
        "tm:attract",
        "tm:avalanche",
        "tm:blizzard",
        "tm:bodyslam",
        "tm:brickbreak",
        "tm:bulldoze",
        "tm:calmmind",
        "tm:dazzlinggleam",
        "tm:drainpunch",
        "tm:earthquake",
        "tm:endure",
        "tm:facade",
        "tm:fireblast",
        "tm:firepunch",
        "tm:flamethrower",
        "tm:focusblast",
        "tm:gigaimpact",
        "tm:grassknot",
        "tm:hail",
        "tm:hyperbeam",
        "tm:hypervoice",
        "tm:icebeam",
        "tm:icepunch",
        "tm:icywind",
        "tm:irontail",
        "tm:megakick",
        "tm:megapunch",
        "tm:metronome",
        "tm:protect",
        "tm:psychic",
        "tm:raindance",
        "tm:rest",
        "tm:retaliate",
        "tm:rockslide",
        "tm:rocktomb",
        "tm:round",
        "tm:safeguard",
        "tm:sandstorm",
        "tm:shadowball",
        "tm:skillswap",
        "tm:sleeptalk",
        "tm:snore",
        "tm:solarbeam",
        "tm:stealthrock",
        "tm:stompingtantrum",
        "tm:storedpower",
        "tm:substitute",
        "tm:sunnyday",
        "tm:thunder",
        "tm:thunderbolt",
        "tm:thunderpunch",
        "tm:thunderwave",
        "tm:triattack",
        "tm:uproar",
        "tm:wildcharge",
        "tm:workup",
        "tm:zenheadbutt"
    ],
    "labels": [
        "gen2"
    ],
    "pokedex": [
        "pokemoncobbled.species.blissey.desc1",
        "pokemoncobbled.species.blissey.desc2"
    ],
    "preEvolution": "chansey",
    "evolutions": [],
    "baseScale": 1.0,
    "hitbox": {
        "width": 1.0,
        "height": 1.0,
        "fixed": false
    }
}