{
    "name": "corsola",
    "nationalPokedexNumber": 222,
    "primaryType": "water",
    "secondaryType": "rock",
    "abilities": [
        "hustle",
        "naturalcure",
        "h:regenerator"
    ],
    "baseStats": {
        "hp": 65,
        "attack": 55,
        "defence": 95,
        "special_attack": 65,
        "special_defence": 95,
        "speed": 35
    },
    "catchRate": 60,
    "maleRatio": 0.25,
    "shoulderMountable": false,
    "forms": [
        {
            "name": "galar",
            "primaryType": "ghost",
            "abilities": [
                "weakarmor",
                "h:cursedbody"
            ],
            "baseStats": {
                "hp": 60,
                "attack": 55,
                "defence": 100,
                "special_attack": 65,
                "special_defence": 100,
                "speed": 30
            },
            "aspects": [
                "galar"
            ]
        }
    ],
    "baseExperienceYield": 144,
    "experienceGroup": "fast",
    "eggCycles": 20,
    "eggGroups": [
        "water1",
        "water3"
    ],
    "moves": [
        "1:tackle",
        "1:harden",
        "5:watergun",
        "10:aquaring",
        "15:endure",
        "20:ancientpower",
        "25:bubblebeam",
        "30:flail",
        "35:lifedew",
        "40:powergem",
        "45:earthpower",
        "50:recover",
        "55:mirrorcoat",
        "egg:confuseray",
        "egg:curse",
        "egg:headsmash",
        "egg:mist",
        "egg:naturepower",
        "egg:waterpulse",
        "tm:amnesia",
        "tm:attract",
        "tm:blizzard",
        "tm:bodyslam",
        "tm:brine",
        "tm:bulldoze",
        "tm:calmmind",
        "tm:dig",
        "tm:earthquake",
        "tm:facade",
        "tm:hail",
        "tm:hydropump",
        "tm:icebeam",
        "tm:iciclespear",
        "tm:icywind",
        "tm:irondefense",
        "tm:lightscreen",
        "tm:liquidation",
        "tm:protect",
        "tm:psychic",
        "tm:raindance",
        "tm:reflect",
        "tm:rest",
        "tm:rockblast",
        "tm:rockslide",
        "tm:rocktomb",
        "tm:round",
        "tm:safeguard",
        "tm:sandstorm",
        "tm:scald",
        "tm:screech",
        "tm:selfdestruct",
        "tm:shadowball",
        "tm:sleeptalk",
        "tm:snore",
        "tm:stealthrock",
        "tm:stompingtantrum",
        "tm:stoneedge",
        "tm:substitute",
        "tm:sunnyday",
        "tm:surf",
        "tm:throatchop",
        "tm:whirlpool",
        "tutor:meteorbeam"
    ],
    "labels": [
        "gen2"
    ],
    "pokedex": [
        "pokemoncobbled.species.corsola.desc1",
        "pokemoncobbled.species.corsola.desc2"
    ],
    "evolutions": [
        {
            "id": "corsola_cursola",
            "variant": "level_up",
            "result": "cursola",
            "consumeHeldItem": false,
            "learnableMoves": [],
            "requirements": [
                {
                    "variant": "level",
                    "minLevel": 38
                }
            ]
        }
    ],
    "baseScale": 1.0,
    "hitbox": {
        "width": 1.0,
        "height": 1.0,
        "fixed": false
    }
}