{
    "name": "cyndaquil",
    "nationalPokedexNumber": 155,
    "primaryType": "fire",
    "abilities": [
        "blaze",
        "h:flashfire"
    ],
    "baseStats": {
        "hp": 39,
        "attack": 52,
        "defence": 43,
        "special_attack": 60,
        "special_defence": 50,
        "speed": 65
    },
    "catchRate": 45,
    "maleRatio": 0.875,
    "shoulderMountable": false,
    "forms": [],
    "baseExperienceYield": 62,
    "experienceGroup": "mediumslow",
    "eggCycles": 20,
    "eggGroups": [
        "ground"
    ],
    "moves": [
        "1:tackle",
        "1:leer",
        "6:smokescreen",
        "10:ember",
        "13:quickattack",
        "19:flamewheel",
        "22:defensecurl",
        "28:flamecharge",
        "31:swift",
        "37:lavaplume",
        "40:flamethrower",
        "46:inferno",
        "49:rollout",
        "55:doubleedge",
        "58:burnup",
        "64:eruption",
        "egg:covet",
        "egg:crushclaw",
        "egg:doublekick",
        "egg:extrasensory",
        "egg:flameburst",
        "egg:flareblitz",
        "egg:foresight",
        "egg:furyswipes",
        "egg:howl",
        "egg:naturepower",
        "egg:reversal",
        "egg:thrash",
        "tm:aerialace",
        "tm:attract",
        "tm:confide",
        "tm:doubleteam",
        "tm:facade",
        "tm:fireblast",
        "tm:frustration",
        "tm:hiddenpower",
        "tm:overheat",
        "tm:protect",
        "tm:rest",
        "tm:return",
        "tm:round",
        "tm:sleeptalk",
        "tm:substitute",
        "tm:sunnyday",
        "tm:swagger",
        "tm:toxic",
        "tm:wildcharge",
        "tm:willowisp",
        "tm:workup",
        "tutor:firepledge",
        "tutor:heatwave",
        "tutor:snore"
    ],
    "labels": [
        "gen2"
    ],
    "pokedex": [
        "pokemoncobbled.species.cyndaquil.desc1"
    ],
    "evolutions": [
        {
            "id": "cyndaquil_quilava",
            "variant": "level_up",
            "result": "quilava",
            "consumeHeldItem": false,
            "learnableMoves": [],
            "requirements": [
                {
                    "variant": "level",
                    "minLevel": 14
                }
            ]
        }
    ],
    "baseScale": 1.0,
    "hitbox": {
        "width": 1.0,
        "height": 1.0,
        "fixed": false
    }
}