{
    "name": "girafarig",
    "nationalPokedexNumber": 203,
    "primaryType": "normal",
    "secondaryType": "psychic",
    "abilities": [
        "innerfocus",
        "earlybird",
        "h:sapsipper"
    ],
    "baseStats": {
        "hp": 70,
        "attack": 80,
        "defence": 65,
        "special_attack": 90,
        "special_defence": 65,
        "speed": 85
    },
    "catchRate": 60,
    "maleRatio": 0.5,
    "shoulderMountable": false,
    "forms": [],
    "baseExperienceYield": 159,
    "experienceGroup": "mediumfast",
    "eggCycles": 20,
    "eggGroups": [
        "ground"
    ],
    "moves": [
        "1:tackle",
        "1:growl",
        "1:confusion",
        "1:astonish",
        "1:powerswap",
        "1:guardswap",
        "5:odorsleuth",
        "10:assurance",
        "14:stomp",
        "19:psybeam",
        "23:agility",
        "28:doublehit",
        "32:zenheadbutt",
        "37:crunch",
        "41:batonpass",
        "46:nastyplot",
        "50:psychic",
        "egg:amnesia",
        "egg:beatup",
        "egg:doublekick",
        "egg:foresight",
        "egg:futuresight",
        "egg:magiccoat",
        "egg:meanlook",
        "egg:mirrorcoat",
        "egg:psychicfangs",
        "egg:psychicterrain",
        "egg:razorwind",
        "egg:secretpower",
        "egg:skillswap",
        "egg:takedown",
        "egg:wish",
        "tm:attract",
        "tm:bulldoze",
        "tm:calmmind",
        "tm:chargebeam",
        "tm:confide",
        "tm:dazzlinggleam",
        "tm:doubleteam",
        "tm:dreameater",
        "tm:earthquake",
        "tm:echoedvoice",
        "tm:energyball",
        "tm:facade",
        "tm:frustration",
        "tm:grassknot",
        "tm:hiddenpower",
        "tm:lightscreen",
        "tm:protect",
        "tm:psychup",
        "tm:psyshock",
        "tm:raindance",
        "tm:reflect",
        "tm:rest",
        "tm:return",
        "tm:round",
        "tm:shadowball",
        "tm:sleeptalk",
        "tm:substitute",
        "tm:sunnyday",
        "tm:swagger",
        "tm:thief",
        "tm:thunder",
        "tm:thunderbolt",
        "tm:thunderwave",
        "tm:toxic",
        "tm:trickroom",
        "tm:workup",
        "tutor:allyswitch",
        "tutor:foulplay",
        "tutor:gravity",
        "tutor:hypervoice",
        "tutor:irontail",
        "tutor:recycle",
        "tutor:shockwave",
        "tutor:signalbeam",
        "tutor:snore",
        "tutor:stompingtantrum",
        "tutor:telekinesis",
        "tutor:trick",
        "tutor:uproar"
    ],
    "labels": [
        "gen2"
    ],
    "pokedex": [
        "pokemoncobbled.species.girafarig.desc1",
        "pokemoncobbled.species.girafarig.desc2"
    ],
    "evolutions": [],
    "baseScale": 1.0,
    "hitbox": {
        "width": 1.0,
        "height": 1.0,
        "fixed": false
    }
}