{
    "name": "hitmontop",
    "nationalPokedexNumber": 237,
    "primaryType": "fighting",
    "abilities": [
        "intimidate",
        "technician",
        "h:steadfast"
    ],
    "baseStats": {
        "hp": 50,
        "attack": 95,
        "defence": 95,
        "special_attack": 35,
        "special_defence": 110,
        "speed": 70
    },
    "catchRate": 45,
    "maleRatio": 1.0,
    "shoulderMountable": false,
    "forms": [],
    "baseExperienceYield": 159,
    "experienceGroup": "mediumfast",
    "eggCycles": 25,
    "eggGroups": [
        "humanshape"
    ],
    "moves": [
        "0:triplekick",
        "1:tackle",
        "1:focusenergy",
        "1:rapidspin",
        "1:fakeout",
        "1:helpinghand",
        "1:feint",
        "4:quickattack",
        "8:gyroball",
        "12:detect",
        "16:revenge",
        "21:wideguard",
        "21:quickguard",
        "24:suckerpunch",
        "28:agility",
        "32:dig",
        "36:closecombat",
        "40:counter",
        "44:endeavor",
        "tm:attract",
        "tm:bodyslam",
        "tm:brickbreak",
        "tm:brutalswing",
        "tm:bulkup",
        "tm:bulldoze",
        "tm:drillrun",
        "tm:earthquake",
        "tm:endure",
        "tm:facade",
        "tm:focusblast",
        "tm:lowkick",
        "tm:lowsweep",
        "tm:megakick",
        "tm:megapunch",
        "tm:protect",
        "tm:raindance",
        "tm:rest",
        "tm:retaliate",
        "tm:rockslide",
        "tm:round",
        "tm:sandstorm",
        "tm:sleeptalk",
        "tm:snore",
        "tm:stoneedge",
        "tm:substitute",
        "tm:sunnyday",
        "tm:swift",
        "tm:thief",
        "tm:uproar",
        "tm:workup",
        "tutor:coaching",
        "tutor:tripleaxel"
    ],
    "labels": [
        "gen2"
    ],
    "pokedex": [
        "pokemoncobbled.species.hitmontop.desc1",
        "pokemoncobbled.species.hitmontop.desc2"
    ],
    "preEvolution": "tyrogue",
    "evolutions": [],
    "baseScale": 1.0,
    "hitbox": {
        "width": 1.0,
        "height": 1.0,
        "fixed": false
    }
}