{
    "name": "jumpluff",
    "nationalPokedexNumber": 189,
    "primaryType": "grass",
    "secondaryType": "flying",
    "abilities": [
        "chlorophyll",
        "leafguard",
        "h:infiltrator"
    ],
    "baseStats": {
        "hp": 75,
        "attack": 55,
        "defence": 70,
        "special_attack": 55,
        "special_defence": 95,
        "speed": 110
    },
    "catchRate": 45,
    "maleRatio": 0.5,
    "shoulderMountable": false,
    "forms": [],
    "baseExperienceYield": 207,
    "experienceGroup": "mediumslow",
    "eggCycles": 20,
    "eggGroups": [
        "fairy",
        "plant"
    ],
    "moves": [
        "1:tailwhip",
        "1:absorb",
        "1:splash",
        "1:synthesis",
        "8:tackle",
        "10:fairywind",
        "12:poisonpowder",
        "14:stunspore",
        "16:sleeppowder",
        "20:bulletseed",
        "24:leechseed",
        "29:megadrain",
        "34:acrobatics",
        "39:ragepowder",
        "44:cottonspore",
        "49:uturn",
        "54:worryseed",
        "59:gigadrain",
        "64:bounce",
        "69:memento",
        "tm:aerialace",
        "tm:attract",
        "tm:confide",
        "tm:dazzlinggleam",
        "tm:doubleteam",
        "tm:energyball",
        "tm:facade",
        "tm:frustration",
        "tm:gigaimpact",
        "tm:grassknot",
        "tm:hiddenpower",
        "tm:hyperbeam",
        "tm:infestation",
        "tm:protect",
        "tm:psychup",
        "tm:reflect",
        "tm:rest",
        "tm:return",
        "tm:round",
        "tm:sleeptalk",
        "tm:solarbeam",
        "tm:substitute",
        "tm:sunnyday",
        "tm:swagger",
        "tm:swordsdance",
        "tm:toxic",
        "tutor:helpinghand",
        "tutor:seedbomb",
        "tutor:snore"
    ],
    "labels": [
        "gen2"
    ],
    "pokedex": [
        "pokemoncobbled.species.jumpluff.desc1"
    ],
    "preEvolution": "skiploom",
    "evolutions": [],
    "baseScale": 1.0,
    "hitbox": {
        "width": 1.0,
        "height": 1.0,
        "fixed": false
    }
}