{
    "name": "larvitar",
    "nationalPokedexNumber": 246,
    "primaryType": "rock",
    "secondaryType": "ground",
    "abilities": [
        "guts",
        "h:sandveil"
    ],
    "baseStats": {
        "hp": 50,
        "attack": 64,
        "defence": 50,
        "special_attack": 45,
        "special_defence": 50,
        "speed": 41
    },
    "catchRate": 45,
    "maleRatio": 0.5,
    "shoulderMountable": false,
    "forms": [],
    "baseExperienceYield": 60,
    "experienceGroup": "slow",
    "eggCycles": 40,
    "eggGroups": [
        "monster"
    ],
    "moves": [
        "1:tackle",
        "1:leer",
        "3:rockthrow",
        "6:payback",
        "9:bite",
        "12:scaryface",
        "15:rockslide",
        "18:stompingtantrum",
        "21:screech",
        "24:darkpulse",
        "27:crunch",
        "31:earthquake",
        "33:stoneedge",
        "36:thrash",
        "39:sandstorm",
        "42:hyperbeam",
        "egg:ancientpower",
        "egg:curse",
        "egg:stomp",
        "tm:assurance",
        "tm:attract",
        "tm:bodyslam",
        "tm:brickbreak",
        "tm:bulldoze",
        "tm:dig",
        "tm:dragondance",
        "tm:earthpower",
        "tm:endure",
        "tm:facade",
        "tm:focusenergy",
        "tm:irondefense",
        "tm:ironhead",
        "tm:irontail",
        "tm:muddywater",
        "tm:outrage",
        "tm:protect",
        "tm:raindance",
        "tm:rest",
        "tm:retaliate",
        "tm:rocktomb",
        "tm:round",
        "tm:sandtomb",
        "tm:sleeptalk",
        "tm:snarl",
        "tm:snore",
        "tm:stealthrock",
        "tm:substitute",
        "tm:sunnyday",
        "tm:superpower",
        "tm:taunt",
        "tm:uproar"
    ],
    "labels": [
        "gen2"
    ],
    "pokedex": [
        "pokemoncobbled.species.larvitar.desc1",
        "pokemoncobbled.species.larvitar.desc2"
    ],
    "evolutions": [
        {
            "id": "larvitar_pupitar",
            "variant": "level_up",
            "result": "pupitar",
            "consumeHeldItem": false,
            "learnableMoves": [],
            "requirements": [
                {
                    "variant": "level",
                    "minLevel": 30
                }
            ]
        }
    ],
    "baseScale": 1.0,
    "hitbox": {
        "width": 1.0,
        "height": 1.0,
        "fixed": false
    }
}