{
    "name": "lugia",
    "nationalPokedexNumber": 249,
    "primaryType": "psychic",
    "secondaryType": "flying",
    "abilities": [
        "pressure",
        "h:multiscale"
    ],
    "baseStats": {
        "hp": 106,
        "attack": 90,
        "defence": 130,
        "special_attack": 90,
        "special_defence": 154,
        "speed": 110
    },
    "catchRate": 3,
    "maleRatio": 1.125,
    "shoulderMountable": false,
    "forms": [],
    "baseExperienceYield": 340,
    "experienceGroup": "slow",
    "eggCycles": 120,
    "eggGroups": [
        "no-eggs"
    ],
    "moves": [
        "1:gust",
        "1:whirlwind",
        "1:ancientpower",
        "1:weatherball",
        "1:dragonrush",
        "9:mist",
        "18:safeguard",
        "27:calmmind",
        "36:extrasensory",
        "45:recover",
        "54:aeroblast",
        "63:raindance",
        "72:hydropump",
        "81:futuresight",
        "90:skyattack",
        "tm:airslash",
        "tm:avalanche",
        "tm:blizzard",
        "tm:bodyslam",
        "tm:brine",
        "tm:bulldoze",
        "tm:dive",
        "tm:dragonpulse",
        "tm:earthpower",
        "tm:earthquake",
        "tm:endure",
        "tm:facade",
        "tm:fly",
        "tm:gigadrain",
        "tm:gigaimpact",
        "tm:hail",
        "tm:helpinghand",
        "tm:hurricane",
        "tm:hyperbeam",
        "tm:hypervoice",
        "tm:icebeam",
        "tm:icywind",
        "tm:imprison",
        "tm:ironhead",
        "tm:irontail",
        "tm:lightscreen",
        "tm:protect",
        "tm:psychic",
        "tm:psyshock",
        "tm:reflect",
        "tm:rest",
        "tm:round",
        "tm:sandstorm",
        "tm:shadowball",
        "tm:skillswap",
        "tm:sleeptalk",
        "tm:snore",
        "tm:steelwing",
        "tm:substitute",
        "tm:sunnyday",
        "tm:surf",
        "tm:swift",
        "tm:thunder",
        "tm:thunderbolt",
        "tm:thunderwave",
        "tm:trick",
        "tm:waterfall",
        "tm:whirlpool",
        "tm:wonderroom",
        "tm:zenheadbutt",
        "tutor:dualwingbeat",
        "tutor:scaleshot"
    ],
    "labels": [
        "legendary",
        "gen2"
    ],
    "pokedex": [
        "pokemoncobbled.species.lugia.desc1"
    ],
    "evolutions": [],
    "baseScale": 1.0,
    "hitbox": {
        "width": 1.0,
        "height": 1.0,
        "fixed": false
    }
}