{
    "name": "pineco",
    "nationalPokedexNumber": 204,
    "primaryType": "bug",
    "abilities": [
        "sturdy",
        "h:overcoat"
    ],
    "baseStats": {
        "hp": 50,
        "attack": 65,
        "defence": 90,
        "special_attack": 35,
        "special_defence": 35,
        "speed": 15
    },
    "catchRate": 190,
    "maleRatio": 0.5,
    "shoulderMountable": false,
    "forms": [],
    "baseExperienceYield": 58,
    "experienceGroup": "mediumfast",
    "eggCycles": 20,
    "eggGroups": [
        "bug"
    ],
    "moves": [
        "1:tackle",
        "1:protect",
        "6:selfdestruct",
        "9:bugbite",
        "12:takedown",
        "17:rapidspin",
        "20:bide",
        "23:naturalgift",
        "28:spikes",
        "31:payback",
        "34:explosion",
        "39:irondefense",
        "42:gyroball",
        "45:doubleedge",
        "egg:counter",
        "egg:endure",
        "egg:flail",
        "egg:pinmissile",
        "egg:powertrick",
        "egg:revenge",
        "egg:sandtomb",
        "egg:stealthrock",
        "egg:swift",
        "egg:toxicspikes",
        "tm:attract",
        "tm:bulldoze",
        "tm:confide",
        "tm:doubleteam",
        "tm:earthquake",
        "tm:facade",
        "tm:frustration",
        "tm:hiddenpower",
        "tm:lightscreen",
        "tm:reflect",
        "tm:rest",
        "tm:return",
        "tm:rockslide",
        "tm:rocktomb",
        "tm:round",
        "tm:sandstorm",
        "tm:sleeptalk",
        "tm:solarbeam",
        "tm:substitute",
        "tm:sunnyday",
        "tm:swagger",
        "tm:toxic",
        "tm:venoshock",
        "tutor:drillrun",
        "tutor:gigadrain",
        "tutor:gravity",
        "tutor:painsplit",
        "tutor:snore"
    ],
    "labels": [
        "gen2"
    ],
    "pokedex": [
        "pokemoncobbled.species.pineco.desc1",
        "pokemoncobbled.species.pineco.desc2"
    ],
    "evolutions": [
        {
            "id": "pineco_forretress",
            "variant": "level_up",
            "result": "forretress",
            "consumeHeldItem": false,
            "learnableMoves": [],
            "requirements": [
                {
                    "variant": "level",
                    "minLevel": 31
                }
            ]
        }
    ],
    "baseScale": 1.0,
    "hitbox": {
        "width": 1.0,
        "height": 1.0,
        "fixed": false
    }
}