{
    "name": "quilava",
    "nationalPokedexNumber": 156,
    "primaryType": "fire",
    "abilities": [
        "blaze",
        "h:flashfire"
    ],
    "baseStats": {
        "hp": 58,
        "attack": 64,
        "defence": 58,
        "special_attack": 80,
        "special_defence": 65,
        "speed": 80
    },
    "catchRate": 45,
    "maleRatio": 0.875,
    "shoulderMountable": false,
    "forms": [],
    "baseExperienceYield": 142,
    "experienceGroup": "mediumslow",
    "eggCycles": 20,
    "eggGroups": [
        "ground"
    ],
    "moves": [
        "1:tackle",
        "1:leer",
        "1:smokescreen",
        "10:ember",
        "13:quickattack",
        "20:flamewheel",
        "24:defensecurl",
        "31:swift",
        "35:flamecharge",
        "42:lavaplume",
        "46:flamethrower",
        "53:inferno",
        "57:rollout",
        "64:doubleedge",
        "68:burnup",
        "75:eruption",
        "tm:aerialace",
        "tm:attract",
        "tm:brickbreak",
        "tm:confide",
        "tm:doubleteam",
        "tm:facade",
        "tm:fireblast",
        "tm:frustration",
        "tm:hiddenpower",
        "tm:naturepower",
        "tm:overheat",
        "tm:protect",
        "tm:rest",
        "tm:return",
        "tm:roar",
        "tm:round",
        "tm:sleeptalk",
        "tm:substitute",
        "tm:sunnyday",
        "tm:swagger",
        "tm:toxic",
        "tm:wildcharge",
        "tm:willowisp",
        "tm:workup",
        "tutor:covet",
        "tutor:firepledge",
        "tutor:focuspunch",
        "tutor:heatwave",
        "tutor:snore"
    ],
    "labels": [
        "gen2"
    ],
    "pokedex": [
        "pokemoncobbled.species.quilava.desc1",
        "pokemoncobbled.species.quilava.desc2"
    ],
    "preEvolution": "cyndaquil",
    "evolutions": [
        {
            "id": "quilava_typhlosion",
            "variant": "level_up",
            "result": "typhlosion",
            "consumeHeldItem": false,
            "learnableMoves": [],
            "requirements": [
                {
                    "variant": "level",
                    "minLevel": 36
                }
            ]
        }
    ],
    "baseScale": 1.0,
    "hitbox": {
        "width": 1.0,
        "height": 1.0,
        "fixed": false
    }
}