{
    "name": "remoraid",
    "nationalPokedexNumber": 223,
    "primaryType": "water",
    "abilities": [
        "hustle",
        "sniper",
        "h:moody"
    ],
    "baseStats": {
        "hp": 35,
        "attack": 65,
        "defence": 35,
        "special_attack": 65,
        "special_defence": 35,
        "speed": 65
    },
    "catchRate": 190,
    "maleRatio": 0.5,
    "shoulderMountable": false,
    "forms": [],
    "baseExperienceYield": 60,
    "experienceGroup": "mediumfast",
    "eggCycles": 20,
    "eggGroups": [
        "water1",
        "water2"
    ],
    "moves": [
        "1:watergun",
        "1:helpinghand",
        "4:waterpulse",
        "8:focusenergy",
        "12:psybeam",
        "16:aurorabeam",
        "20:bubblebeam",
        "24:lockon",
        "28:bulletseed",
        "32:icebeam",
        "36:hydropump",
        "40:soak",
        "44:hyperbeam",
        "egg:acidspray",
        "egg:flail",
        "egg:haze",
        "egg:octazooka",
        "egg:supersonic",
        "egg:waterspout",
        "tm:assurance",
        "tm:attract",
        "tm:blizzard",
        "tm:bounce",
        "tm:brine",
        "tm:dive",
        "tm:endure",
        "tm:facade",
        "tm:fireblast",
        "tm:flamethrower",
        "tm:gunkshot",
        "tm:icywind",
        "tm:mudshot",
        "tm:protect",
        "tm:psychic",
        "tm:raindance",
        "tm:rest",
        "tm:rockblast",
        "tm:round",
        "tm:scald",
        "tm:screech",
        "tm:seedbomb",
        "tm:sleeptalk",
        "tm:snore",
        "tm:substitute",
        "tm:sunnyday",
        "tm:surf",
        "tm:swift",
        "tm:thief",
        "tm:thunderwave",
        "tm:waterfall",
        "tm:whirlpool"
    ],
    "labels": [
        "gen2"
    ],
    "pokedex": [
        "pokemoncobbled.species.remoraid.desc1",
        "pokemoncobbled.species.remoraid.desc2"
    ],
    "evolutions": [
        {
            "id": "remoraid_octillery",
            "variant": "level_up",
            "result": "octillery",
            "consumeHeldItem": false,
            "learnableMoves": [],
            "requirements": [
                {
                    "variant": "level",
                    "minLevel": 25
                }
            ]
        }
    ],
    "baseScale": 1.0,
    "hitbox": {
        "width": 1.0,
        "height": 1.0,
        "fixed": false
    }
}