{
    "name": "spinarak",
    "nationalPokedexNumber": 167,
    "primaryType": "bug",
    "secondaryType": "poison",
    "abilities": [
        "swarm",
        "insomnia",
        "h:sniper"
    ],
    "baseStats": {
        "hp": 40,
        "attack": 60,
        "defence": 40,
        "special_attack": 40,
        "special_defence": 40,
        "speed": 30
    },
    "catchRate": 255,
    "maleRatio": 0.5,
    "shoulderMountable": false,
    "forms": [],
    "baseExperienceYield": 50,
    "experienceGroup": "fast",
    "eggCycles": 15,
    "eggGroups": [
        "bug"
    ],
    "moves": [
        "1:poisonsting",
        "1:stringshot",
        "1:constrict",
        "5:absorb",
        "8:infestation",
        "12:scaryface",
        "15:nightshade",
        "19:shadowsneak",
        "22:furyswipes",
        "26:suckerpunch",
        "29:spiderweb",
        "33:agility",
        "36:pinmissile",
        "40:psychic",
        "43:poisonjab",
        "47:crosspoison",
        "50:stickyweb",
        "54:toxicthread",
        "egg:batonpass",
        "egg:disable",
        "egg:electroweb",
        "egg:lunge",
        "egg:megahorn",
        "egg:nightslash",
        "egg:psybeam",
        "egg:pursuit",
        "egg:ragepowder",
        "egg:signalbeam",
        "egg:sonicboom",
        "egg:toxicspikes",
        "egg:twineedle",
        "tm:attract",
        "tm:confide",
        "tm:doubleteam",
        "tm:facade",
        "tm:frustration",
        "tm:hiddenpower",
        "tm:leechlife",
        "tm:protect",
        "tm:rest",
        "tm:return",
        "tm:round",
        "tm:sleeptalk",
        "tm:sludgebomb",
        "tm:solarbeam",
        "tm:substitute",
        "tm:sunnyday",
        "tm:swagger",
        "tm:thief",
        "tm:toxic",
        "tm:venoshock",
        "tm:xscissor",
        "tutor:bounce",
        "tutor:bugbite",
        "tutor:foulplay",
        "tutor:gigadrain",
        "tutor:snore"
    ],
    "labels": [
        "gen2"
    ],
    "pokedex": [
        "pokemoncobbled.species.spinarak.desc1",
        "pokemoncobbled.species.spinarak.desc2"
    ],
    "evolutions": [
        {
            "id": "spinarak_ariados",
            "variant": "level_up",
            "result": "ariados",
            "consumeHeldItem": false,
            "learnableMoves": [],
            "requirements": [
                {
                    "variant": "level",
                    "minLevel": 22
                }
            ]
        }
    ],
    "baseScale": 1.0,
    "hitbox": {
        "width": 1.0,
        "height": 1.0,
        "fixed": false
    }
}