{
    "name": "teddiursa",
    "nationalPokedexNumber": 216,
    "primaryType": "normal",
    "abilities": [
        "pickup",
        "quickfeet",
        "h:honeygather"
    ],
    "baseStats": {
        "hp": 60,
        "attack": 80,
        "defence": 50,
        "special_attack": 50,
        "special_defence": 50,
        "speed": 40
    },
    "catchRate": 120,
    "maleRatio": 0.5,
    "shoulderMountable": false,
    "forms": [],
    "baseExperienceYield": 66,
    "experienceGroup": "mediumfast",
    "eggCycles": 20,
    "eggGroups": [
        "ground"
    ],
    "moves": [
        "1:scratch",
        "1:lick",
        "1:faketears",
        "1:covet",
        "1:fling",
        "1:babydolleyes",
        "8:furyswipes",
        "15:feintattack",
        "22:sweetscent",
        "25:playnice",
        "29:slash",
        "36:charm",
        "43:rest",
        "43:snore",
        "50:thrash",
        "egg:bellydrum",
        "egg:chipaway",
        "egg:closecombat",
        "egg:counter",
        "egg:crosschop",
        "egg:crunch",
        "egg:doubleedge",
        "egg:metalclaw",
        "egg:nightslash",
        "egg:playrough",
        "egg:seismictoss",
        "egg:sleeptalk",
        "egg:takedown",
        "egg:yawn",
        "tm:aerialace",
        "tm:attract",
        "tm:brickbreak",
        "tm:bulkup",
        "tm:bulldoze",
        "tm:confide",
        "tm:doubleteam",
        "tm:earthquake",
        "tm:facade",
        "tm:frustration",
        "tm:hiddenpower",
        "tm:payback",
        "tm:protect",
        "tm:raindance",
        "tm:return",
        "tm:roar",
        "tm:rockslide",
        "tm:rocktomb",
        "tm:round",
        "tm:shadowclaw",
        "tm:substitute",
        "tm:sunnyday",
        "tm:swagger",
        "tm:swordsdance",
        "tm:taunt",
        "tm:thief",
        "tm:torment",
        "tm:toxic",
        "tm:workup",
        "tutor:firepunch",
        "tutor:focuspunch",
        "tutor:gunkshot",
        "tutor:hypervoice",
        "tutor:icepunch",
        "tutor:lastresort",
        "tutor:seedbomb",
        "tutor:superpower",
        "tutor:thunderpunch"
    ],
    "labels": [
        "gen2"
    ],
    "pokedex": [
        "pokemoncobbled.species.teddiursa.desc1"
    ],
    "evolutions": [
        {
            "id": "teddiursa_ursaring",
            "variant": "level_up",
            "result": "ursaring",
            "consumeHeldItem": false,
            "learnableMoves": [],
            "requirements": [
                {
                    "variant": "level",
                    "minLevel": 30
                }
            ]
        }
    ],
    "baseScale": 1.0,
    "hitbox": {
        "width": 1.0,
        "height": 1.0,
        "fixed": false
    }
}