{
	"format_version": "1.12.0",
	"minecraft:geometry": [
		{
			"description": {
				"identifier": "geometry.scizor_male",
				"texture_width": 128,
				"texture_height": 128,
				"visible_bounds_width": 5,
				"visible_bounds_height": 3.5,
				"visible_bounds_offset": [0, 1.25, 0]
			},
			"bones": [
				{
					"name": "scizor",
					"pivot": [0, 0, 0],
					"rotation": [-180, 0, 180]
				},
				{
					"name": "body",
					"parent": "scizor",
					"pivot": [0, 20.75, 0],
					"cubes": [
						{"origin": [-3.5, 21.25, -2.25], "size": [7, 7, 5], "pivot": [0, 24.75, 0.25], "rotation": [-5, 0, 0], "uv": [24, 0]},
						{"origin": [-1.5, 19.25, -1.5], "size": [3, 3, 3], "uv": [51, 50]},
						{"origin": [-3.5, 11.75, -2.25], "size": [7, 8, 6], "pivot": [0, 14.25, 0.75], "rotation": [10, 0, 0], "uv": [20, 21]},
						{"origin": [-2.5, 9.75, -1.25], "size": [5, 2, 4], "pivot": [0, 14.25, 0.75], "rotation": [10, 0, 0], "uv": [95, 48]}
					]
				},
				{
					"name": "neck",
					"parent": "body",
					"pivot": [0, 28, 1],
					"cubes": [
						{"origin": [-1, 27.25, 0], "size": [2, 3, 2], "uv": [17, 0]}
					]
				},
				{
					"name": "head",
					"parent": "neck",
					"pivot": [0, 29.75, 1],
					"cubes": [
						{"origin": [-2.5, 29.75, -1.75], "size": [5, 5, 7], "uv": [0, 0]},
						{"origin": [-3.49103, 31.58772, -5.01554], "size": [0, 4, 7], "pivot": [-3.49103, 33.58772, -1.51554], "rotation": [-25, 25, 0], "uv": [0, 39]},
						{"origin": [-2, 33.25, -1.5], "size": [4, 7, 0], "pivot": [-0.5, 36.25, -1.5], "rotation": [60, 0, 0], "uv": [44, 56]},
						{"origin": [3.49103, 31.58772, -5.01554], "size": [0, 4, 7], "pivot": [3.49103, 33.58772, -1.51554], "rotation": [-25, -25, 0], "uv": [0, 26]}
					]
				},
				{
					"name": "eyes",
					"parent": "head",
					"pivot": [0, 31.9962, 3.20659],
					"cubes": [
						{"origin": [2.5, 31.06651, 1.55581], "size": [0, 2, 3], "inflate": 0.02, "pivot": [2.5, 31.75, 3], "rotation": [-30, 0, 0], "uv": [122, 15], "mirror": true},
						{"origin": [-2.5, 31.06651, 1.55581], "size": [0, 2, 3], "inflate": 0.02, "pivot": [-2.5, 31.75, 3], "rotation": [-30, 0, 0], "uv": [122, 15]}
					]
				},
				{
					"name": "lefttopwing",
					"parent": "body",
					"pivot": [-3, 28.5, -2],
					"cubes": [
						{"origin": [-3, 22.75, -15], "size": [0, 7, 13], "uv": [0, 7]}
					]
				},
				{
					"name": "righttopwing",
					"parent": "body",
					"pivot": [3, 28.5, -2],
					"cubes": [
						{"origin": [3, 22.75, -15], "size": [0, 7, 13], "uv": [0, 0]}
					]
				},
				{
					"name": "leftbottomwing",
					"parent": "body",
					"pivot": [-2.75, 22.25, -2],
					"rotation": [7.5, 0, 0],
					"cubes": [
						{"origin": [-2.75, 19.24358, -10.90211], "size": [0, 6, 9], "uv": [26, 28]}
					]
				},
				{
					"name": "rightbottomwing",
					"parent": "body",
					"pivot": [2.75, 22.25, -2],
					"rotation": [7.5, 0, 0],
					"cubes": [
						{"origin": [2.75, 19.24358, -10.90211], "size": [0, 6, 9], "uv": [0, 18]}
					]
				},
				{
					"name": "leftarm",
					"parent": "body",
					"pivot": [-3.5, 26.75, 0],
					"cubes": [
						{"origin": [-8.5, 24.75, -1.5], "size": [5, 4, 3], "uv": [0, 50]}
					]
				},
				{
					"name": "leftforearm3",
					"parent": "leftarm",
					"pivot": [-7.25, 25.5, 0],
					"rotation": [0, 0, -55],
					"cubes": [
						{"origin": [-12.25, 24.5, -0.5], "size": [6, 2, 1], "uv": [50, 40]}
					]
				},
				{
					"name": "leftforearm4",
					"parent": "leftforearm3",
					"pivot": [-12.25, 25.5, 0],
					"cubes": [
						{"origin": [-15.25, 24.5, -0.5], "size": [3, 2, 1], "uv": [13, 49]}
					]
				},
				{
					"name": "leftclaw",
					"parent": "leftforearm4",
					"pivot": [-14.25, 25.5, 0],
					"cubes": [
						{"origin": [-23.25, 24.5, -2], "size": [9, 5, 4], "inflate": 0.02, "uv": [26, 12]},
						{"origin": [-23.25, 22.5, -2], "size": [7, 2, 0], "inflate": 0.02, "uv": [81, 0], "mirror": true},
						{"origin": [-23.25, 21.5, -2], "size": [0, 3, 4], "inflate": 0.02, "uv": [108, -4], "mirror": true},
						{"origin": [-23.25, 22.5, 2], "size": [7, 2, 0], "inflate": 0.02, "uv": [81, 2], "mirror": true}
					]
				},
				{
					"name": "leftclawjaw",
					"parent": "leftclaw",
					"pivot": [-14.25, 24.5, 0],
					"rotation": [0, 0, 2.5],
					"cubes": [
						{"origin": [-22.25, 22.75, -1.5], "size": [8, 2, 3], "uv": [40, 21]}
					]
				},
				{
					"name": "rightarm",
					"parent": "body",
					"pivot": [3.5, 26.75, 0],
					"cubes": [
						{"origin": [3.5, 24.75, -1.5], "size": [5, 4, 3], "uv": [50, 33]}
					]
				},
				{
					"name": "rightforearm",
					"parent": "rightarm",
					"pivot": [7.25, 25.5, 0],
					"rotation": [0, 0, 55],
					"cubes": [
						{"origin": [6.25, 24.5, -0.5], "size": [6, 2, 1], "uv": [54, 43]}
					]
				},
				{
					"name": "rightforearm2",
					"parent": "rightforearm",
					"pivot": [12.25, 25.5, 0],
					"cubes": [
						{"origin": [12.25, 24.5, -0.5], "size": [3, 2, 1], "uv": [54, 46]}
					]
				},
				{
					"name": "rightclaw",
					"parent": "rightforearm2",
					"pivot": [14.25, 25.5, 0],
					"cubes": [
						{"origin": [14.25, 24.5, -2], "size": [9, 5, 4], "inflate": 0.02, "uv": [0, 37]},
						{"origin": [23.25, 21.5, -2], "size": [0, 3, 4], "inflate": 0.02, "uv": [108, -4]},
						{"origin": [16.25, 22.5, -2], "size": [7, 2, 0], "inflate": 0.02, "uv": [81, 0]},
						{"origin": [16.25, 22.5, 2], "size": [7, 2, 0], "inflate": 0.02, "uv": [81, 2]}
					]
				},
				{
					"name": "rightclawjaw",
					"parent": "rightclaw",
					"pivot": [14.25, 24.5, 0],
					"rotation": [0, 0, -2.5],
					"cubes": [
						{"origin": [14.25, 22.75, -1.5], "size": [8, 2, 3], "uv": [43, 0]}
					]
				},
				{
					"name": "leftleg",
					"parent": "body",
					"pivot": [-3.5, 17, 0.25],
					"cubes": [
						{"origin": [-8.5, 15, -1.25], "size": [5, 4, 3], "uv": [46, 26]}
					]
				},
				{
					"name": "leftknee",
					"parent": "leftleg",
					"pivot": [-6.75, 15, 0.25],
					"cubes": [
						{"origin": [-7.75, 9, -0.75], "size": [2, 7, 2], "uv": [52, 12]}
					]
				},
				{
					"name": "leftfoot",
					"parent": "leftknee",
					"pivot": [-6.75, 10, 0.25],
					"cubes": [
						{"origin": [-8.25, 0, -2], "size": [3, 10, 4], "uv": [40, 39]},
						{"origin": [-6.75, 0, 2], "size": [0, 3, 4], "uv": [32, 39]},
						{"origin": [-6.75, 0, -4], "size": [0, 2, 2], "uv": [0, 0]}
					]
				},
				{
					"name": "rightleg",
					"parent": "body",
					"pivot": [3.5, 17, 0.25],
					"cubes": [
						{"origin": [3.5, 15, -1.25], "size": [5, 4, 3], "uv": [48, 5]}
					]
				},
				{
					"name": "rightknee",
					"parent": "rightleg",
					"pivot": [6.75, 15, 0.25],
					"cubes": [
						{"origin": [5.75, 9, -0.75], "size": [2, 7, 2], "uv": [36, 53]}
					]
				},
				{
					"name": "rightfoot",
					"parent": "rightknee",
					"pivot": [6.75, 10, 0.25],
					"cubes": [
						{"origin": [5.25, 0, -2], "size": [3, 10, 4], "uv": [22, 43]},
						{"origin": [6.75, 0, 2], "size": [0, 3, 4], "uv": [14, 42]},
						{"origin": [6.75, 0, -4], "size": [0, 2, 2], "uv": [0, 2]}
					]
				}
			]
		}
	]
}