{
    "name": "azelf",
    "nationalPokedexNumber": 482,
    "primaryType": "psychic",
    "abilities": [
        "levitate"
    ],
    "baseStats": {
        "hp": 75,
        "attack": 125,
        "defence": 70,
        "special_attack": 125,
        "special_defence": 70,
        "speed": 115
    },
    "catchRate": 3,
    "maleRatio": 1.125,
    "shoulderMountable": false,
    "forms": [],
    "baseExperienceYield": 290,
    "experienceGroup": "slow",
    "eggCycles": 80,
    "eggGroups": [
        "no-eggs"
    ],
    "moves": [
        "1:confusion",
        "1:rest",
        "7:swift",
        "14:detect",
        "21:psybeam",
        "28:imprison",
        "35:extrasensory",
        "42:nastyplot",
        "49:psychic",
        "56:uproar",
        "63:futuresight",
        "70:lastresort",
        "77:explosion",
        "tm:acrobatics",
        "tm:allyswitch",
        "tm:assurance",
        "tm:batonpass",
        "tm:calmmind",
        "tm:dazzlinggleam",
        "tm:drainingkiss",
        "tm:drainpunch",
        "tm:encore",
        "tm:endure",
        "tm:energyball",
        "tm:facade",
        "tm:fireblast",
        "tm:firepunch",
        "tm:flamethrower",
        "tm:fling",
        "tm:gigaimpact",
        "tm:grassknot",
        "tm:helpinghand",
        "tm:hyperbeam",
        "tm:icepunch",
        "tm:irontail",
        "tm:lightscreen",
        "tm:magicroom",
        "tm:metronome",
        "tm:payback",
        "tm:playrough",
        "tm:protect",
        "tm:psychocut",
        "tm:psyshock",
        "tm:raindance",
        "tm:reflect",
        "tm:round",
        "tm:safeguard",
        "tm:sandstorm",
        "tm:selfdestruct",
        "tm:shadowball",
        "tm:skillswap",
        "tm:sleeptalk",
        "tm:snore",
        "tm:stealthrock",
        "tm:storedpower",
        "tm:substitute",
        "tm:sunnyday",
        "tm:taunt",
        "tm:thunder",
        "tm:thunderbolt",
        "tm:thunderpunch",
        "tm:thunderwave",
        "tm:triattack",
        "tm:trick",
        "tm:trickroom",
        "tm:uturn",
        "tm:wonderroom",
        "tm:zenheadbutt",
        "tutor:expandingforce"
    ],
    "labels": [
        "legendary",
        "gen4"
    ],
    "pokedex": [
        "pokemoncobbled.species.azelf.desc1",
        "pokemoncobbled.species.azelf.desc2"
    ],
    "evolutions": [],
    "baseScale": 1.0,
    "hitbox": {
        "width": 1.0,
        "height": 1.0,
        "fixed": false
    }
}