{
    "name": "bonsly",
    "nationalPokedexNumber": 438,
    "primaryType": "rock",
    "abilities": [
        "sturdy",
        "rockhead",
        "h:rattled"
    ],
    "baseStats": {
        "hp": 50,
        "attack": 80,
        "defence": 95,
        "special_attack": 10,
        "special_defence": 45,
        "speed": 10
    },
    "catchRate": 255,
    "maleRatio": 0.5,
    "shoulderMountable": false,
    "forms": [],
    "baseExperienceYield": 58,
    "experienceGroup": "mediumfast",
    "eggCycles": 20,
    "eggGroups": [
        "no-eggs"
    ],
    "moves": [
        "1:faketears",
        "1:copycat",
        "4:flail",
        "8:rockthrow",
        "12:block",
        "16:mimic",
        "20:rocktomb",
        "24:tearfullook",
        "28:suckerpunch",
        "32:rockslide",
        "36:lowkick",
        "40:counter",
        "44:doubleedge",
        "egg:curse",
        "egg:defensecurl",
        "egg:harden",
        "egg:headbutt",
        "egg:rockpolish",
        "egg:rollout",
        "tm:attract",
        "tm:brickbreak",
        "tm:calmmind",
        "tm:dig",
        "tm:earthpower",
        "tm:endure",
        "tm:facade",
        "tm:foulplay",
        "tm:helpinghand",
        "tm:protect",
        "tm:rest",
        "tm:round",
        "tm:sandstorm",
        "tm:sandtomb",
        "tm:selfdestruct",
        "tm:sleeptalk",
        "tm:snore",
        "tm:stealthrock",
        "tm:stompingtantrum",
        "tm:substitute",
        "tm:sunnyday",
        "tm:thief",
        "tm:uproar"
    ],
    "labels": [
        "baby",
        "gen4"
    ],
    "pokedex": [
        "pokemoncobbled.species.bonsly.desc1",
        "pokemoncobbled.species.bonsly.desc2"
    ],
    "evolutions": [
        {
            "id": "bonsly_sudowoodo",
            "variant": "level_up",
            "result": "sudowoodo",
            "consumeHeldItem": false,
            "learnableMoves": [],
            "requirements": [
                {
                    "variant": "has_move",
                    "move": "mimic"
                }
            ]
        }
    ],
    "baseScale": 1.0,
    "hitbox": {
        "width": 1.0,
        "height": 1.0,
        "fixed": false
    }
}