{
    "name": "budew",
    "nationalPokedexNumber": 406,
    "primaryType": "grass",
    "secondaryType": "poison",
    "abilities": [
        "naturalcure",
        "poisonpoint",
        "h:leafguard"
    ],
    "baseStats": {
        "hp": 40,
        "attack": 30,
        "defence": 35,
        "special_attack": 50,
        "special_defence": 70,
        "speed": 55
    },
    "catchRate": 255,
    "maleRatio": 0.5,
    "shoulderMountable": false,
    "forms": [],
    "baseExperienceYield": 56,
    "experienceGroup": "mediumslow",
    "eggCycles": 20,
    "eggGroups": [
        "no-eggs"
    ],
    "moves": [
        "1:absorb",
        "1:growth",
        "1:stunspore",
        "1:worryseed",
        "egg:cottonspore",
        "egg:extrasensory",
        "egg:lifedew",
        "egg:razorleaf",
        "egg:sleeppowder",
        "egg:synthesis",
        "tm:attract",
        "tm:bulletseed",
        "tm:dazzlinggleam",
        "tm:endure",
        "tm:energyball",
        "tm:facade",
        "tm:gigadrain",
        "tm:grassknot",
        "tm:leafstorm",
        "tm:pinmissile",
        "tm:protect",
        "tm:raindance",
        "tm:rest",
        "tm:round",
        "tm:seedbomb",
        "tm:shadowball",
        "tm:sleeptalk",
        "tm:sludgebomb",
        "tm:snore",
        "tm:solarbeam",
        "tm:spikes",
        "tm:substitute",
        "tm:sunnyday",
        "tm:swift",
        "tm:swordsdance",
        "tm:uproar",
        "tm:venoshock",
        "tm:weatherball",
        "tutor:grassyglide"
    ],
    "labels": [
        "baby",
        "gen4"
    ],
    "pokedex": [
        "pokemoncobbled.species.budew.desc1",
        "pokemoncobbled.species.budew.desc2"
    ],
    "evolutions": [
        {
            "id": "budew_roselia",
            "variant": "level_up",
            "result": "roselia",
            "consumeHeldItem": false,
            "learnableMoves": [],
            "requirements": [
                {
                    "variant": "friendship",
                    "amount": 160
                },
                {
                    "variant": "time_range",
                    "range": "day"
                }
            ]
        }
    ],
    "baseScale": 1.0,
    "hitbox": {
        "width": 1.0,
        "height": 1.0,
        "fixed": false
    }
}