{
    "name": "burmy",
    "nationalPokedexNumber": 412,
    "primaryType": "bug",
    "abilities": [
        "shedskin",
        "h:overcoat"
    ],
    "baseStats": {
        "hp": 40,
        "attack": 29,
        "defence": 45,
        "special_attack": 29,
        "special_defence": 45,
        "speed": 36
    },
    "catchRate": 120,
    "maleRatio": 0.5,
    "shoulderMountable": false,
    "forms": [],
    "baseExperienceYield": 45,
    "experienceGroup": "mediumfast",
    "eggCycles": 15,
    "eggGroups": [
        "bug"
    ],
    "moves": [
        "1:protect",
        "10:tackle",
        "15:bugbite",
        "20:hiddenpower",
        "tutor:electroweb",
        "tutor:snore"
    ],
    "labels": [
        "gen4"
    ],
    "pokedex": [
        "pokemoncobbled.species.burmy.desc1",
        "pokemoncobbled.species.burmy.desc2"
    ],
    "evolutions": [
        {
            "id": "burmy_wormadam",
            "variant": "level_up",
            "result": "wormadam",
            "consumeHeldItem": false,
            "learnableMoves": [],
            "requirements": [
                {
                    "variant": "level",
                    "minLevel": 20
                },
                {
                    "variant": "properties",
                    "target": "female"
                }
            ]
        },
        {
            "id": "burmy_mothim",
            "variant": "level_up",
            "result": "mothim",
            "consumeHeldItem": false,
            "learnableMoves": [],
            "requirements": [
                {
                    "variant": "level",
                    "minLevel": 20
                },
                {
                    "variant": "properties",
                    "target": "male"
                }
            ]
        }
    ],
    "baseScale": 1.0,
    "hitbox": {
        "width": 1.0,
        "height": 1.0,
        "fixed": false
    }
}