{
    "name": "cranidos",
    "nationalPokedexNumber": 408,
    "primaryType": "rock",
    "abilities": [
        "moldbreaker",
        "h:sheerforce"
    ],
    "baseStats": {
        "hp": 67,
        "attack": 125,
        "defence": 40,
        "special_attack": 30,
        "special_defence": 30,
        "speed": 58
    },
    "catchRate": 45,
    "maleRatio": 0.875,
    "shoulderMountable": false,
    "forms": [],
    "baseExperienceYield": 70,
    "experienceGroup": "slowthenveryfast",
    "eggCycles": 30,
    "eggGroups": [
        "monster"
    ],
    "moves": [
        "1:headbutt",
        "1:leer",
        "6:focusenergy",
        "10:pursuit",
        "15:takedown",
        "19:scaryface",
        "24:assurance",
        "28:chipaway",
        "33:ancientpower",
        "37:zenheadbutt",
        "42:screech",
        "46:headsmash",
        "egg:crunch",
        "egg:curse",
        "egg:doubleedge",
        "egg:hammerarm",
        "egg:ironhead",
        "egg:irontail",
        "egg:slam",
        "egg:stomp",
        "egg:thrash",
        "egg:whirlwind",
        "tm:attract",
        "tm:blizzard",
        "tm:bulldoze",
        "tm:confide",
        "tm:doubleteam",
        "tm:earthquake",
        "tm:facade",
        "tm:fireblast",
        "tm:flamethrower",
        "tm:fling",
        "tm:frustration",
        "tm:hiddenpower",
        "tm:icebeam",
        "tm:payback",
        "tm:protect",
        "tm:raindance",
        "tm:rest",
        "tm:return",
        "tm:roar",
        "tm:rockpolish",
        "tm:rockslide",
        "tm:rocktomb",
        "tm:round",
        "tm:sandstorm",
        "tm:sleeptalk",
        "tm:smackdown",
        "tm:stoneedge",
        "tm:substitute",
        "tm:sunnyday",
        "tm:swagger",
        "tm:swordsdance",
        "tm:thief",
        "tm:thunder",
        "tm:thunderbolt",
        "tm:toxic",
        "tutor:dragonpulse",
        "tutor:earthpower",
        "tutor:endeavor",
        "tutor:firepunch",
        "tutor:shockwave",
        "tutor:snore",
        "tutor:spite",
        "tutor:stealthrock",
        "tutor:superpower",
        "tutor:thunderpunch",
        "tutor:uproar"
    ],
    "labels": [
        "gen4"
    ],
    "pokedex": [
        "pokemoncobbled.species.cranidos.desc1",
        "pokemoncobbled.species.cranidos.desc2"
    ],
    "evolutions": [
        {
            "id": "cranidos_rampardos",
            "variant": "level_up",
            "result": "rampardos",
            "consumeHeldItem": false,
            "learnableMoves": [],
            "requirements": [
                {
                    "variant": "level",
                    "minLevel": 30
                }
            ]
        }
    ],
    "baseScale": 1.0,
    "hitbox": {
        "width": 1.0,
        "height": 1.0,
        "fixed": false
    }
}