{
    "name": "dialga",
    "nationalPokedexNumber": 483,
    "primaryType": "steel",
    "secondaryType": "dragon",
    "abilities": [
        "pressure",
        "h:telepathy"
    ],
    "baseStats": {
        "hp": 100,
        "attack": 120,
        "defence": 120,
        "special_attack": 150,
        "special_defence": 100,
        "speed": 90
    },
    "catchRate": 3,
    "maleRatio": 1.125,
    "shoulderMountable": false,
    "forms": [
        {
            "name": "origin",
            "baseStats": {
                "hp": 100,
                "attack": 100,
                "defence": 120,
                "special_attack": 150,
                "special_defence": 120,
                "speed": 90
            },
            "aspects": [
                "origin"
            ]
        }
    ],
    "baseExperienceYield": 340,
    "experienceGroup": "slow",
    "eggCycles": 120,
    "eggGroups": [
        "no-eggs"
    ],
    "moves": [
        "1:scaryface",
        "1:metalclaw",
        "8:dragonbreath",
        "16:ancientpower",
        "24:slash",
        "32:flashcannon",
        "40:dragonclaw",
        "48:aurasphere",
        "56:powergem",
        "64:metalburst",
        "72:earthpower",
        "80:irontail",
        "88:roaroftime",
        "tm:blizzard",
        "tm:bodypress",
        "tm:bodyslam",
        "tm:breakingswipe",
        "tm:brickbreak",
        "tm:bulkup",
        "tm:bulldoze",
        "tm:dragonpulse",
        "tm:earthquake",
        "tm:endure",
        "tm:facade",
        "tm:fireblast",
        "tm:flamethrower",
        "tm:gigaimpact",
        "tm:heavyslam",
        "tm:hyperbeam",
        "tm:hypervoice",
        "tm:icebeam",
        "tm:irondefense",
        "tm:ironhead",
        "tm:outrage",
        "tm:overheat",
        "tm:protect",
        "tm:raindance",
        "tm:rest",
        "tm:rockslide",
        "tm:rocktomb",
        "tm:round",
        "tm:safeguard",
        "tm:sandstorm",
        "tm:shadowclaw",
        "tm:sleeptalk",
        "tm:snore",
        "tm:stealthrock",
        "tm:stompingtantrum",
        "tm:stoneedge",
        "tm:substitute",
        "tm:sunnyday",
        "tm:swift",
        "tm:thunder",
        "tm:thunderbolt",
        "tm:thunderwave",
        "tm:trickroom",
        "tutor:dracometeor",
        "tutor:scaleshot",
        "tutor:steelbeam"
    ],
    "labels": [
        "legendary",
        "gen4"
    ],
    "pokedex": [
        "pokemoncobbled.species.dialga.desc1",
        "pokemoncobbled.species.dialga.desc2"
    ],
    "evolutions": [],
    "baseScale": 1.0,
    "hitbox": {
        "width": 1.0,
        "height": 1.0,
        "fixed": false
    }
}