{
    "name": "drapion",
    "nationalPokedexNumber": 452,
    "primaryType": "poison",
    "secondaryType": "dark",
    "abilities": [
        "battlearmor",
        "sniper",
        "h:keeneye"
    ],
    "baseStats": {
        "hp": 70,
        "attack": 90,
        "defence": 110,
        "special_attack": 60,
        "special_defence": 75,
        "speed": 95
    },
    "catchRate": 45,
    "maleRatio": 0.5,
    "shoulderMountable": false,
    "forms": [],
    "baseExperienceYield": 175,
    "experienceGroup": "slow",
    "eggCycles": 20,
    "eggGroups": [
        "bug",
        "water3"
    ],
    "moves": [
        "1:poisonsting",
        "1:leer",
        "1:thunderfang",
        "1:icefang",
        "1:firefang",
        "1:honeclaws",
        "1:fellstinger",
        "9:poisonfang",
        "12:bite",
        "15:toxicspikes",
        "18:bugbite",
        "21:venoshock",
        "24:knockoff",
        "27:scaryface",
        "30:pinmissile",
        "33:toxic",
        "36:nightslash",
        "39:crosspoison",
        "44:xscissor",
        "49:acupressure",
        "54:crunch",
        "tm:agility",
        "tm:assurance",
        "tm:attract",
        "tm:brickbreak",
        "tm:brutalswing",
        "tm:bugbuzz",
        "tm:bulldoze",
        "tm:darkpulse",
        "tm:dig",
        "tm:earthquake",
        "tm:endure",
        "tm:facade",
        "tm:falseswipe",
        "tm:fling",
        "tm:gigaimpact",
        "tm:hyperbeam",
        "tm:irondefense",
        "tm:irontail",
        "tm:leechlife",
        "tm:payback",
        "tm:poisonjab",
        "tm:protect",
        "tm:raindance",
        "tm:rest",
        "tm:retaliate",
        "tm:rockslide",
        "tm:rocktomb",
        "tm:round",
        "tm:sandtomb",
        "tm:screech",
        "tm:shadowball",
        "tm:sleeptalk",
        "tm:sludgebomb",
        "tm:snarl",
        "tm:snore",
        "tm:stompingtantrum",
        "tm:substitute",
        "tm:sunnyday",
        "tm:swordsdance",
        "tm:taunt",
        "tm:thief",
        "tm:throatchop",
        "tm:venomdrench",
        "tutor:lashout",
        "tutor:skittersmack"
    ],
    "labels": [
        "gen4"
    ],
    "pokedex": [
        "pokemoncobbled.species.drapion.desc1",
        "pokemoncobbled.species.drapion.desc2"
    ],
    "preEvolution": "skorupi",
    "evolutions": [],
    "baseScale": 1.0,
    "hitbox": {
        "width": 1.0,
        "height": 1.0,
        "fixed": false
    }
}