{
    "name": "gastrodon",
    "nationalPokedexNumber": 423,
    "primaryType": "water",
    "secondaryType": "ground",
    "abilities": [
        "stickyhold",
        "stormdrain",
        "h:sandforce"
    ],
    "baseStats": {
        "hp": 111,
        "attack": 83,
        "defence": 68,
        "special_attack": 92,
        "special_defence": 82,
        "speed": 39
    },
    "catchRate": 75,
    "maleRatio": 0.5,
    "shoulderMountable": false,
    "forms": [],
    "baseExperienceYield": 166,
    "experienceGroup": "mediumfast",
    "eggCycles": 20,
    "eggGroups": [
        "water1",
        "indeterminate"
    ],
    "moves": [
        "1:watergun",
        "1:recover",
        "1:harden",
        "1:mudslap",
        "15:waterpulse",
        "20:ancientpower",
        "25:bodyslam",
        "33:muddywater",
        "39:earthpower",
        "46:raindance",
        "53:memento",
        "tm:amnesia",
        "tm:attract",
        "tm:blizzard",
        "tm:brine",
        "tm:bulldoze",
        "tm:dig",
        "tm:dive",
        "tm:earthquake",
        "tm:endure",
        "tm:facade",
        "tm:gigaimpact",
        "tm:hail",
        "tm:hydropump",
        "tm:hyperbeam",
        "tm:icebeam",
        "tm:icywind",
        "tm:mudshot",
        "tm:protect",
        "tm:rest",
        "tm:rockslide",
        "tm:rocktomb",
        "tm:round",
        "tm:sandstorm",
        "tm:sandtomb",
        "tm:scald",
        "tm:sleeptalk",
        "tm:sludgebomb",
        "tm:sludgewave",
        "tm:snore",
        "tm:stompingtantrum",
        "tm:stoneedge",
        "tm:substitute",
        "tm:surf",
        "tm:waterfall",
        "tm:weatherball",
        "tm:whirlpool",
        "tutor:skittersmack"
    ],
    "labels": [
        "gen4"
    ],
    "pokedex": [
        "pokemoncobbled.species.gastrodon.desc1",
        "pokemoncobbled.species.gastrodon.desc2"
    ],
    "preEvolution": "shellos",
    "evolutions": [],
    "baseScale": 1.0,
    "hitbox": {
        "width": 1.0,
        "height": 1.0,
        "fixed": false
    }
}