{
    "name": "giratinaaltered",
    "nationalPokedexNumber": 487,
    "primaryType": "ghost",
    "secondaryType": "dragon",
    "abilities": [
        "pressure",
        "h:telepathy"
    ],
    "baseStats": {
        "hp": 150,
        "attack": 100,
        "defence": 120,
        "special_attack": 100,
        "special_defence": 120,
        "speed": 90
    },
    "catchRate": 3,
    "maleRatio": 1.125,
    "shoulderMountable": false,
    "forms": [
        {
            "name": "origin",
            "abilities": [
                "levitate"
            ],
            "baseStats": {
                "hp": 150,
                "attack": 120,
                "defence": 100,
                "special_attack": 120,
                "special_defence": 100,
                "speed": 90
            },
            "aspects": [
                "origin"
            ]
        }
    ],
    "baseExperienceYield": 340,
    "experienceGroup": "slow",
    "eggCycles": 120,
    "eggGroups": [
        "no-eggs"
    ],
    "moves": [
        "1:shadowsneak",
        "1:defog",
        "7:dragonbreath",
        "14:ancientpower",
        "21:hex",
        "28:slash",
        "35:scaryface",
        "42:shadowclaw",
        "49:painsplit",
        "56:aurasphere",
        "63:dragonclaw",
        "70:earthpower",
        "77:shadowforce",
        "84:destinybond",
        "tm:bodyslam",
        "tm:breakingswipe",
        "tm:brutalswing",
        "tm:bulldoze",
        "tm:calmmind",
        "tm:darkpulse",
        "tm:dragonpulse",
        "tm:earthquake",
        "tm:endure",
        "tm:energyball",
        "tm:facade",
        "tm:fly",
        "tm:gigaimpact",
        "tm:hyperbeam",
        "tm:hypervoice",
        "tm:icywind",
        "tm:ironhead",
        "tm:irontail",
        "tm:outrage",
        "tm:payback",
        "tm:phantomforce",
        "tm:protect",
        "tm:psychic",
        "tm:raindance",
        "tm:rest",
        "tm:round",
        "tm:safeguard",
        "tm:shadowball",
        "tm:sleeptalk",
        "tm:snore",
        "tm:steelwing",
        "tm:stoneedge",
        "tm:substitute",
        "tm:sunnyday",
        "tm:swift",
        "tm:thunder",
        "tm:thunderbolt",
        "tm:thunderwave",
        "tm:willowisp",
        "tutor:dracometeor",
        "tutor:dualwingbeat",
        "tutor:poltergeist"
    ],
    "labels": [
        "legendary",
        "gen4"
    ],
    "pokedex": [
        "pokemoncobbled.species.giratinaaltered.desc1",
        "pokemoncobbled.species.giratinaaltered.desc2"
    ],
    "evolutions": [],
    "baseScale": 1.0,
    "hitbox": {
        "width": 1.0,
        "height": 1.0,
        "fixed": false
    }
}