{
    "name": "gliscor",
    "nationalPokedexNumber": 472,
    "primaryType": "ground",
    "secondaryType": "flying",
    "abilities": [
        "hypercutter",
        "sandveil",
        "h:poisonheal"
    ],
    "baseStats": {
        "hp": 75,
        "attack": 95,
        "defence": 125,
        "special_attack": 45,
        "special_defence": 75,
        "speed": 95
    },
    "catchRate": 30,
    "maleRatio": 0.5,
    "shoulderMountable": false,
    "forms": [],
    "baseExperienceYield": 179,
    "experienceGroup": "mediumslow",
    "eggCycles": 20,
    "eggGroups": [
        "bug"
    ],
    "moves": [
        "1:guillotine",
        "1:sandattack",
        "1:harden",
        "1:knockoff",
        "1:poisonjab",
        "1:thunderfang",
        "1:icefang",
        "1:firefang",
        "13:quickattack",
        "16:furycutter",
        "19:feintattack",
        "22:acrobatics",
        "27:nightslash",
        "30:uturn",
        "35:screech",
        "40:xscissor",
        "45:skyuppercut",
        "50:swordsdance",
        "tm:aerialace",
        "tm:attract",
        "tm:brickbreak",
        "tm:brutalswing",
        "tm:bulldoze",
        "tm:confide",
        "tm:darkpulse",
        "tm:doubleteam",
        "tm:earthquake",
        "tm:facade",
        "tm:falseswipe",
        "tm:fling",
        "tm:frustration",
        "tm:gigaimpact",
        "tm:hiddenpower",
        "tm:hyperbeam",
        "tm:payback",
        "tm:protect",
        "tm:raindance",
        "tm:rest",
        "tm:return",
        "tm:rockpolish",
        "tm:rockslide",
        "tm:rocktomb",
        "tm:roost",
        "tm:round",
        "tm:sandstorm",
        "tm:sleeptalk",
        "tm:sludgebomb",
        "tm:steelwing",
        "tm:stoneedge",
        "tm:substitute",
        "tm:sunnyday",
        "tm:swagger",
        "tm:taunt",
        "tm:thief",
        "tm:torment",
        "tm:toxic",
        "tm:venoshock",
        "tutor:aquatail",
        "tutor:bugbite",
        "tutor:defog",
        "tutor:earthpower",
        "tutor:irontail",
        "tutor:skyattack",
        "tutor:snore",
        "tutor:stealthrock",
        "tutor:tailwind",
        "tutor:throatchop"
    ],
    "labels": [
        "gen4"
    ],
    "pokedex": [
        "pokemoncobbled.species.gliscor.desc1",
        "pokemoncobbled.species.gliscor.desc2"
    ],
    "preEvolution": "gligar",
    "evolutions": [],
    "baseScale": 1.0,
    "hitbox": {
        "width": 1.0,
        "height": 1.0,
        "fixed": false
    }
}