{
    "name": "purugly",
    "nationalPokedexNumber": 432,
    "primaryType": "normal",
    "abilities": [
        "thickfat",
        "owntempo",
        "h:defiant"
    ],
    "baseStats": {
        "hp": 71,
        "attack": 82,
        "defence": 64,
        "special_attack": 64,
        "special_defence": 59,
        "speed": 112
    },
    "catchRate": 75,
    "maleRatio": 0.25,
    "shoulderMountable": false,
    "forms": [],
    "baseExperienceYield": 158,
    "experienceGroup": "fast",
    "eggCycles": 20,
    "eggGroups": [
        "ground"
    ],
    "moves": [
        "0:swagger",
        "1:scratch",
        "1:growl",
        "1:fakeout",
        "13:hypnosis",
        "17:feintattack",
        "20:furyswipes",
        "25:charm",
        "29:assist",
        "32:captivate",
        "37:slash",
        "45:bodyslam",
        "52:attract",
        "60:honeclaws",
        "tm:aerialace",
        "tm:bulldoze",
        "tm:confide",
        "tm:doubleteam",
        "tm:dreameater",
        "tm:echoedvoice",
        "tm:facade",
        "tm:frustration",
        "tm:gigaimpact",
        "tm:hiddenpower",
        "tm:hyperbeam",
        "tm:payback",
        "tm:protect",
        "tm:psychup",
        "tm:raindance",
        "tm:rest",
        "tm:return",
        "tm:roar",
        "tm:round",
        "tm:shadowball",
        "tm:shadowclaw",
        "tm:sleeptalk",
        "tm:substitute",
        "tm:sunnyday",
        "tm:taunt",
        "tm:thief",
        "tm:thunder",
        "tm:thunderbolt",
        "tm:torment",
        "tm:toxic",
        "tm:uturn",
        "tm:workup",
        "tutor:covet",
        "tutor:foulplay",
        "tutor:hypervoice",
        "tutor:irontail",
        "tutor:knockoff",
        "tutor:lastresort",
        "tutor:shockwave",
        "tutor:snatch",
        "tutor:snore",
        "tutor:stompingtantrum",
        "tutor:superfang",
        "tutor:throatchop",
        "tutor:waterpulse"
    ],
    "labels": [
        "gen4"
    ],
    "pokedex": [
        "pokemoncobbled.species.purugly.desc1",
        "pokemoncobbled.species.purugly.desc2"
    ],
    "preEvolution": "glameow",
    "evolutions": [],
    "baseScale": 1.0,
    "hitbox": {
        "width": 1.0,
        "height": 1.0,
        "fixed": false
    }
}