{
    "name": "skuntank",
    "nationalPokedexNumber": 435,
    "primaryType": "poison",
    "secondaryType": "dark",
    "abilities": [
        "stench",
        "aftermath",
        "h:keeneye"
    ],
    "baseStats": {
        "hp": 103,
        "attack": 93,
        "defence": 67,
        "special_attack": 71,
        "special_defence": 61,
        "speed": 84
    },
    "catchRate": 60,
    "maleRatio": 0.5,
    "shoulderMountable": false,
    "forms": [],
    "baseExperienceYield": 168,
    "experienceGroup": "mediumfast",
    "eggCycles": 20,
    "eggGroups": [
        "ground"
    ],
    "moves": [
        "0:flamethrower",
        "1:scratch",
        "1:smokescreen",
        "1:poisongas",
        "1:feint",
        "9:acidspray",
        "12:furyswipes",
        "15:focusenergy",
        "18:bite",
        "21:venoshock",
        "24:screech",
        "27:toxic",
        "30:suckerpunch",
        "33:memento",
        "38:nightslash",
        "43:belch",
        "48:venomdrench",
        "53:explosion",
        "tm:assurance",
        "tm:attract",
        "tm:crunch",
        "tm:darkpulse",
        "tm:dig",
        "tm:endure",
        "tm:facade",
        "tm:fireblast",
        "tm:firespin",
        "tm:foulplay",
        "tm:gigaimpact",
        "tm:hex",
        "tm:hyperbeam",
        "tm:irontail",
        "tm:nastyplot",
        "tm:payback",
        "tm:playrough",
        "tm:poisonjab",
        "tm:protect",
        "tm:raindance",
        "tm:rest",
        "tm:round",
        "tm:scaryface",
        "tm:shadowball",
        "tm:shadowclaw",
        "tm:sleeptalk",
        "tm:sludgebomb",
        "tm:snarl",
        "tm:snore",
        "tm:substitute",
        "tm:sunnyday",
        "tm:swift",
        "tm:tailslap",
        "tm:taunt",
        "tm:thief",
        "tm:throatchop",
        "tutor:burningjealousy",
        "tutor:corrosivegas",
        "tutor:lashout"
    ],
    "labels": [
        "gen4"
    ],
    "pokedex": [
        "pokemoncobbled.species.skuntank.desc1",
        "pokemoncobbled.species.skuntank.desc2"
    ],
    "preEvolution": "stunky",
    "evolutions": [],
    "baseScale": 1.0,
    "hitbox": {
        "width": 1.0,
        "height": 1.0,
        "fixed": false
    }
}