{
    "name": "starly",
    "nationalPokedexNumber": 396,
    "primaryType": "normal",
    "secondaryType": "flying",
    "abilities": [
        "keeneye",
        "h:reckless"
    ],
    "baseStats": {
        "hp": 40,
        "attack": 55,
        "defence": 30,
        "special_attack": 30,
        "special_defence": 30,
        "speed": 60
    },
    "catchRate": 255,
    "maleRatio": 0.5,
    "shoulderMountable": false,
    "forms": [],
    "baseExperienceYield": 49,
    "experienceGroup": "mediumslow",
    "eggCycles": 15,
    "eggGroups": [
        "flying"
    ],
    "moves": [
        "1:tackle",
        "1:growl",
        "5:quickattack",
        "9:wingattack",
        "13:doubleteam",
        "17:endeavor",
        "21:whirlwind",
        "25:aerialace",
        "29:takedown",
        "33:agility",
        "37:bravebird",
        "41:finalgambit",
        "egg:astonish",
        "egg:detect",
        "egg:doubleedge",
        "egg:featherdance",
        "egg:foresight",
        "egg:furyattack",
        "egg:mirrormove",
        "egg:pursuit",
        "egg:revenge",
        "egg:roost",
        "egg:sandattack",
        "egg:steelwing",
        "egg:uproar",
        "tm:attract",
        "tm:confide",
        "tm:echoedvoice",
        "tm:facade",
        "tm:fly",
        "tm:frustration",
        "tm:hiddenpower",
        "tm:protect",
        "tm:raindance",
        "tm:rest",
        "tm:return",
        "tm:round",
        "tm:sleeptalk",
        "tm:substitute",
        "tm:sunnyday",
        "tm:swagger",
        "tm:thief",
        "tm:toxic",
        "tm:uturn",
        "tm:workup",
        "tutor:defog",
        "tutor:heatwave",
        "tutor:snore",
        "tutor:tailwind"
    ],
    "labels": [
        "gen4"
    ],
    "pokedex": [
        "pokemoncobbled.species.starly.desc1",
        "pokemoncobbled.species.starly.desc2"
    ],
    "evolutions": [
        {
            "id": "starly_staravia",
            "variant": "level_up",
            "result": "staravia",
            "consumeHeldItem": false,
            "learnableMoves": [],
            "requirements": [
                {
                    "variant": "level",
                    "minLevel": 14
                }
            ]
        }
    ],
    "baseScale": 1.0,
    "hitbox": {
        "width": 1.0,
        "height": 1.0,
        "fixed": false
    }
}