{
    "name": "stunky",
    "nationalPokedexNumber": 434,
    "primaryType": "poison",
    "secondaryType": "dark",
    "abilities": [
        "stench",
        "aftermath",
        "h:keeneye"
    ],
    "baseStats": {
        "hp": 63,
        "attack": 63,
        "defence": 47,
        "special_attack": 41,
        "special_defence": 41,
        "speed": 74
    },
    "catchRate": 225,
    "maleRatio": 0.5,
    "shoulderMountable": false,
    "forms": [],
    "baseExperienceYield": 66,
    "experienceGroup": "mediumfast",
    "eggCycles": 20,
    "eggGroups": [
        "ground"
    ],
    "moves": [
        "1:scratch",
        "1:poisongas",
        "3:feint",
        "6:smokescreen",
        "9:acidspray",
        "12:furyswipes",
        "15:focusenergy",
        "18:bite",
        "21:venoshock",
        "24:screech",
        "27:toxic",
        "30:suckerpunch",
        "33:memento",
        "36:nightslash",
        "39:belch",
        "42:venomdrench",
        "45:explosion",
        "egg:astonish",
        "egg:doubleedge",
        "egg:haze",
        "egg:leer",
        "egg:slash",
        "egg:smog",
        "tm:assurance",
        "tm:attract",
        "tm:crunch",
        "tm:darkpulse",
        "tm:dig",
        "tm:endure",
        "tm:facade",
        "tm:fireblast",
        "tm:flamethrower",
        "tm:foulplay",
        "tm:hex",
        "tm:irontail",
        "tm:nastyplot",
        "tm:payback",
        "tm:playrough",
        "tm:protect",
        "tm:raindance",
        "tm:rest",
        "tm:round",
        "tm:scaryface",
        "tm:shadowball",
        "tm:shadowclaw",
        "tm:sleeptalk",
        "tm:sludgebomb",
        "tm:snarl",
        "tm:snore",
        "tm:substitute",
        "tm:sunnyday",
        "tm:swift",
        "tm:tailslap",
        "tm:taunt",
        "tm:thief",
        "tm:throatchop",
        "tutor:corrosivegas",
        "tutor:lashout"
    ],
    "labels": [
        "gen4"
    ],
    "pokedex": [
        "pokemoncobbled.species.stunky.desc1",
        "pokemoncobbled.species.stunky.desc2"
    ],
    "evolutions": [
        {
            "id": "stunky_skuntank",
            "variant": "level_up",
            "result": "skuntank",
            "consumeHeldItem": false,
            "learnableMoves": [],
            "requirements": [
                {
                    "variant": "level",
                    "minLevel": 34
                }
            ]
        }
    ],
    "baseScale": 1.0,
    "hitbox": {
        "width": 1.0,
        "height": 1.0,
        "fixed": false
    }
}