{
    "name": "tangrowth",
    "nationalPokedexNumber": 465,
    "primaryType": "grass",
    "abilities": [
        "chlorophyll",
        "leafguard",
        "h:regenerator"
    ],
    "baseStats": {
        "hp": 100,
        "attack": 100,
        "defence": 125,
        "special_attack": 110,
        "special_defence": 50,
        "speed": 50
    },
    "catchRate": 30,
    "maleRatio": 0.5,
    "shoulderMountable": false,
    "forms": [],
    "baseExperienceYield": 187,
    "experienceGroup": "mediumfast",
    "eggCycles": 20,
    "eggGroups": [
        "plant"
    ],
    "moves": [
        "1:bind",
        "1:absorb",
        "1:growth",
        "1:stunspore",
        "1:block",
        "12:megadrain",
        "16:vinewhip",
        "20:poisonpowder",
        "24:ancientpower",
        "28:knockoff",
        "32:gigadrain",
        "36:sleeppowder",
        "40:slam",
        "44:tickle",
        "48:powerwhip",
        "52:ingrain",
        "56:grassyterrain",
        "tm:amnesia",
        "tm:attract",
        "tm:bodyslam",
        "tm:brickbreak",
        "tm:brutalswing",
        "tm:bulldoze",
        "tm:bulletseed",
        "tm:earthquake",
        "tm:endure",
        "tm:energyball",
        "tm:facade",
        "tm:fling",
        "tm:focusblast",
        "tm:gigaimpact",
        "tm:grassknot",
        "tm:hyperbeam",
        "tm:leafstorm",
        "tm:payback",
        "tm:poisonjab",
        "tm:powerswap",
        "tm:protect",
        "tm:reflect",
        "tm:rest",
        "tm:rockslide",
        "tm:rocktomb",
        "tm:round",
        "tm:seedbomb",
        "tm:sleeptalk",
        "tm:sludgebomb",
        "tm:snore",
        "tm:solarbeam",
        "tm:solarblade",
        "tm:stompingtantrum",
        "tm:substitute",
        "tm:sunnyday",
        "tm:swordsdance",
        "tm:thief",
        "tutor:grassyglide"
    ],
    "labels": [
        "gen4"
    ],
    "pokedex": [
        "pokemoncobbled.species.tangrowth.desc1",
        "pokemoncobbled.species.tangrowth.desc2"
    ],
    "preEvolution": "tangela",
    "evolutions": [],
    "baseScale": 1.0,
    "hitbox": {
        "width": 1.0,
        "height": 1.0,
        "fixed": false
    }
}