{
    "name": "torterra",
    "nationalPokedexNumber": 389,
    "primaryType": "grass",
    "secondaryType": "ground",
    "abilities": [
        "overgrow",
        "h:shellarmor"
    ],
    "baseStats": {
        "hp": 95,
        "attack": 109,
        "defence": 105,
        "special_attack": 75,
        "special_defence": 85,
        "speed": 56
    },
    "catchRate": 45,
    "maleRatio": 0.875,
    "shoulderMountable": false,
    "forms": [],
    "baseExperienceYield": 236,
    "experienceGroup": "mediumslow",
    "eggCycles": 20,
    "eggGroups": [
        "monster",
        "plant"
    ],
    "moves": [
        "0:earthquake",
        "1:tackle",
        "1:absorb",
        "1:razorleaf",
        "1:withdraw",
        "1:woodhammer",
        "17:curse",
        "22:bite",
        "27:megadrain",
        "33:leechseed",
        "39:synthesis",
        "45:crunch",
        "51:gigadrain",
        "57:leafstorm",
        "tm:attract",
        "tm:bulldoze",
        "tm:confide",
        "tm:doubleteam",
        "tm:energyball",
        "tm:facade",
        "tm:frustration",
        "tm:gigaimpact",
        "tm:grassknot",
        "tm:hiddenpower",
        "tm:hyperbeam",
        "tm:lightscreen",
        "tm:naturepower",
        "tm:protect",
        "tm:reflect",
        "tm:rest",
        "tm:return",
        "tm:roar",
        "tm:rockpolish",
        "tm:rockslide",
        "tm:rocktomb",
        "tm:round",
        "tm:safeguard",
        "tm:sandstorm",
        "tm:sleeptalk",
        "tm:solarbeam",
        "tm:stoneedge",
        "tm:substitute",
        "tm:sunnyday",
        "tm:swagger",
        "tm:swordsdance",
        "tm:toxic",
        "tm:workup",
        "tutor:block",
        "tutor:earthpower",
        "tutor:frenzyplant",
        "tutor:grasspledge",
        "tutor:ironhead",
        "tutor:irontail",
        "tutor:outrage",
        "tutor:seedbomb",
        "tutor:snore",
        "tutor:stealthrock",
        "tutor:stompingtantrum",
        "tutor:superpower",
        "tutor:worryseed"
    ],
    "labels": [
        "gen4"
    ],
    "pokedex": [
        "pokemoncobbled.species.torterra.desc1",
        "pokemoncobbled.species.torterra.desc2"
    ],
    "preEvolution": "grotle",
    "evolutions": [],
    "baseScale": 1.0,
    "hitbox": {
        "width": 1.0,
        "height": 1.0,
        "fixed": false
    }
}