{
    "name": "vespiquen",
    "nationalPokedexNumber": 416,
    "primaryType": "bug",
    "secondaryType": "flying",
    "abilities": [
        "pressure",
        "h:unnerve"
    ],
    "baseStats": {
        "hp": 70,
        "attack": 80,
        "defence": 102,
        "special_attack": 80,
        "special_defence": 102,
        "speed": 40
    },
    "catchRate": 45,
    "maleRatio": 0.0,
    "shoulderMountable": false,
    "forms": [],
    "baseExperienceYield": 166,
    "experienceGroup": "mediumslow",
    "eggCycles": 15,
    "eggGroups": [
        "bug"
    ],
    "moves": [
        "0:slash",
        "1:gust",
        "1:poisonsting",
        "1:confuseray",
        "1:sweetscent",
        "1:bugbite",
        "1:strugglebug",
        "4:furycutter",
        "8:aromaticmist",
        "12:fellstinger",
        "16:furyswipes",
        "20:swagger",
        "24:aromatherapy",
        "28:airslash",
        "32:powergem",
        "36:toxic",
        "40:attackorder",
        "40:defendorder",
        "44:destinybond",
        "tm:acrobatics",
        "tm:assurance",
        "tm:attract",
        "tm:beatup",
        "tm:bugbuzz",
        "tm:crosspoison",
        "tm:endure",
        "tm:facade",
        "tm:fling",
        "tm:gigaimpact",
        "tm:hex",
        "tm:hyperbeam",
        "tm:pinmissile",
        "tm:protect",
        "tm:raindance",
        "tm:rest",
        "tm:revenge",
        "tm:reversal",
        "tm:round",
        "tm:screech",
        "tm:sleeptalk",
        "tm:sludgebomb",
        "tm:snore",
        "tm:substitute",
        "tm:sunnyday",
        "tm:swift",
        "tm:thief",
        "tm:toxicspikes",
        "tm:uproar",
        "tm:uturn",
        "tm:venoshock",
        "tm:xscissor",
        "tutor:dualwingbeat"
    ],
    "labels": [
        "gen4"
    ],
    "pokedex": [
        "pokemoncobbled.species.vespiquen.desc1",
        "pokemoncobbled.species.vespiquen.desc2"
    ],
    "preEvolution": "combee",
    "evolutions": [],
    "baseScale": 1.0,
    "hitbox": {
        "width": 1.0,
        "height": 1.0,
        "fixed": false
    }
}