{
    "name": "bounsweet",
    "nationalPokedexNumber": 761,
    "primaryType": "grass",
    "abilities": [
        "leafguard",
        "oblivious",
        "h:sweetveil"
    ],
    "baseStats": {
        "hp": 42,
        "attack": 30,
        "defence": 38,
        "special_attack": 30,
        "special_defence": 38,
        "speed": 32
    },
    "catchRate": 235,
    "maleRatio": 0.0,
    "shoulderMountable": false,
    "forms": [],
    "baseExperienceYield": 42,
    "experienceGroup": "mediumslow",
    "eggCycles": 20,
    "eggGroups": [
        "plant"
    ],
    "moves": [
        "1:splash",
        "4:playnice",
        "8:rapidspin",
        "12:razorleaf",
        "16:sweetscent",
        "20:magicalleaf",
        "24:flail",
        "28:teeterdance",
        "32:aromaticmist",
        "36:aromatherapy",
        "egg:acupressure",
        "egg:endeavor",
        "egg:synthesis",
        "tm:attract",
        "tm:bounce",
        "tm:charm",
        "tm:dazzlinggleam",
        "tm:drainingkiss",
        "tm:endure",
        "tm:energyball",
        "tm:facade",
        "tm:gigadrain",
        "tm:grassknot",
        "tm:helpinghand",
        "tm:lightscreen",
        "tm:playrough",
        "tm:protect",
        "tm:reflect",
        "tm:rest",
        "tm:round",
        "tm:safeguard",
        "tm:seedbomb",
        "tm:sleeptalk",
        "tm:snore",
        "tm:solarbeam",
        "tm:substitute",
        "tm:sunnyday",
        "tm:zenheadbutt",
        "tutor:grassyglide"
    ],
    "labels": [
        "gen7"
    ],
    "pokedex": [
        "pokemoncobbled.species.bounsweet.desc1",
        "pokemoncobbled.species.bounsweet.desc2"
    ],
    "evolutions": [
        {
            "id": "bounsweet_steenee",
            "variant": "level_up",
            "result": "steenee",
            "consumeHeldItem": false,
            "learnableMoves": [],
            "requirements": [
                {
                    "variant": "level",
                    "minLevel": 18
                }
            ]
        }
    ],
    "baseScale": 1.0,
    "hitbox": {
        "width": 1.0,
        "height": 1.0,
        "fixed": false
    }
}