{
    "name": "celesteela",
    "nationalPokedexNumber": 797,
    "primaryType": "steel",
    "secondaryType": "flying",
    "abilities": [
        "beastboost"
    ],
    "baseStats": {
        "hp": 97,
        "attack": 101,
        "defence": 103,
        "special_attack": 107,
        "special_defence": 101,
        "speed": 61
    },
    "catchRate": 45,
    "maleRatio": 1.125,
    "shoulderMountable": false,
    "forms": [],
    "baseExperienceYield": 285,
    "experienceGroup": "slow",
    "eggCycles": 120,
    "eggGroups": [
        "no-eggs"
    ],
    "moves": [
        "1:tackle",
        "1:absorb",
        "5:harden",
        "10:wideguard",
        "15:megadrain",
        "20:smackdown",
        "25:ingrain",
        "30:autotomize",
        "35:gigadrain",
        "40:flashcannon",
        "45:metalsound",
        "50:irondefense",
        "55:leechseed",
        "60:heavyslam",
        "65:doubleedge",
        "70:skullbash",
        "tm:acrobatics",
        "tm:airslash",
        "tm:bodyslam",
        "tm:brutalswing",
        "tm:bulldoze",
        "tm:earthquake",
        "tm:endure",
        "tm:energyball",
        "tm:facade",
        "tm:fireblast",
        "tm:flamethrower",
        "tm:fly",
        "tm:gigaimpact",
        "tm:grassknot",
        "tm:gyroball",
        "tm:hyperbeam",
        "tm:ironhead",
        "tm:megahorn",
        "tm:protect",
        "tm:rest",
        "tm:rockslide",
        "tm:round",
        "tm:seedbomb",
        "tm:selfdestruct",
        "tm:sleeptalk",
        "tm:smartstrike",
        "tm:snore",
        "tm:solarbeam",
        "tm:stompingtantrum",
        "tm:stoneedge",
        "tm:substitute",
        "tm:superpower",
        "tm:zenheadbutt",
        "tutor:meteorbeam",
        "tutor:steelbeam",
        "tutor:steelroller"
    ],
    "labels": [
        "gen7"
    ],
    "pokedex": [
        "pokemoncobbled.species.celesteela.desc1",
        "pokemoncobbled.species.celesteela.desc2"
    ],
    "evolutions": [],
    "baseScale": 1.0,
    "hitbox": {
        "width": 1.0,
        "height": 1.0,
        "fixed": false
    }
}