{
    "name": "golisopod",
    "nationalPokedexNumber": 768,
    "primaryType": "bug",
    "secondaryType": "water",
    "abilities": [
        "emergencyexit"
    ],
    "baseStats": {
        "hp": 75,
        "attack": 125,
        "defence": 140,
        "special_attack": 60,
        "special_defence": 90,
        "speed": 40
    },
    "catchRate": 45,
    "maleRatio": 0.5,
    "shoulderMountable": false,
    "forms": [],
    "baseExperienceYield": 186,
    "experienceGroup": "mediumfast",
    "eggCycles": 20,
    "eggGroups": [
        "bug",
        "water3"
    ],
    "moves": [
        "0:firstimpression",
        "1:sandattack",
        "1:defensecurl",
        "1:spite",
        "1:strugglebug",
        "4:rocksmash",
        "8:furycutter",
        "12:mudshot",
        "16:bugbite",
        "20:irondefense",
        "24:suckerpunch",
        "28:slash",
        "32:razorshell",
        "36:pinmissile",
        "40:swordsdance",
        "44:liquidation",
        "tm:assurance",
        "tm:attract",
        "tm:blizzard",
        "tm:brickbreak",
        "tm:bugbuzz",
        "tm:bulkup",
        "tm:closecombat",
        "tm:darkpulse",
        "tm:dive",
        "tm:drillrun",
        "tm:endure",
        "tm:facade",
        "tm:falseswipe",
        "tm:fling",
        "tm:focusblast",
        "tm:gigaimpact",
        "tm:hail",
        "tm:hyperbeam",
        "tm:icebeam",
        "tm:icywind",
        "tm:ironhead",
        "tm:leechlife",
        "tm:muddywater",
        "tm:payback",
        "tm:poisonjab",
        "tm:protect",
        "tm:raindance",
        "tm:rest",
        "tm:rockslide",
        "tm:rocktomb",
        "tm:round",
        "tm:scald",
        "tm:screech",
        "tm:shadowclaw",
        "tm:sleeptalk",
        "tm:sludgebomb",
        "tm:sludgewave",
        "tm:snarl",
        "tm:snore",
        "tm:spikes",
        "tm:substitute",
        "tm:surf",
        "tm:swift",
        "tm:taunt",
        "tm:throatchop",
        "tm:venoshock",
        "tm:waterfall",
        "tm:xscissor",
        "tutor:skittersmack"
    ],
    "labels": [
        "gen7"
    ],
    "pokedex": [
        "pokemoncobbled.species.golisopod.desc1",
        "pokemoncobbled.species.golisopod.desc2"
    ],
    "preEvolution": "wimpod",
    "evolutions": [],
    "baseScale": 1.0,
    "hitbox": {
        "width": 1.0,
        "height": 1.0,
        "fixed": false
    }
}