{
    "name": "grubbin",
    "nationalPokedexNumber": 736,
    "primaryType": "bug",
    "abilities": [
        "swarm"
    ],
    "baseStats": {
        "hp": 47,
        "attack": 62,
        "defence": 45,
        "special_attack": 55,
        "special_defence": 45,
        "speed": 46
    },
    "catchRate": 255,
    "maleRatio": 0.5,
    "shoulderMountable": false,
    "forms": [],
    "baseExperienceYield": 60,
    "experienceGroup": "mediumfast",
    "eggCycles": 15,
    "eggGroups": [
        "bug"
    ],
    "moves": [
        "1:visegrip",
        "1:mudslap",
        "5:stringshot",
        "10:bugbite",
        "15:bite",
        "21:spark",
        "25:stickyweb",
        "30:xscissor",
        "35:crunch",
        "40:dig",
        "egg:discharge",
        "egg:harden",
        "tm:acrobatics",
        "tm:attract",
        "tm:electroweb",
        "tm:endure",
        "tm:facade",
        "tm:lightscreen",
        "tm:mudshot",
        "tm:poisonjab",
        "tm:protect",
        "tm:raindance",
        "tm:rest",
        "tm:round",
        "tm:screech",
        "tm:sleeptalk",
        "tm:snore",
        "tm:substitute",
        "tm:thunderbolt",
        "tm:thunderwave",
        "tm:voltswitch",
        "tm:wildcharge",
        "tutor:risingvoltage",
        "tutor:skittersmack"
    ],
    "labels": [
        "gen7"
    ],
    "pokedex": [
        "pokemoncobbled.species.grubbin.desc1",
        "pokemoncobbled.species.grubbin.desc2"
    ],
    "evolutions": [
        {
            "id": "grubbin_charjabug",
            "variant": "level_up",
            "result": "charjabug",
            "consumeHeldItem": false,
            "learnableMoves": [],
            "requirements": [
                {
                    "variant": "level",
                    "minLevel": 20
                }
            ]
        }
    ],
    "baseScale": 1.0,
    "hitbox": {
        "width": 1.0,
        "height": 1.0,
        "fixed": false
    }
}