{
    "name": "incineroar",
    "nationalPokedexNumber": 727,
    "primaryType": "fire",
    "secondaryType": "dark",
    "abilities": [
        "blaze",
        "h:intimidate"
    ],
    "baseStats": {
        "hp": 95,
        "attack": 115,
        "defence": 90,
        "special_attack": 80,
        "special_defence": 90,
        "speed": 60
    },
    "catchRate": 45,
    "maleRatio": 0.875,
    "shoulderMountable": false,
    "forms": [],
    "baseExperienceYield": 265,
    "experienceGroup": "mediumslow",
    "eggCycles": 15,
    "eggGroups": [
        "ground"
    ],
    "moves": [
        "0:darkestlariat",
        "1:scratch",
        "1:growl",
        "1:ember",
        "1:lick",
        "1:crosschop",
        "1:bulkup",
        "1:throatchop",
        "9:roar",
        "12:furyswipes",
        "15:bite",
        "20:doublekick",
        "25:firefang",
        "30:scaryface",
        "32:swagger",
        "44:flamethrower",
        "51:thrash",
        "58:flareblitz",
        "tm:acrobatics",
        "tm:assurance",
        "tm:attract",
        "tm:blazekick",
        "tm:bodyslam",
        "tm:brickbreak",
        "tm:brutalswing",
        "tm:bulldoze",
        "tm:closecombat",
        "tm:crunch",
        "tm:darkpulse",
        "tm:drainpunch",
        "tm:earthquake",
        "tm:endure",
        "tm:facade",
        "tm:fireblast",
        "tm:firepunch",
        "tm:firespin",
        "tm:fling",
        "tm:focusblast",
        "tm:gigaimpact",
        "tm:heatcrash",
        "tm:heatwave",
        "tm:hyperbeam",
        "tm:ironhead",
        "tm:leechlife",
        "tm:lowkick",
        "tm:lowsweep",
        "tm:megakick",
        "tm:megapunch",
        "tm:nastyplot",
        "tm:outrage",
        "tm:overheat",
        "tm:payday",
        "tm:protect",
        "tm:rest",
        "tm:revenge",
        "tm:reversal",
        "tm:round",
        "tm:shadowclaw",
        "tm:sleeptalk",
        "tm:snarl",
        "tm:snore",
        "tm:stompingtantrum",
        "tm:substitute",
        "tm:sunnyday",
        "tm:superpower",
        "tm:swordsdance",
        "tm:taunt",
        "tm:thunderpunch",
        "tm:uturn",
        "tm:willowisp",
        "tm:workup",
        "tutor:blastburn",
        "tutor:burningjealousy",
        "tutor:firepledge",
        "tutor:lashout",
        "tutor:scorchingsands"
    ],
    "labels": [
        "gen7"
    ],
    "pokedex": [
        "pokemoncobbled.species.incineroar.desc1",
        "pokemoncobbled.species.incineroar.desc2"
    ],
    "preEvolution": "torracat",
    "evolutions": [],
    "baseScale": 1.0,
    "hitbox": {
        "width": 1.0,
        "height": 1.0,
        "fixed": false
    }
}