{
    "name": "litten",
    "nationalPokedexNumber": 725,
    "primaryType": "fire",
    "abilities": [
        "blaze",
        "h:intimidate"
    ],
    "baseStats": {
        "hp": 45,
        "attack": 65,
        "defence": 40,
        "special_attack": 60,
        "special_defence": 40,
        "speed": 70
    },
    "catchRate": 45,
    "maleRatio": 0.875,
    "shoulderMountable": false,
    "forms": [],
    "baseExperienceYield": 64,
    "experienceGroup": "mediumslow",
    "eggCycles": 15,
    "eggGroups": [
        "ground"
    ],
    "moves": [
        "1:scratch",
        "1:growl",
        "3:ember",
        "6:lick",
        "9:roar",
        "12:furyswipes",
        "15:bite",
        "18:doublekick",
        "21:firefang",
        "24:scaryface",
        "27:swagger",
        "30:flamethrower",
        "33:thrash",
        "36:flareblitz",
        "egg:fakeout",
        "egg:partingshot",
        "egg:powertrip",
        "tm:acrobatics",
        "tm:attract",
        "tm:bodyslam",
        "tm:bulkup",
        "tm:crunch",
        "tm:endure",
        "tm:facade",
        "tm:fireblast",
        "tm:firespin",
        "tm:heatwave",
        "tm:leechlife",
        "tm:nastyplot",
        "tm:outrage",
        "tm:overheat",
        "tm:payday",
        "tm:protect",
        "tm:rest",
        "tm:revenge",
        "tm:round",
        "tm:shadowclaw",
        "tm:sleeptalk",
        "tm:snore",
        "tm:substitute",
        "tm:sunnyday",
        "tm:swordsdance",
        "tm:taunt",
        "tm:uturn",
        "tm:willowisp",
        "tm:workup",
        "tutor:firepledge"
    ],
    "labels": [
        "gen7"
    ],
    "pokedex": [
        "pokemoncobbled.species.litten.desc1",
        "pokemoncobbled.species.litten.desc2"
    ],
    "evolutions": [
        {
            "id": "litten_torracat",
            "variant": "level_up",
            "result": "torracat",
            "consumeHeldItem": false,
            "learnableMoves": [],
            "requirements": [
                {
                    "variant": "level",
                    "minLevel": 17
                }
            ]
        }
    ],
    "baseScale": 1.0,
    "hitbox": {
        "width": 1.0,
        "height": 1.0,
        "fixed": false
    }
}