{
    "name": "lurantis",
    "nationalPokedexNumber": 754,
    "primaryType": "grass",
    "abilities": [
        "leafguard",
        "h:contrary"
    ],
    "baseStats": {
        "hp": 70,
        "attack": 105,
        "defence": 90,
        "special_attack": 80,
        "special_defence": 90,
        "speed": 45
    },
    "catchRate": 75,
    "maleRatio": 0.5,
    "shoulderMountable": false,
    "forms": [
        {
            "name": "totem",
            "aspects": [
                "totem"
            ]
        }
    ],
    "baseExperienceYield": 168,
    "experienceGroup": "mediumfast",
    "eggCycles": 20,
    "eggGroups": [
        "plant"
    ],
    "moves": [
        "0:petalblizzard",
        "1:growth",
        "1:solarbeam",
        "1:furycutter",
        "1:ingrain",
        "1:nightslash",
        "1:dualchop",
        "1:leafage",
        "15:razorleaf",
        "20:sweetscent",
        "25:slash",
        "30:xscissor",
        "37:synthesis",
        "44:leafblade",
        "51:sunnyday",
        "63:solarblade",
        "tm:attract",
        "tm:brickbreak",
        "tm:bulletseed",
        "tm:crosspoison",
        "tm:endure",
        "tm:energyball",
        "tm:facade",
        "tm:falseswipe",
        "tm:fling",
        "tm:gigadrain",
        "tm:gigaimpact",
        "tm:grassknot",
        "tm:grassyterrain",
        "tm:hyperbeam",
        "tm:leafstorm",
        "tm:leechlife",
        "tm:lowsweep",
        "tm:magicalleaf",
        "tm:payback",
        "tm:poisonjab",
        "tm:protect",
        "tm:psychocut",
        "tm:rest",
        "tm:round",
        "tm:safeguard",
        "tm:seedbomb",
        "tm:sleeptalk",
        "tm:snore",
        "tm:substitute",
        "tm:superpower",
        "tm:swordsdance",
        "tm:weatherball",
        "tutor:grassyglide"
    ],
    "labels": [
        "gen7"
    ],
    "pokedex": [
        "pokemoncobbled.species.lurantis.desc1",
        "pokemoncobbled.species.lurantis.desc2"
    ],
    "preEvolution": "fomantis",
    "evolutions": [],
    "baseScale": 1.0,
    "hitbox": {
        "width": 1.0,
        "height": 1.0,
        "fixed": false
    }
}