{
    "name": "morelull",
    "nationalPokedexNumber": 755,
    "primaryType": "grass",
    "secondaryType": "fairy",
    "abilities": [
        "illuminate",
        "effectspore",
        "h:raindish"
    ],
    "baseStats": {
        "hp": 40,
        "attack": 35,
        "defence": 55,
        "special_attack": 65,
        "special_defence": 75,
        "speed": 15
    },
    "catchRate": 190,
    "maleRatio": 0.5,
    "shoulderMountable": false,
    "forms": [],
    "baseExperienceYield": 57,
    "experienceGroup": "mediumfast",
    "eggCycles": 20,
    "eggGroups": [
        "plant"
    ],
    "moves": [
        "1:absorb",
        "1:astonish",
        "4:confuseray",
        "8:ingrain",
        "12:megadrain",
        "16:sleeppowder",
        "20:moonlight",
        "25:strengthsap",
        "28:gigadrain",
        "32:dazzlinggleam",
        "36:spore",
        "40:moonblast",
        "44:dreameater",
        "egg:growth",
        "egg:leechseed",
        "egg:poisonpowder",
        "egg:stunspore",
        "tm:amnesia",
        "tm:attract",
        "tm:drainingkiss",
        "tm:endure",
        "tm:energyball",
        "tm:facade",
        "tm:grassknot",
        "tm:lightscreen",
        "tm:magicroom",
        "tm:pollenpuff",
        "tm:protect",
        "tm:rest",
        "tm:round",
        "tm:safeguard",
        "tm:seedbomb",
        "tm:sleeptalk",
        "tm:sludgebomb",
        "tm:snore",
        "tm:solarbeam",
        "tm:substitute",
        "tm:sunnyday",
        "tm:thunderwave",
        "tm:wonderroom"
    ],
    "labels": [
        "gen7"
    ],
    "pokedex": [
        "pokemoncobbled.species.morelull.desc1",
        "pokemoncobbled.species.morelull.desc2"
    ],
    "evolutions": [
        {
            "id": "morelull_shiinotic",
            "variant": "level_up",
            "result": "shiinotic",
            "consumeHeldItem": false,
            "learnableMoves": [],
            "requirements": [
                {
                    "variant": "level",
                    "minLevel": 24
                }
            ]
        }
    ],
    "baseScale": 1.0,
    "hitbox": {
        "width": 1.0,
        "height": 1.0,
        "fixed": false
    }
}