{
    "name": "popplio",
    "nationalPokedexNumber": 728,
    "primaryType": "water",
    "abilities": [
        "torrent",
        "h:liquidvoice"
    ],
    "baseStats": {
        "hp": 50,
        "attack": 54,
        "defence": 54,
        "special_attack": 66,
        "special_defence": 56,
        "speed": 40
    },
    "catchRate": 45,
    "maleRatio": 0.875,
    "shoulderMountable": false,
    "forms": [],
    "baseExperienceYield": 64,
    "experienceGroup": "mediumslow",
    "eggCycles": 15,
    "eggGroups": [
        "water1",
        "ground"
    ],
    "moves": [
        "1:pound",
        "1:growl",
        "3:watergun",
        "6:disarmingvoice",
        "9:aquajet",
        "12:babydolleyes",
        "15:icywind",
        "18:sing",
        "21:bubblebeam",
        "24:encore",
        "27:mistyterrain",
        "30:hypervoice",
        "33:moonblast",
        "36:hydropump",
        "egg:aquaring",
        "egg:lifedew",
        "egg:perishsong",
        "tm:acrobatics",
        "tm:amnesia",
        "tm:attract",
        "tm:blizzard",
        "tm:brine",
        "tm:charm",
        "tm:dive",
        "tm:drainingkiss",
        "tm:endure",
        "tm:facade",
        "tm:hail",
        "tm:helpinghand",
        "tm:icebeam",
        "tm:irontail",
        "tm:playrough",
        "tm:protect",
        "tm:raindance",
        "tm:rest",
        "tm:round",
        "tm:scald",
        "tm:sleeptalk",
        "tm:snore",
        "tm:substitute",
        "tm:surf",
        "tm:uproar",
        "tm:waterfall",
        "tm:whirlpool",
        "tm:wonderroom",
        "tm:workup",
        "tutor:flipturn",
        "tutor:tripleaxel",
        "tutor:waterpledge"
    ],
    "labels": [
        "gen7"
    ],
    "pokedex": [
        "pokemoncobbled.species.popplio.desc1",
        "pokemoncobbled.species.popplio.desc2"
    ],
    "evolutions": [
        {
            "id": "popplio_brionne",
            "variant": "level_up",
            "result": "brionne",
            "consumeHeldItem": false,
            "learnableMoves": [],
            "requirements": [
                {
                    "variant": "level",
                    "minLevel": 17
                }
            ]
        }
    ],
    "baseScale": 1.0,
    "hitbox": {
        "width": 1.0,
        "height": 1.0,
        "fixed": false
    }
}