{
    "name": "pyukumuku",
    "nationalPokedexNumber": 771,
    "primaryType": "water",
    "abilities": [
        "innardsout",
        "h:unaware"
    ],
    "baseStats": {
        "hp": 55,
        "attack": 60,
        "defence": 130,
        "special_attack": 30,
        "special_defence": 130,
        "speed": 5
    },
    "catchRate": 60,
    "maleRatio": 0.5,
    "shoulderMountable": false,
    "forms": [],
    "baseExperienceYield": 144,
    "experienceGroup": "fast",
    "eggCycles": 15,
    "eggGroups": [
        "water1"
    ],
    "moves": [
        "1:harden",
        "1:batonpass",
        "5:helpinghand",
        "10:taunt",
        "15:safeguard",
        "20:counter",
        "25:purify",
        "30:curse",
        "35:gastroacid",
        "40:painsplit",
        "45:recover",
        "50:soak",
        "55:toxic",
        "60:memento",
        "egg:mirrorcoat",
        "egg:spite",
        "egg:swagger",
        "egg:tickle",
        "tm:attract",
        "tm:endure",
        "tm:hail",
        "tm:lightscreen",
        "tm:protect",
        "tm:raindance",
        "tm:reflect",
        "tm:rest",
        "tm:screech",
        "tm:sleeptalk",
        "tm:substitute",
        "tm:venomdrench"
    ],
    "labels": [
        "gen7"
    ],
    "pokedex": [
        "pokemoncobbled.species.pyukumuku.desc1",
        "pokemoncobbled.species.pyukumuku.desc2"
    ],
    "evolutions": [],
    "baseScale": 1.0,
    "hitbox": {
        "width": 1.0,
        "height": 1.0,
        "fixed": false
    }
}