{
    "name": "tapufini",
    "nationalPokedexNumber": 788,
    "primaryType": "water",
    "secondaryType": "fairy",
    "abilities": [
        "mistysurge",
        "h:telepathy"
    ],
    "baseStats": {
        "hp": 70,
        "attack": 75,
        "defence": 115,
        "special_attack": 95,
        "special_defence": 130,
        "speed": 85
    },
    "catchRate": 3,
    "maleRatio": 1.125,
    "shoulderMountable": false,
    "forms": [],
    "baseExperienceYield": 285,
    "experienceGroup": "slow",
    "eggCycles": 15,
    "eggGroups": [
        "no-eggs"
    ],
    "moves": [
        "1:watergun",
        "1:disarmingvoice",
        "5:withdraw",
        "10:mist",
        "10:haze",
        "15:aquaring",
        "20:waterpulse",
        "25:brine",
        "30:defog",
        "35:healpulse",
        "40:surf",
        "45:muddywater",
        "50:meanlook",
        "55:naturesmadness",
        "60:moonblast",
        "65:hydropump",
        "70:soak",
        "75:mistyterrain",
        "tm:blizzard",
        "tm:calmmind",
        "tm:dazzlinggleam",
        "tm:dive",
        "tm:drainingkiss",
        "tm:endure",
        "tm:facade",
        "tm:fling",
        "tm:gigaimpact",
        "tm:grassknot",
        "tm:guardswap",
        "tm:hyperbeam",
        "tm:icebeam",
        "tm:icepunch",
        "tm:icywind",
        "tm:irondefense",
        "tm:lightscreen",
        "tm:magicroom",
        "tm:playrough",
        "tm:protect",
        "tm:raindance",
        "tm:reflect",
        "tm:rest",
        "tm:round",
        "tm:safeguard",
        "tm:scald",
        "tm:shadowball",
        "tm:sleeptalk",
        "tm:smartstrike",
        "tm:snore",
        "tm:storedpower",
        "tm:substitute",
        "tm:taunt",
        "tm:trick",
        "tm:waterfall",
        "tm:whirlpool",
        "tm:wonderroom"
    ],
    "labels": [
        "legendary",
        "gen7"
    ],
    "pokedex": [
        "pokemoncobbled.species.tapufini.desc1",
        "pokemoncobbled.species.tapufini.desc2"
    ],
    "evolutions": [],
    "baseScale": 1.0,
    "hitbox": {
        "width": 1.0,
        "height": 1.0,
        "fixed": false
    }
}