{
    "name": "tapukoko",
    "nationalPokedexNumber": 785,
    "primaryType": "electric",
    "secondaryType": "fairy",
    "abilities": [
        "electricsurge",
        "h:telepathy"
    ],
    "baseStats": {
        "hp": 70,
        "attack": 115,
        "defence": 85,
        "special_attack": 95,
        "special_defence": 75,
        "speed": 130
    },
    "catchRate": 3,
    "maleRatio": 1.125,
    "shoulderMountable": false,
    "forms": [],
    "baseExperienceYield": 285,
    "experienceGroup": "slow",
    "eggCycles": 15,
    "eggGroups": [
        "no-eggs"
    ],
    "moves": [
        "1:thundershock",
        "1:quickattack",
        "5:withdraw",
        "10:fairywind",
        "15:falseswipe",
        "20:spark",
        "25:shockwave",
        "30:charge",
        "35:agility",
        "40:screech",
        "45:discharge",
        "50:meanlook",
        "55:naturesmadness",
        "60:wildcharge",
        "65:bravebird",
        "70:powerswap",
        "75:electricterrain",
        "tm:acrobatics",
        "tm:assurance",
        "tm:calmmind",
        "tm:dazzlinggleam",
        "tm:eerieimpulse",
        "tm:electroball",
        "tm:electroweb",
        "tm:endure",
        "tm:facade",
        "tm:fly",
        "tm:gigaimpact",
        "tm:grassknot",
        "tm:hyperbeam",
        "tm:hypervoice",
        "tm:irondefense",
        "tm:ironhead",
        "tm:lightscreen",
        "tm:protect",
        "tm:raindance",
        "tm:reflect",
        "tm:rest",
        "tm:round",
        "tm:safeguard",
        "tm:sleeptalk",
        "tm:snore",
        "tm:steelwing",
        "tm:storedpower",
        "tm:substitute",
        "tm:swift",
        "tm:taunt",
        "tm:thief",
        "tm:thunder",
        "tm:thunderbolt",
        "tm:thunderpunch",
        "tm:thunderwave",
        "tm:uturn",
        "tm:voltswitch",
        "tm:workup"
    ],
    "labels": [
        "legendary",
        "gen7"
    ],
    "pokedex": [
        "pokemoncobbled.species.tapukoko.desc1",
        "pokemoncobbled.species.tapukoko.desc2"
    ],
    "evolutions": [],
    "baseScale": 1.0,
    "hitbox": {
        "width": 1.0,
        "height": 1.0,
        "fixed": false
    }
}