{
  "name": "blizzard",
  "type": "Ice",
  "damageCategory": "Special",
  "target": "allAdjacentFoes",
  "power": 110,
  "accuracy": 70,
  "pp": 5,
  "priority": 0,
  "effectChance": 10,
  "effectStatus": "frz",
  "flags": {
    "protect": 1,
    "mirror": 1
  }
}