{
  "name": "bubble",
  "type": "Water",
  "damageCategory": "Special",
  "target": "allAdjacentFoes",
  "power": 40,
  "accuracy": 100,
  "pp": 30,
  "priority": 0,
  "effectChance": 10,
  "flags": {
    "protect": 1,
    "mirror": 1
  }
}