{
  "name": "bulldoze",
  "type": "Ground",
  "damageCategory": "Physical",
  "target": "allAdjacent",
  "power": 60,
  "accuracy": 100,
  "pp": 20,
  "priority": 0,
  "effectChance": 100,
  "flags": {
    "protect": 1,
    "mirror": 1,
    "nonsky": 1
  }
}