{
  "name": "buzzybuzz",
  "type": "Electric",
  "damageCategory": "Special",
  "target": "normal",
  "power": 60,
  "accuracy": 100,
  "pp": 20,
  "priority": 0,
  "effectChance": 100,
  "effectStatus": "par",
  "flags": {
    "protect": 1
  }
}