{
  "name": "clamp",
  "type": "Water",
  "damageCategory": "Physical",
  "target": "normal",
  "power": 35,
  "accuracy": 85,
  "pp": 15,
  "priority": 0,
  "flags": {
    "contact": 1,
    "protect": 1,
    "mirror": 1
  }
}