{
  "name": "crabhammer",
  "type": "Water",
  "damageCategory": "Physical",
  "target": "normal",
  "power": 100,
  "accuracy": 90,
  "pp": 10,
  "priority": 0,
  "critRatio": 2,
  "flags": {
    "contact": 1,
    "protect": 1,
    "mirror": 1
  }
}