{
  "name": "drainingkiss",
  "type": "Fairy",
  "damageCategory": "Special",
  "target": "normal",
  "power": 50,
  "accuracy": 100,
  "pp": 10,
  "priority": 0,
  "flags": {
    "contact": 1,
    "protect": 1,
    "mirror": 1,
    "heal": 1
  }
}