{
  "name": "eerieimpulse",
  "type": "Electric",
  "damageCategory": "Status",
  "target": "normal",
  "power": 0,
  "accuracy": 100,
  "pp": 15,
  "priority": 0,
  "flags": {
    "protect": 1,
    "reflectable": 1,
    "mirror": 1
  }
}