{
  "name": "ember",
  "type": "Fire",
  "damageCategory": "Special",
  "target": "normal",
  "power": 40,
  "accuracy": 100,
  "pp": 25,
  "priority": 0,
  "effectChance": 10,
  "effectStatus": "brn",
  "flags": {
    "protect": 1,
    "mirror": 1
  }
}