{
  "name": "fairylock",
  "type": "Fairy",
  "damageCategory": "Status",
  "target": "all",
  "power": 0,
  "accuracy": 100.0,
  "pp": 10,
  "priority": 0,
  "flags": {
    "mirror": 1,
    "bypasssub": 1
  }
}