{
  "name": "feintattack",
  "type": "Dark",
  "damageCategory": "Physical",
  "target": "normal",
  "power": 60,
  "accuracy": 100.0,
  "pp": 20,
  "priority": 0,
  "flags": {
    "contact": 1,
    "protect": 1,
    "mirror": 1
  }
}