{
  "name": "fellstinger",
  "type": "Bug",
  "damageCategory": "Physical",
  "target": "normal",
  "power": 50,
  "accuracy": 100,
  "pp": 25,
  "priority": 0,
  "flags": {
    "contact": 1,
    "protect": 1,
    "mirror": 1
  }
}