{
  "name": "fissure",
  "type": "Ground",
  "damageCategory": "Physical",
  "target": "normal",
  "power": 0,
  "accuracy": 30,
  "pp": 5,
  "priority": 0,
  "flags": {
    "protect": 1,
    "mirror": 1,
    "nonsky": 1
  }
}