{
  "name": "fly",
  "type": "Flying",
  "damageCategory": "Physical",
  "target": "any",
  "power": 90,
  "accuracy": 95,
  "pp": 15,
  "priority": 0,
  "flags": {
    "contact": 1,
    "charge": 1,
    "protect": 1,
    "mirror": 1,
    "gravity": 1,
    "distance": 1
  }
}