{
  "name": "furyattack",
  "type": "Normal",
  "damageCategory": "Physical",
  "target": "normal",
  "power": 15,
  "accuracy": 85,
  "pp": 20,
  "priority": 0,
  "flags": {
    "contact": 1,
    "protect": 1,
    "mirror": 1
  }
}