{
  "name": "gunkshot",
  "type": "Poison",
  "damageCategory": "Physical",
  "target": "normal",
  "power": 120,
  "accuracy": 80,
  "pp": 5,
  "priority": 0,
  "effectChance": 30,
  "effectStatus": "psn",
  "flags": {
    "protect": 1,
    "mirror": 1
  }
}