{
  "name": "healbell",
  "type": "Normal",
  "damageCategory": "Status",
  "target": "allyTeam",
  "power": 0,
  "accuracy": 100.0,
  "pp": 5,
  "priority": 0,
  "flags": {
    "snatch": 1,
    "sound": 1,
    "distance": 1,
    "bypasssub": 1
  }
}