{
  "name": "iceburn",
  "type": "Ice",
  "damageCategory": "Special",
  "target": "normal",
  "power": 140,
  "accuracy": 90,
  "pp": 5,
  "priority": 0,
  "effectChance": 30,
  "effectStatus": "brn",
  "flags": {
    "charge": 1,
    "protect": 1,
    "mirror": 1
  }
}