{
  "name": "icepunch",
  "type": "Ice",
  "damageCategory": "Physical",
  "target": "normal",
  "power": 75,
  "accuracy": 100,
  "pp": 15,
  "priority": 0,
  "effectChance": 10,
  "effectStatus": "frz",
  "flags": {
    "contact": 1,
    "protect": 1,
    "mirror": 1,
    "punch": 1
  }
}