{
  "name": "ingrain",
  "type": "Grass",
  "damageCategory": "Status",
  "target": "self",
  "power": 0,
  "accuracy": 100.0,
  "pp": 20,
  "priority": 0,
  "flags": {
    "snatch": 1,
    "nonsky": 1
  }
}