{
  "name": "jumpkick",
  "type": "Fighting",
  "damageCategory": "Physical",
  "target": "normal",
  "power": 100,
  "accuracy": 95,
  "pp": 10,
  "priority": 0,
  "flags": {
    "contact": 1,
    "protect": 1,
    "mirror": 1,
    "gravity": 1
  }
}