{
  "name": "megadrain",
  "type": "Grass",
  "damageCategory": "Special",
  "target": "normal",
  "power": 40,
  "accuracy": 100,
  "pp": 15,
  "priority": 0,
  "flags": {
    "protect": 1,
    "mirror": 1,
    "heal": 1
  }
}