{
  "name": "muddywater",
  "type": "Water",
  "damageCategory": "Special",
  "target": "allAdjacentFoes",
  "power": 90,
  "accuracy": 85,
  "pp": 10,
  "priority": 0,
  "effectChance": 30,
  "flags": {
    "protect": 1,
    "mirror": 1,
    "nonsky": 1
  }
}