{
  "name": "playrough",
  "type": "Fairy",
  "damageCategory": "Physical",
  "target": "normal",
  "power": 90,
  "accuracy": 90,
  "pp": 10,
  "priority": 0,
  "effectChance": 10,
  "flags": {
    "contact": 1,
    "protect": 1,
    "mirror": 1
  }
}