{
  "name": "pollenpuff",
  "type": "Bug",
  "damageCategory": "Special",
  "target": "normal",
  "power": 90,
  "accuracy": 100,
  "pp": 15,
  "priority": 0,
  "flags": {
    "bullet": 1,
    "protect": 1,
    "mirror": 1,
    "allyanim": 1
  }
}