{
  "name": "psychup",
  "type": "Normal",
  "damageCategory": "Status",
  "target": "normal",
  "power": 0,
  "accuracy": 100.0,
  "pp": 10,
  "priority": 0,
  "flags": {
    "bypasssub": 1,
    "allyanim": 1
  }
}