{
  "name": "scaleshot",
  "type": "Dragon",
  "damageCategory": "Physical",
  "target": "normal",
  "power": 25,
  "accuracy": 90,
  "pp": 20,
  "priority": 0,
  "flags": {
    "protect": 1,
    "mirror": 1
  }
}