{
  "name": "secretsword",
  "type": "Fighting",
  "damageCategory": "Special",
  "target": "normal",
  "power": 85,
  "accuracy": 100,
  "pp": 10,
  "priority": 0,
  "flags": {
    "protect": 1,
    "mirror": 1
  }
}