{
  "name": "seedflare",
  "type": "Grass",
  "damageCategory": "Special",
  "target": "normal",
  "power": 120,
  "accuracy": 85,
  "pp": 5,
  "priority": 0,
  "effectChance": 40,
  "flags": {
    "protect": 1,
    "mirror": 1
  }
}