{
  "name": "shadowclaw",
  "type": "Ghost",
  "damageCategory": "Physical",
  "target": "normal",
  "power": 70,
  "accuracy": 100,
  "pp": 15,
  "priority": 0,
  "critRatio": 2,
  "flags": {
    "contact": 1,
    "protect": 1,
    "mirror": 1
  }
}