{
  "name": "snipeshot",
  "type": "Water",
  "damageCategory": "Special",
  "target": "normal",
  "power": 80,
  "accuracy": 100,
  "pp": 15,
  "priority": 0,
  "critRatio": 2,
  "flags": {
    "protect": 1,
    "mirror": 1
  }
}