{
  "name": "steelbeam",
  "type": "Steel",
  "damageCategory": "Special",
  "target": "normal",
  "power": 140,
  "accuracy": 95,
  "pp": 5,
  "priority": 0,
  "flags": {
    "protect": 1,
    "mirror": 1
  }
}