{
  "name": "strugglebug",
  "type": "Bug",
  "damageCategory": "Special",
  "target": "allAdjacentFoes",
  "power": 50,
  "accuracy": 100,
  "pp": 20,
  "priority": 0,
  "effectChance": 100,
  "flags": {
    "protect": 1,
    "mirror": 1
  }
}