{
  "name": "surf",
  "type": "Water",
  "damageCategory": "Special",
  "target": "allAdjacent",
  "power": 90,
  "accuracy": 100,
  "pp": 15,
  "priority": 0,
  "flags": {
    "protect": 1,
    "mirror": 1,
    "nonsky": 1
  }
}