{
  "name": "sweetkiss",
  "type": "Fairy",
  "damageCategory": "Status",
  "target": "normal",
  "power": 0,
  "accuracy": 75,
  "pp": 10,
  "priority": 0,
  "flags": {
    "protect": 1,
    "reflectable": 1,
    "mirror": 1
  }
}