{
  "name": "tearfullook",
  "type": "Normal",
  "damageCategory": "Status",
  "target": "normal",
  "power": 0,
  "accuracy": 100.0,
  "pp": 20,
  "priority": 0,
  "flags": {
    "reflectable": 1,
    "mirror": 1
  }
}