{
  "name": "teeterdance",
  "type": "Normal",
  "damageCategory": "Status",
  "target": "allAdjacent",
  "power": 0,
  "accuracy": 100,
  "pp": 20,
  "priority": 0,
  "flags": {
    "protect": 1,
    "mirror": 1,
    "dance": 1
  }
}