{
  "name": "thunderwave",
  "type": "Electric",
  "damageCategory": "Status",
  "target": "normal",
  "power": 0,
  "accuracy": 90,
  "pp": 20,
  "priority": 0,
  "flags": {
    "protect": 1,
    "reflectable": 1,
    "mirror": 1
  }
}